Division,WeightClassKg,Place,Name,Team,BodyweightKg,Best3SquatKg,Best3BenchKg,Best3DeadliftKg,TotalKg,Equipment,Event,Sex
Boys,56,1,Manuel Padilla,Natalia,54.79,192.78,86.18,167.83,446.79,Single-ply,SBD,M
Boys,60,1,Kevin Hernandez,Floresville,59.83,190.51,113.4,179.17,483.08,Single-ply,SBD,M
Boys,60,2,Ryan Juarez,Natalia,59.01,158.76,77.11,165.56,401.43,Single-ply,SBD,M
Boys,60,3,Taylor Weber,Jourdanton,59.69,156.49,83.91,142.88,383.29,Single-ply,SBD,M
Boys,60,4,Saul Valadez,Natalia,56.56,142.88,65.77,140.61,349.27,Single-ply,SBD,M
Boys,60,DQ,Garrett McDonald,Jourdanton,59.87,170.1,74.84,,,Single-ply,SBD,M
Boys,67.5,1,Matthew Contreras,Natalia,66.54,163.29,81.65,170.1,415.04,Single-ply,SBD,M
Boys,67.5,2,Isaac Bourg,Bandera,66.95,151.95,77.11,170.1,399.16,Single-ply,SBD,M
Boys,67.5,3,Diego Zapata,Natalia,65.45,158.76,79.38,156.49,394.63,Single-ply,SBD,M
Boys,67.5,4,Brian Burns,Bandera,63.28,145.15,74.84,149.69,369.68,Single-ply,SBD,M
Boys,67.5,5,John Slaughter,Bandera,62.05,117.93,83.91,151.95,353.8,Single-ply,SBD,M
Boys,67.5,6,Duell Arnold,Jourdanton,67.04,136.08,81.65,124.74,342.46,Single-ply,SBD,M
Boys,67.5,7,Jj Roman,Bandera,67,124.74,65.77,142.88,333.39,Single-ply,SBD,M
Boys,67.5,8,Reese McDole,Natalia,67.13,92.99,63.5,111.13,267.62,Single-ply,SBD,M
Boys,75,1,Nick Gonzales,Floresville,74.12,213.19,138.35,235.87,587.4,Single-ply,SBD,M
Boys,75,2,Ricardo Saldana,Pleasanton,71.85,210.92,131.54,170.1,512.56,Single-ply,SBD,M
Boys,75,3,Joel Rios,Natalia,74.53,174.63,99.79,188.24,462.66,Single-ply,SBD,M
Boys,75,4,Sergio Rodriguez #3,Pleasanton,74.21,165.56,92.99,165.56,424.11,Single-ply,SBD,M
Boys,75,5,Jesse Zimmel,Bandera,72.57,136.08,83.91,181.44,401.43,Single-ply,SBD,M
Boys,75,6,Aiden Keane,Bandera,69.44,145.15,74.84,147.42,367.41,Single-ply,SBD,M
Boys,75,7,Noah Jones,San Antonio Southwest,68.86,83.91,79.38,124.74,288.03,Single-ply,SBD,M
Boys,82.5,1,Ray Rizo,Natalia,76.07,204.12,102.06,183.7,489.88,Single-ply,SBD,M
Boys,82.5,2,Isaiah Gomez,Natalia,80.88,192.78,106.59,183.7,483.08,Single-ply,SBD,M
Boys,82.5,3,Matthew Manka,Natalia,82.01,151.95,97.52,163.29,412.77,Single-ply,SBD,M
Boys,82.5,DQ,Alex Jannell,Bandera,77.2,,,,,Single-ply,SBD,M
Boys,90,1,Caden Fregia,Natalia,88.95,226.8,127.01,176.9,530.7,Single-ply,SBD,M
Boys,90,2,Alejandro Sanchez,Natalia,87.91,204.12,111.13,210.92,526.17,Single-ply,SBD,M
Boys,90,3,Peter Billalobos,Natalia,89.68,206.38,90.72,210.92,508.02,Single-ply,SBD,M
Boys,90,4,Michael Martinez,Natalia,87.59,188.24,113.4,174.63,476.27,Single-ply,SBD,M
Boys,90,5,Chance Lamb,Natalia,87,179.17,106.59,176.9,462.66,Single-ply,SBD,M
Boys,90,6,Ivan Valencia,San Antonio Southwest,88.18,147.42,95.25,151.95,394.63,Single-ply,SBD,M
Boys,90,DQ,Noah Bunger,Jourdanton,85.59,,,,,Single-ply,SBD,M
Boys,100,1,Julian Martinez,Natalia,99.38,242.67,149.69,256.28,648.64,Single-ply,SBD,M
Boys,100,2,Javier Hernandez,Natalia,92.8,206.38,124.74,226.8,557.92,Single-ply,SBD,M
Boys,100,3,Uriel Arellano,Natalia,94.53,206.38,142.88,174.63,523.9,Single-ply,SBD,M
Boys,100,4,Matthew Billalobos,Natalia,99.06,192.78,108.86,181.44,483.08,Single-ply,SBD,M
Boys,100,5,Angel Aguilar,Bandera,95.12,158.76,127.01,181.44,467.2,Single-ply,SBD,M
Boys,100,6,Jonathan Luna,San Antonio Southwest,91.81,170.1,117.93,163.29,451.32,Single-ply,SBD,M
Boys,100,7,Samuel Macneil,Bandera,97.39,149.69,117.93,158.76,426.38,Single-ply,SBD,M
Boys,100,8,Chris Tenorio,San Antonio Southwest,95.8,136.08,113.4,163.29,412.77,Single-ply,SBD,M
Boys,100,9,Samuel Grodman,Bandera,93.76,151.95,90.72,142.88,385.55,Single-ply,SBD,M
Boys,110,1,Jesus Gomez,San Antonio Southwest,105.41,158.76,117.93,174.63,451.32,Single-ply,SBD,M
Boys,110,2,Mario Sanchez,San Antonio Southwest,106.55,151.95,99.79,181.44,433.18,Single-ply,SBD,M
Boys,110,3,Joshua Pereida,San Antonio Southwest,104.01,154.22,97.52,165.56,417.3,Single-ply,SBD,M
Boys,125,1,Oscar Castillo,Pleasanton,124.74,294.84,190.51,249.48,734.82,Single-ply,SBD,M
Boys,125,2,Oscar Ramirez,Natalia,114.49,226.8,136.08,210.92,573.79,Single-ply,SBD,M
Boys,125,3,Paul Billalobos,Natalia,113.67,226.8,102.06,183.7,512.56,Single-ply,SBD,M
Boys,125,4,Arturo Lopez,San Antonio Southwest,124.69,190.51,111.13,167.83,469.47,Single-ply,SBD,M
Boys,125,5,Isaiah Ibarra,San Antonio Southwest,113.44,154.22,92.99,145.15,392.36,Single-ply,SBD,M
Boys,125,DQ,Bryan Brinoes,Jourdanton,121.15,183.7,,,,Single-ply,SBD,M
Boys,125+,1,Victor Cruz,Natalia,131.5,254.01,147.42,229.06,630.49,Single-ply,SBD,M
Boys,125+,2,Nathan Pearson,Brackettville Brackett,136.49,226.8,124.74,226.8,578.33,Single-ply,SBD,M
Boys,125+,3,Jeremiah Price,San Antonio Southwest,128.32,163.29,113.4,165.56,442.25,Single-ply,SBD,M
Boys,125+,4,George Ortiz,San Antonio Southwest,135.58,145.15,92.99,165.56,403.7,Single-ply,SBD,M
Boys,125+,DQ,Caleb Calamaco,San Antonio Southwest,126.64,,,,,Single-ply,SBD,M
Boys,125+,DQ,Jacob Pace,Pleasanton,129.95,294.84,142.88,,,Single-ply,SBD,M
