Name,Team,Sex,BodyweightKg,WeightClassKg,Squat1Kg,Squat2Kg,Squat3Kg,Best3SquatKg,Bench1Kg,Bench2Kg,Bench3Kg,Best3BenchKg,Deadlift1Kg,Deadlift2Kg,Deadlift3Kg,Best3DeadliftKg,TotalKg,Place,Division,Event,Equipment
Sharn Rowlands,EM,F,40.5,43,90,-100,-105,90,35,42.5,-45,42.5,95,105,107.5,107.5,240,1,F-E-U18,SBD,Single-ply
Marina Cornwall,SM,F,44.4,47,60,65,70,70,45,50,-52.5,50,100,110,-117.5,110,230,1,F-E-M2,SBD,Single-ply
Janny Hunter,EM,F,51.9,52,110,117.5,125,125,75,80,82.5,82.5,150,160,,160,367.5,1,F-E-M2,SBD,Single-ply
Carole Taylor,YNE,F,56.9,57,90,95,102.5,102.5,45,-50,-50,45,125,135,-145,135,282.5,1,F-E-M2,SBD,Single-ply
David Brown,EM,M,57.5,59,85,-90,-90,85,75,-80,-80,75,122.5,,,122.5,282.5,1,M-E-M2,SBD,Single-ply
Helen Barrs,NM,F,62.3,63,140,147.5,152.5,152.5,57,60,-80,60,140,150,-157.5,150,362.5,1,F-E-M1,SBD,Single-ply
Andrew Robson,YNE,M,65.6,66,90,100,110,110,70,80,85,85,120,130,135,135,330,1,M-E-U16,SBD,Single-ply
Conner Morgan,WM,M,60.9,66,75,80,85,85,50,60,65,65,100,110,120,120,270,2,M-E-U16,SBD,Single-ply
Andrew Conner,YNE,M,65.35,66,150,165,170,170,90,100,105,105,160,170,180,180,455,1,M-E-U18,SBD,Single-ply
Benjamin Cattermole,,M,65.3,66,145,-155,-157.5,145,95,-100,100,100,165,172.5,177.5,177.5,422.5,2,M-E-U18,SBD,Single-ply
Joe Carrol,WM,M,61.75,66,105,115,-135,115,60,67.5,70,70,127.5,142.5,165,165,350,3,M-E-U18,SBD,Single-ply
Conner Mahony,WM,M,64.15,66,105,115,125,125,65,72.5,77.5,77.5,125,137.5,147.5,147.5,350,4,M-E-U18,SBD,Single-ply
Andrew Dixon,SE,M,66,66,165,175,-180,175,92.5,97.5,-100,97.5,185,195,205,205,477.5,1,M-E-U20,SBD,Single-ply
Ross Lawton,YNE,M,64.9,66,145,152.5,157.5,157.5,80,85,90,90,165,180,190,190,437.5,2,M-E-U20,SBD,Single-ply
Steven Tyers,SW,M,65.15,66,200,210,220,220,140,150,153.5,153.5,230,240,-254,240,613.5,1,M-E-U23,SBD,Single-ply
Bronwyn Taylor,SC,F,70.2,72,82.5,-90,-90,82.5,-52.5,-52.5,-52.5,-52.5,120,122.5,127.5,127.5,,DQ,F-E-U18,SBD,Single-ply
Lisa Hicks,SW,F,73.4,84,115,125,132.5,132.5,72.5,77.5,-80,77.5,115,125,-135,125,335,1,F-E-U20,SBD,Single-ply
Phillip Richard,WAL,M,73.6,74,240,255,,255,200,207.5,212.5,212.5,235,245,255,255,722.5,1,M-E-M1,SBD,Single-ply
Allen Ottolangui,EM,M,73.9,74,220,235,-247.5,235,135,142.5,-145,142.5,220,-235,235,235,612.5,1,M-E-M2,SBD,Single-ply
Stan Macrow,WM,M,72.7,74,155,165,172.5,172.5,130,132.5,-135,132.5,180,187.5,-190,187.5,492.5,1,M-E-M3,SBD,Single-ply
Desmond Scott,NI,M,73.4,74,95,105,115,115,67.5,72.5,77.5,77.5,155,165,167.5,167.5,360,2,M-E-M3,SBD,Single-ply
Henry Clark,SM,M,74,74,-125,125,130,130,50,-60,60,60,145,150,-160,150,340,1,M-E-M4,SBD,Single-ply
Sunil Chahal,WM,M,72.65,74,235,250,260,260,175,185,192.5,192.5,225,237.5,242.5,242.5,695,1,M-E-U20,SBD,Single-ply
Manoj Chahal,WM,M,78.2,83,230,-250,250,250,160,167.5,-172.5,167.5,220,230,-242.5,230,647.5,1,M-E-M1,SBD,Single-ply
Glen Blacklock,YNE,M,82.8,83,195,210,220,220,142.5,147.5,-152.5,147.5,220,232.5,242.5,242.5,610,2,M-E-M1,SBD,Single-ply
Balwinder Singh,WM,M,82.5,83,250,270,-282.5,270,105,112.5,117.5,117.5,240,247.5,255,255,642.5,1,M-E-M2,SBD,Single-ply
Doug D'Gama,EM,M,81.9,83,215,230,-240,230,155,-160,160,160,225,240,-252.5,240,630,2,M-E-M2,SBD,Single-ply
Mick Cliffe,NM,M,76.5,83,180,200,,200,100,105,110,110,190,210,230,230,540,3,M-E-M2,SBD,Single-ply
Elvet Morgan,,M,82,83,-200,200,210,210,80,90,-97.5,90,220,235,240,240,540,4,M-E-M2,SBD,Single-ply
Ryan Strang,YNE,M,77,83,200,215,-220,215,120,130,132.5,132.5,180,-200,200,200,547.5,1,M-E-U18,SBD,Single-ply
Cameron Keyes,SE,M,81.15,83,160,172.5,-180,172.5,95,105,110,110,200,215,-225,215,497.5,2,M-E-U18,SBD,Single-ply
Stefan Pope,,M,77.95,83,110,120,130,130,80,85,87.5,87.5,160,170,180,180,397.5,3,M-E-U18,SBD,Single-ply
Owen Hubbard,WAL,M,80.15,83,250,270,-277.5,270,180,190,197.5,197.5,240,-252.5,-252.5,240,707.5,1,M-E-U20,SBD,Single-ply
James Duff,YNE,M,78.7,83,270,290,-300,290,135,142.5,147.5,147.5,250,-262.5,-270,250,687.5,2,M-E-U20,SBD,Single-ply
Jeremy Wray,WAL,M,82.25,83,-225,225,-235,225,-150,150,160,160,225,245,252.5,252.5,637.5,1,M-E-U23,SBD,Single-ply
Alistair Cannings,SW,M,80.25,83,255,270,-285,270,60,80,100,100,225,242.5,-250,242.5,612.5,2,M-E-U23,SBD,Single-ply
Jackie Blasbery,EM,F,76.8,84,150,160,165,165,95,100,105,105,170,180,192.5,192.5,462.5,1,F-E-M1,SBD,Single-ply
Jean Maton,SM,F,83.9,84,160,-170,170,170,100,110,-112.5,110,170,182.5,-187.5,182.5,462.5,2,F-E-M1,SBD,Single-ply
Sue Hollands,YNE,F,83,84,165,172.5,180,180,82.5,-87.5,87.5,87.5,160,167.5,172.5,172.5,440,1,F-E-M3,SBD,Single-ply
Aimee Margott,SE,F,80.4,84,90,-100,,90,45,50,,50,65,,,65,205,1,F-E-U18,SBD,Single-ply
Victoria Embleton,YNE,F,82.1,84,140,-150,150,150,50,57.5,-60,57.5,-140,140,155,155,362.5,1,F-E-U23,SBD,Single-ply
Joe Bullock,NW,M,92.95,93,290,300,-307.5,300,180,185,190,190,260,270,-275,270,760,1,M-E-M1,SBD,Single-ply
TS Adewale,GL,M,83.15,93,-250,250,-260,250,135,145,-152.5,145,250,272.5,,272.5,667.5,2,M-E-M1,SBD,Single-ply
Geraint Nicholas,WAL,M,92.2,93,210,225,230,230,125,130,132.5,132.5,240,270,280,280,642.5,3,M-E-M1,SBD,Single-ply
Chris Cooper,YNE,M,92.7,93,200,212.5,220,220,157.5,165,170,170,220,235,245,245,635,1,M-E-M2,SBD,Single-ply
Roy Cole,SE,M,92.8,93,180,200,205,205,140,150,152.5,152.5,200,220,-225,220,577.5,2,M-E-M2,SBD,Single-ply
Mark Macey,SE,M,91.2,93,-170,170,185,185,110,120,122.5,122.5,190,210,-220,210,517.5,3,M-E-M2,SBD,Single-ply
Kevin Jane,EM,M,92.5,93,240,260,277.5,277.5,155,162.5,-167.5,162.5,260,272.5,-277.5,272.5,712.5,1,M-E-M3,SBD,Single-ply
Mick Ellender,SE,M,91,93,185,195,-200,195,120,,,120,230,240,250,250,565,2,M-E-M3,SBD,Single-ply
Liam Wilson,SE,M,96.4,105,130,137.5,142.5,142.5,82.5,90,100,100,160,170,-180,170,412.5,2,M-E-U18,SBD,Single-ply
Alexander Carvell,YNE,M,91.8,93,160,170,180,180,-125,125,130,130,220,230,240,240,550,1,M-E-U20,SBD,Single-ply
Andrew Spiers,WM,M,92.2,93,255,270,280,280,185,195,-200,195,260,275,-282.5,275,750,1,M-E-U23,SBD,Single-ply
John Wright,YNE,M,104.1,105,255,270,280,280,190,195,197.5,197.5,250,265,270,270,747.5,1,M-E-M1,SBD,Single-ply
Andrew Rodney,EM,M,105,105,220,250,270,270,155,170,180,180,230,265,-275,265,715,2,M-E-M1,SBD,Single-ply
Arthur Cowley,SC,M,101,105,265,280,290,290,190,197.5,202.5,202.5,250,260,-267.5,260,752.5,1,M-E-M2,SBD,Single-ply
Jim Dulling,YNE,M,104.4,105,180,-190,-190,180,147.5,-150,-150,147.5,225,235,242.5,242.5,570,1,M-E-M3,SBD,Single-ply
Dave Battison,EM,M,98.3,105,190,-200,-200,190,135,142.5,147.5,147.5,215,227.5,230,230,567.5,2,M-E-M3,SBD,Single-ply
Thomas Kendale,NW,M,102.6,105,160,167.5,175,175,-130,135,-140,135,160,170,180,180,490,1,M-E-U18,SBD,Single-ply
Thomas Taylor,YNE,M,100.8,105,215,230,-245,230,125,135,140,140,220,235,245,245,615,1,M-E-U20,SBD,Single-ply
John Hamson,NM,M,102.8,105,310,325,-335,325,220,-235,-235,220,275,290,-305,290,835,1,M-E-U23,SBD,Single-ply
Louis Beaumont,YNE,M,102.2,105,270,282.5,290,290,175,-182.5,-182.5,175,250,255,-260,255,720,2,M-E-U23,SBD,Single-ply
Jack Cook,EM,M,95.3,105,245,260,265,265,145,-160,160,160,245,265,275,275,700,3,M-E-U23,SBD,Single-ply
Steve Gott,YNE,M,109.6,120,237.5,260,282.5,282.5,190,197.5,202.5,202.5,245,265,272.5,272.5,757.5,1,M-E-M1,SBD,Single-ply
Russ Kirby,SE,M,112,120,260,270,275,275,180,187.5,-192.5,187.5,275,285,-290,285,747.5,2,M-E-M1,SBD,Single-ply
Brian Lee,YNE,M,118.7,120,240,260,-270,260,180,200,207.5,207.5,260,280,290,290,757.5,1,M-E-M2,SBD,Single-ply
David Cridland,SE,M,114.4,120,150,160,167.5,167.5,112.5,117.5,-120,117.5,180,192.5,-205,192.5,477.5,1,M-E-U18,SBD,Single-ply
Daniel Fletcher,SE,M,105.7,120,140,150,157.5,157.5,97.5,102.5,-107.5,102.5,180,190,200,200,460,2,M-E-U18,SBD,Single-ply
Simon Pillinger,WM,M,112.3,120,130,140,150,150,70,75,-77.5,75,175,185,195,195,420,3,M-E-U18,SBD,Single-ply
