Place,Name,Sex,Event,Division,WeightClassKg,Equipment,BirthYear,State,BodyweightKg,Squat1Kg,Squat2Kg,Squat3Kg,Best3SquatKg,Bench1Kg,Bench2Kg,Bench3Kg,Best3BenchKg,Deadlift1Kg,Deadlift2Kg,Deadlift3Kg,Best3DeadliftKg,TotalKg
1,Aaron Williams,M,B,MR-O,83,Raw,1989,GA,79.85,,,,,-142.5,145,-160,145,,,,,145
1,Madison Levy,F,D,FR-Y,35,Raw,2007,GA,30.38,,,,,,,,,35,42.5,45,45,45
1,Karen Camp,F,SBD,FR-M,52,Raw,1967,GA,51.04,80,85,-90,85,47.5,50,52.5,52.5,107.5,112.5,117.5,117.5,255
1,Bianca White,F,SBD,FR-M,84,Raw,1959,GA,81,-90,95,-100,95,52.5,55,57.5,57.5,102.5,110,117.5,117.5,270
1,Conswella Bennett,F,SBD,FR-M,84+,Raw,1973,GA,86.35,112.5,122.5,130,130,65,72.5,-77.5,72.5,142.5,152.5,167.5,167.5,370
1,Karen Camp,F,SBD,FR-O,52,Raw,1967,GA,51.04,80,85,-90,85,47.5,50,52.5,52.5,107.5,112.5,117.5,117.5,255
1,Addison Roth,F,SBD,FR-O,57,Raw,1996,GA,55.22,75,82.5,90,90,47.5,-52.5,-55,47.5,85,95,100,100,237.5
2,Dina Delich,F,SBD,FR-O,57,Raw,1983,GA,56.66,80,85,90,90,32.5,37.5,40,40,95,100,-110,100,230
1,Gabrielle Fundaro,F,SBD,FR-O,63,Raw,1987,GA,58.76,87.5,95,100,100,70,75,-77.5,75,112.5,-122.5,122.5,122.5,297.5
1,Sheryll Donerson,F,SBD,FR-O,72,Raw,1986,GA,69,85,102.5,105,105,50,57.5,-60,57.5,105,125,127.5,127.5,290
2,Erica Pellicer,F,SBD,FR-O,72,Raw,1986,GA,72,72.5,80,-85,80,42.5,45,-47.5,45,85,92.5,97.5,97.5,222.5
1,Christie Hoffmeyer,F,SBD,FR-O,84+,Raw,1991,AL,90.55,120,127.5,137.5,137.5,65,72.5,77.5,77.5,160,170,182.5,182.5,397.5
2,Conswella Bennett,F,SBD,FR-O,84+,Raw,1973,GA,86.35,112.5,122.5,130,130,65,72.5,-77.5,72.5,142.5,152.5,167.5,167.5,370
3,Monica Manning,F,SBD,FR-O,84+,Raw,1980,TN,98.85,105,112.5,120,120,77.5,82.5,87.5,87.5,140,152.5,-167.5,152.5,360
4,Emily Owens,F,SBD,FR-O,84+,Raw,1974,GA,105.25,80,90,92.5,92.5,57.5,62.5,67.5,67.5,117.5,-120,120,120,280
1,Megan Gibbs,F,SBD,R-SubJR,84+,Raw,2002,GA,91.45,115,120,140,140,62.5,67.5,-75,67.5,140,165,172.5,172.5,380
1,Katherine Cargill,F,SBD,FR-Y,63,Raw,2005,GA,59.9,47.5,57.5,60,60,25,30,35,35,65,75,85,85,180
1,Elvin Aquino,M,SBD,MR-Jr,74,Raw,1998,NC,70.2,85,-102.5,102.5,102.5,60,-77.5,-77.5,60,142.5,-170,-170,142.5,305
1,Decarlo Myles,M,SBD,MR-Jr,93,Raw,1996,GA,87.35,190,202.5,222.5,222.5,150,162.5,167.5,167.5,230,252.5,272.5,272.5,662.5
1,Craig Harris,M,SBD,MR-Jr,120,Raw,1993,GA,116.25,255,270,-277.5,270,-170,172.5,-182.5,172.5,265,277.5,295,295,737.5
1,Mark Valdez,M,SBD,MR-M,83,Raw,1970,AL,79.35,150,160,170,170,87.5,95,100,100,185,197.5,210,210,480
1,Luca Yearsovich,M,SBD,MR-M,105,Raw,1976,GA,97.15,105,125,137.5,137.5,102.5,110,-120,110,145,155,165,165,412.5
1,Jeff Robison,M,SBD,MR-M,120,Raw,1973,GA,118.4,65,,,65,65,,,65,65,,,65,195
1,Dan Thai,M,SBD,MR-O,74,Raw,1989,GA,73.7,-142.5,-147.5,147.5,147.5,100,107.5,110,110,175,180,190,190,447.5
1,Mark Valdez,M,SBD,MR-O,83,Raw,1970,AL,79.35,150,160,170,170,87.5,95,100,100,185,197.5,210,210,480
2,Cody Carpenter,M,SBD,MR-O,83,Raw,1992,GA,82.45,150,160,-175,160,95,-102.5,102.5,102.5,150,165,182.5,182.5,445
1,Decarlo Myles,M,SBD,MR-O,93,Raw,1996,GA,87.35,190,202.5,222.5,222.5,150,162.5,167.5,167.5,230,252.5,272.5,272.5,662.5
2,Stephen Leone,M,SBD,MR-O,93,Raw,1991,GA,90.25,175,195,212.5,212.5,130,142.5,-150,142.5,205,220,232.5,232.5,587.5
3,Jon Hiddleson,M,SBD,MR-O,93,Raw,1984,GA,90,195,205,215,215,102.5,115,-120,115,185,192.5,202.5,202.5,532.5
4,Anthony van Garay,M,SBD,MR-O,93,Raw,1987,GA,92.2,170,185,195,195,122.5,127.5,-132.5,127.5,185,197.5,205,205,527.5
5,Adam Fowler,M,SBD,MR-O,93,Raw,1983,GA,91.3,155,162.5,175,175,110,117.5,-122.5,117.5,182.5,190,197.5,197.5,490
1,Colin Kopel,M,SBD,MR-O,105,Raw,1986,GA,102.1,147.5,160,167.5,167.5,117.5,125,132.5,132.5,160,172.5,185,185,485
DQ,Randeep Khaund,M,SBD,MR-O,105,Raw,1984,GA,95.6,-152.5,157.5,165,165,-100,-105,-105,,182.5,192.5,200,200,
1,Jason Reyna,M,SBD,MR-O,120,Raw,1983,GA,119.4,185,190,202.5,202.5,155,160,-167.5,160,155,162.5,172.5,172.5,535
2,Drew Smith,M,SBD,MR-O,120,Raw,1986,GA,106.55,162.5,172.5,182.5,182.5,110,120,-125,120,165,177.5,185,185,487.5
2,Drew Smith,M,SBD,MR-O,120,Raw,1986,GA,106.55,162.5,172.5,182.5,182.5,110,120,-125,120,165,177.5,185,185,487.5
1,Vaughan Griffiths,M,SBD,MR-O,120+,Raw,1982,GA,126.55,210,-227.5,227.5,227.5,140,145,-150,145,220,-232.5,-232.5,220,592.5
DQ,Timothy Cunningham,M,SBD,MR-O,120+,Raw,1993,NC,146,-182.5,182.5,235,235,-165,-185,-185,,-205,205,-230,205,
1,Andrew Cargill #1,M,SBD,R-SubJR,74,Raw,2002,GA,71.8,105,117.5,125,125,82.5,-90,90,90,145,165,-175,165,380
DQ,Jordan Mershimer,M,SBD,R-SubJR,83,Raw,2000,NC,80.1,175,-185,-185,175,-140,-140,-140,,220,-222.5,-222.5,220,
1,Christie Zunker,F,BD,FR-M,84,Raw,1973,GA,79.35,,,,,55,57.5,60,60,75,82.5,87.5,87.5,147.5
1,Christie Zunker,F,BD,FR-O,84,Raw,1973,GA,79.35,,,,,55,57.5,60,60,75,82.5,87.5,87.5,147.5
