Division,WeightClassKg,Place,Name,Team,BodyweightKg,Best3SquatKg,Best3BenchKg,Best3DeadliftKg,TotalKg,Equipment,Event,Sex
Boys,52,1,Joseph Jenkins,Perryton,51.62,92.99,61.23,102.06,256.28,Single-ply,SBD,M
Boys,52,2,Andrew Luna,Perryton,47.63,92.99,43.09,92.99,229.06,Single-ply,SBD,M
Boys,56,1,Elijah Zambrano,Plainview,55.34,149.69,61.23,136.08,347,Single-ply,SBD,M
Boys,56,2,Anthony Lara,Wolfforth Frenship,53.34,120.2,65.77,136.08,322.05,Single-ply,SBD,M
Boys,56,3,Jeffery Davis,Lubbock Coronado,55.7,106.59,52.16,120.2,278.96,Single-ply,SBD,M
Boys,56,4,Hunter Weaver,Canyon Randall,54.79,102.06,56.7,108.86,267.62,Single-ply,SBD,M
Boys,56,5,Trevor Bennett,Perryton,55.52,79.38,52.16,111.13,242.67,Single-ply,SBD,M
Boys,56,DQ,Ignacio Romero,Plainview,55.43,170.1,,,,Single-ply,SBD,M
Boys,60,1,Raymon Aranda,Seagraves,59.87,183.7,106.59,195.04,485.34,Single-ply,SBD,M
Boys,60,2,Anthony Washington,Plainview,57.52,165.56,90.72,170.1,426.38,Single-ply,SBD,M
Boys,60,3,Esteban Fierro,Plainview,59.87,163.29,95.25,156.49,415.04,Single-ply,SBD,M
Boys,60,4,Adrian Velasquez,Wolfforth Frenship,58.33,142.88,90.72,161.03,394.63,Single-ply,SBD,M
Boys,60,5,Derek Adame,Plainview,59.15,154.22,90.72,147.42,392.36,Single-ply,SBD,M
Boys,60,6,Cameron Arellano,Wolfforth Frenship,58.33,133.81,74.84,165.56,374.21,Single-ply,SBD,M
Boys,60,7,Christian Maldonado,Canyon Randall,59.78,133.81,90.72,136.08,360.61,Single-ply,SBD,M
Boys,60,8,Landon Nail,Lubbock Cooper,57.06,113.4,77.11,151.95,342.46,Single-ply,SBD,M
Boys,60,9,James Bejarano,Wolfforth Frenship,59.42,111.13,56.7,131.54,299.37,Single-ply,SBD,M
Boys,60,10,Matthew Cano,Perryton,57.06,92.99,65.77,129.27,288.03,Single-ply,SBD,M
Boys,67.5,1,Michael Lopez,Levelland,63.14,165.56,88.45,172.37,426.38,Single-ply,SBD,M
Boys,67.5,2,Dillan Smith,Lubbock Cooper,63.78,151.95,102.06,172.37,426.38,Single-ply,SBD,M
Boys,67.5,3,Emilio Miranda,Levelland,67.13,156.49,86.18,170.1,412.77,Single-ply,SBD,M
Boys,67.5,4,Zach Soto,Lubbock Coronado,66.32,140.61,97.52,149.69,387.82,Single-ply,SBD,M
Boys,67.5,5,Matthew Gallegos,Plainview,61.69,136.08,81.65,158.76,376.48,Single-ply,SBD,M
Boys,67.5,6,Hayden McCalib,Wolfforth Frenship,61.14,133.81,52.16,149.69,335.66,Single-ply,SBD,M
Boys,67.5,7,Don Jones #3,Shallowater,63.14,108.86,77.11,147.42,333.39,Single-ply,SBD,M
Boys,67.5,8,Zach Walser,Canyon Randall,61.69,129.27,70.31,129.27,328.85,Single-ply,SBD,M
Boys,67.5,9,Donald Gibbons,Floydada,65.23,111.13,88.45,127.01,326.59,Single-ply,SBD,M
Boys,67.5,10,Brandon Navarro,Dimmitt,60.51,108.86,81.65,127.01,317.51,Single-ply,SBD,M
Boys,67.5,11,Wade Burt,Shallowater,66.86,106.59,74.84,136.08,317.51,Single-ply,SBD,M
Boys,67.5,DQ,Jerricho Enriquez,Plainview,65.32,,,,,Single-ply,SBD,M
Boys,67.5,DQ,Chris Chavarria,Floydada,66.04,167.83,,,,Single-ply,SBD,M
Boys,75,1,Corbin McGill,Borger,72.85,183.7,111.13,188.24,483.08,Single-ply,SBD,M
Boys,75,2,Cooper Ogle,Shallowater,69.85,181.44,99.79,192.78,474,Single-ply,SBD,M
Boys,75,3,Garron Weber,Borger,73.12,151.95,115.67,204.12,471.74,Single-ply,SBD,M
Boys,75,4,Adam Covarrubias,Levelland,71.21,161.03,120.2,181.44,462.66,Single-ply,SBD,M
Boys,75,5,Kolton Keeth,Perryton,71.85,172.37,108.86,176.9,458.13,Single-ply,SBD,M
Boys,75,6,Jacob Duenes,Shallowater,74.66,172.37,92.99,181.44,446.79,Single-ply,SBD,M
Boys,75,7,Esteban Zuniga,Lubbock Coronado,74.57,174.63,95.25,161.03,430.91,Single-ply,SBD,M
Boys,75,8,Gabe Rodriguez,Lubbock Cooper,71.94,149.69,95.25,183.7,428.64,Single-ply,SBD,M
Boys,75,9,Estevan Gonzales,Dimmitt,73.12,147.42,83.91,192.78,424.11,Single-ply,SBD,M
Boys,75,10,Jorge Martinez,Dimmitt,70.67,147.42,83.91,167.83,399.16,Single-ply,SBD,M
Boys,75,11,Jerry Simental,Seagraves,73.57,136.08,92.99,165.56,394.63,Single-ply,SBD,M
Boys,75,12,Ian Gonzalez,Shallowater,74.39,154.22,68.04,154.22,376.48,Single-ply,SBD,M
Boys,75,13,CJ McDaniel,Borger,68.67,147.42,70.31,154.22,371.95,Single-ply,SBD,M
Boys,75,14,Aaron Irvin,Canyon,71.3,131.54,83.91,156.49,371.95,Single-ply,SBD,M
Boys,75,15,Isaiah Ramos,Shallowater,72.67,136.08,83.91,149.69,369.68,Single-ply,SBD,M
Boys,75,16,Jose Duenas,Dimmitt,74.48,113.4,90.72,158.76,362.87,Single-ply,SBD,M
Boys,75,17,Abraham Navarro,Dimmitt,70.76,104.33,79.38,88.45,272.16,Single-ply,SBD,M
Boys,82.5,1,Brody Schleeter,Lubbock Cooper,80.38,215.46,147.42,229.06,591.94,Single-ply,SBD,M
Boys,82.5,2,Rolando Gill,Plainview,81.19,195.04,115.67,199.58,510.29,Single-ply,SBD,M
Boys,82.5,3,Cutter Paris,Canyon Randall,81.19,195.04,120.2,192.78,508.02,Single-ply,SBD,M
Boys,82.5,4,Caleb Hurst,Lubbock Cooper,77.11,170.1,120.2,188.24,478.54,Single-ply,SBD,M
Boys,82.5,5,Wayne Carrillo,Shallowater,81.37,176.9,102.06,195.04,474,Single-ply,SBD,M
Boys,82.5,6,Henry Torres,Perryton,77.38,170.1,102.06,167.83,439.98,Single-ply,SBD,M
Boys,82.5,7,Alex Quinonez,Seagraves,79.02,147.42,92.99,195.04,435.45,Single-ply,SBD,M
Boys,82.5,8,Dillon Hibbitts,Seagraves,81.28,142.88,97.52,174.63,415.04,Single-ply,SBD,M
Boys,82.5,9,Quinten Johnson,Wolfforth Frenship,81.83,145.15,70.31,174.63,390.09,Single-ply,SBD,M
Boys,82.5,10,Edgar Granados,Perryton,81.01,133.81,79.38,142.88,356.07,Single-ply,SBD,M
Boys,90,1,Miguel Rangel,Borger,86.91,272.16,172.37,238.14,682.66,Single-ply,SBD,M
Boys,90,2,Roy Flores,Levelland,85,219.99,140.61,215.46,576.06,Single-ply,SBD,M
Boys,90,3,D'Angelo Thomas,Plainview,89.81,204.12,129.27,201.85,535.24,Single-ply,SBD,M
Boys,90,4,Carlos Pina,Lubbock Cooper,82.46,188.24,115.67,181.44,485.34,Single-ply,SBD,M
Boys,90,5,Jeremy Dominguez,Plainview,89.81,201.85,108.86,172.37,483.08,Single-ply,SBD,M
Boys,90,6,Wesley Ward,Borger,86.82,151.95,102.06,199.58,453.59,Single-ply,SBD,M
Boys,90,7,Billy Ummel,Canyon,86.64,158.76,120.2,163.29,442.25,Single-ply,SBD,M
Boys,90,8,Adam Delgado,Wolfforth Frenship,85.37,142.88,102.06,183.7,428.64,Single-ply,SBD,M
Boys,90,9,Christian Perez,Levelland,88.27,158.76,92.99,174.63,426.38,Single-ply,SBD,M
Boys,90,10,RJ Young,Wolfforth Frenship,82.46,138.35,83.91,156.49,378.75,Single-ply,SBD,M
Boys,90,11,Nik Hodges,Shallowater,89.45,147.42,92.99,138.35,378.75,Single-ply,SBD,M
Boys,90,12,Renee Enriquez,Lubbock Cooper,87.91,120.2,90.72,154.22,365.14,Single-ply,SBD,M
Boys,90,13,Blake Parker,Muleshoe,86.45,117.93,86.18,124.74,328.85,Single-ply,SBD,M
Boys,90,14,Esteban Alaniz,Seagraves,89.45,92.99,74.84,127.01,294.84,Single-ply,SBD,M
Boys,90,DQ,Braden Price,Levelland,89.63,170.1,,,,Single-ply,SBD,M
Boys,100,1,Paul Ochoa,Levelland,97.98,260.82,172.37,219.99,653.17,Single-ply,SBD,M
Boys,100,2,Crystin Baston,Plainview,99.79,238.14,149.69,238.14,625.96,Single-ply,SBD,M
Boys,100,3,Brandon Steele,Lubbock Coronado,95.89,226.8,149.69,206.38,582.87,Single-ply,SBD,M
Boys,100,4,Bolton Huerta,Wolfforth Frenship,97.52,199.58,115.67,226.8,542.04,Single-ply,SBD,M
Boys,100,5,Ezequiel Porras,Borger,97.43,219.99,129.27,183.7,532.97,Single-ply,SBD,M
Boys,100,6,Andrew King,Lubbock Coronado,91.35,197.31,111.13,206.38,514.83,Single-ply,SBD,M
Boys,100,7,Asher Robinson,Wolfforth Frenship,92.35,172.37,117.93,217.72,508.02,Single-ply,SBD,M
Boys,100,8,Caden Lafever,Canyon Randall,93.53,185.97,127.01,192.78,505.76,Single-ply,SBD,M
Boys,100,9,Victor Del Fierro,Canyon Randall,98.97,174.63,122.47,183.7,480.81,Single-ply,SBD,M
Boys,100,10,Gage Morgan,Wolfforth Frenship,91.35,170.1,81.65,199.58,451.32,Single-ply,SBD,M
Boys,100,11,Jordan Hernandez,Wolfforth Frenship,98.07,179.17,83.91,188.24,451.32,Single-ply,SBD,M
Boys,100,12,Antonio Covarrubias,Perryton,98.07,167.83,97.52,183.7,449.06,Single-ply,SBD,M
Boys,100,13,Jose Salas,Dimmitt,97.7,138.35,108.86,181.44,428.64,Single-ply,SBD,M
Boys,100,14,Adrian Cabanas,Lubbock Cooper,98.16,147.42,92.99,170.1,410.5,Single-ply,SBD,M
Boys,100,15,Will Moran,Lubbock Cooper,90.63,149.69,83.91,174.63,408.23,Single-ply,SBD,M
Boys,100,16,Lance Lee,Wolfforth Frenship,91.9,133.81,83.91,183.7,401.43,Single-ply,SBD,M
Boys,100,17,Leonel Camorena,Muleshoe,97.7,108.86,65.77,113.4,288.03,Single-ply,SBD,M
Boys,100,DQ,Isaiah Williams,Wolfforth Frenship,91.81,145.15,104.33,163.29,,Single-ply,SBD,M
Boys,100,DQ,Jose Valles,Wolfforth Frenship,95.35,145.15,,,,Single-ply,SBD,M
Boys,100,DQ,Dylan Bevel,Canyon Randall,94.26,174.63,,,,Single-ply,SBD,M
Boys,110,1,Roy Abanonu,Plainview,109.77,244.94,161.03,226.8,632.76,Single-ply,SBD,M
Boys,110,2,Andrew Vasquez,Perryton,104.42,197.31,127.01,192.78,517.1,Single-ply,SBD,M
Boys,110,3,Gage Holmes,Wolfforth Frenship,108.77,195.04,97.52,213.19,505.76,Single-ply,SBD,M
Boys,110,4,Quentin Weigle,Canyon,101.7,167.83,104.33,181.44,453.59,Single-ply,SBD,M
Boys,110,5,Isaac Huseman,Canyon,106.32,158.76,86.18,181.44,426.38,Single-ply,SBD,M
Boys,110,6,Ethan Martinez,Lubbock Cooper,109.5,158.76,117.93,149.69,426.38,Single-ply,SBD,M
Boys,110,7,Alejandro Simental,Perryton,108.5,163.29,92.99,165.56,421.84,Single-ply,SBD,M
Boys,110,8,Israel Uribe,Perryton,100.43,174.63,79.38,165.56,419.57,Single-ply,SBD,M
Boys,110,9,Javier Olivera,Floydada,106.5,149.69,99.79,170.1,419.57,Single-ply,SBD,M
Boys,110,10,Zach Morgan,Wolfforth Frenship,106.14,142.88,86.18,165.56,394.63,Single-ply,SBD,M
Boys,125,1,Adriel Flores,Plainview,124.28,249.48,142.88,233.6,625.96,Single-ply,SBD,M
Boys,125,2,Tomas Vidales,Levelland,118.93,219.99,129.27,217.72,566.99,Single-ply,SBD,M
Boys,125,3,Damian Provencio,Borger,118.3,213.19,120.2,206.38,539.77,Single-ply,SBD,M
Boys,125,4,Evan Brown,Wolfforth Frenship,114.12,183.7,145.15,201.85,530.7,Single-ply,SBD,M
Boys,125,5,Lucas Flores,Wolfforth Frenship,115.76,206.38,106.59,204.12,517.1,Single-ply,SBD,M
Boys,125,6,Jacob Schneider,Lubbock Cooper,117.66,183.7,147.42,183.7,514.83,Single-ply,SBD,M
Boys,125,7,Christian Barkley,Lubbock Cooper,111.22,181.44,115.67,199.58,496.68,Single-ply,SBD,M
Boys,125,8,Jessie Austin,Lubbock Coronado,115.39,181.44,117.93,172.37,471.74,Single-ply,SBD,M
Boys,125,9,Kris Rodgers,Lubbock Coronado,113.49,179.17,115.67,170.1,464.93,Single-ply,SBD,M
Boys,125,10,Vincent Romero,Levelland,124.19,183.7,97.52,174.63,455.86,Single-ply,SBD,M
Boys,125,11,Tytus Williams,Borger,118.21,190.51,102.06,156.49,449.06,Single-ply,SBD,M
Boys,125,12,Dillan Allen,Wolfforth Frenship,111.4,163.29,92.99,176.9,433.18,Single-ply,SBD,M
Boys,125,13,Ethan Aragon,Canyon,116.12,151.95,111.13,149.69,412.77,Single-ply,SBD,M
Boys,125,14,Dane Lewis,Wolfforth Frenship,112.04,147.42,86.18,161.03,394.63,Single-ply,SBD,M
Boys,125,15,David Muñoz,Canyon Randall,111.95,147.42,108.86,136.08,392.36,Single-ply,SBD,M
Boys,125,16,Jesse Garcia,Canyon,113.85,145.15,83.91,158.76,387.82,Single-ply,SBD,M
Boys,125+,1,Jade Maldonado,Lubbock Cooper,131.9,233.6,151.95,226.8,612.35,Single-ply,SBD,M
Boys,125+,2,Trevor Townsend,Plainview,135.62,235.87,127.01,197.31,560.19,Single-ply,SBD,M
Boys,125+,3,Misael Grado,Dimmitt,141.7,181.44,117.93,174.63,474,Single-ply,SBD,M
Boys,125+,4,Ivan Medina,Borger,134.35,170.1,108.86,181.44,460.4,Single-ply,SBD,M
Boys,125+,5,Brandon Dones,Dimmitt,146.6,151.95,108.86,165.56,426.38,Single-ply,SBD,M
