Division,WeightClassKg,Place,Name,Team,BodyweightKg,Best3SquatKg,Best3BenchKg,Best3DeadliftKg,TotalKg,Equipment,Event,Sex
Boys,52,1,Shawn Shepard,Carrollton Ranchview,50.35,97.52,74.84,113.4,285.76,Single-ply,SBD,M
Boys,52,2,Sam Collier,Lake Dallas,46.13,90.72,65.77,104.33,260.82,Single-ply,SBD,M
Boys,52,3,Matthew Seng,Carrollton Creekview,49.62,97.52,61.23,102.06,260.82,Single-ply,SBD,M
Boys,56,1,Aaron Cyrus,Carrollton Creekview,55.57,108.86,49.9,120.2,278.96,Single-ply,SBD,M
Boys,56,2,Keveon Henderson,Carrollton Turner,54.75,90.72,49.9,124.74,265.35,Single-ply,SBD,M
Boys,56,3,Angel Armijo,Carrollton Turner,55.29,102.06,52.16,97.52,251.74,Single-ply,SBD,M
Boys,56,4,Matthew Winn,Carrollton Turner,54.75,88.45,56.7,104.33,249.48,Single-ply,SBD,M
Boys,60,1,Stephen Garcia,Carrollton Creekview,59.06,111.13,56.7,127.01,294.84,Single-ply,SBD,M
Boys,60,DQ,Camron Gray,Carrollton Creekview,59.65,147.42,68.04,,,Single-ply,SBD,M
Boys,67.5,1,Ricky Villanueva,Carrollton Turner,66.81,165.56,90.72,147.42,403.7,Single-ply,SBD,M
Boys,67.5,2,Zach Dixon,Carrollton Ranchview,61.28,122.47,102.06,154.22,378.75,Single-ply,SBD,M
Boys,67.5,3,Jacob Barbosa,Carrollton Smith,66.68,140.61,86.18,145.15,371.95,Single-ply,SBD,M
Boys,67.5,4,Ian Tanner,Carrollton Creekview,65.23,149.69,79.38,140.61,369.68,Single-ply,SBD,M
Boys,67.5,5,Darryn Brossett,Carrollton Ranchview,66.95,129.27,81.65,129.27,340.19,Single-ply,SBD,M
Boys,75,1,Matt Stockard,Lake Dallas,71.53,185.97,111.13,190.51,487.61,Single-ply,SBD,M
Boys,75,2,Julio Leon,Carrollton Smith,74.75,165.56,115.67,174.63,455.86,Single-ply,SBD,M
Boys,75,3,Jesus Marban,Carrollton Turner,72.35,163.29,99.79,183.7,446.79,Single-ply,SBD,M
Boys,75,4,Hung Tran,Carrollton Creekview,72.08,167.83,90.72,176.9,435.45,Single-ply,SBD,M
Boys,75,5,Kolby Davis,Lake Dallas,67.68,156.49,97.52,167.83,421.84,Single-ply,SBD,M
Boys,75,6,Kevin Burcicega,Carrollton Turner,74.12,151.95,106.59,163.29,421.84,Single-ply,SBD,M
Boys,75,7,Angel Martinez,Carrollton Smith,71.49,138.35,79.38,183.7,401.43,Single-ply,SBD,M
Boys,75,8,Ryan Zarate,Carrollton Creekview,71.3,142.88,90.72,142.88,376.48,Single-ply,SBD,M
Boys,82.5,1,Mohammed Mazzouj,Carrollton Smith,81.96,190.51,122.47,204.12,517.1,Single-ply,SBD,M
Boys,82.5,2,Donovan Bakare,Carrollton Creekview,81.87,183.7,108.86,206.38,498.95,Single-ply,SBD,M
Boys,82.5,3,Ruben Ramirez,Carrollton Turner,77.16,151.95,92.99,154.22,399.16,Single-ply,SBD,M
Boys,82.5,4,Darren Cornish,Carrollton Ranchview,76.25,140.61,108.86,147.42,396.89,Single-ply,SBD,M
Boys,82.5,5,Troy McKnight,Carrollton Ranchview,75.25,,97.52,190.51,288.03,Single-ply,BD,M
Boys,90,1,SomDipto Das,Carrollton Turner,88.09,192.78,133.81,181.44,508.02,Single-ply,SBD,M
Boys,90,2,Nick Green,Carrollton Creekview,84.59,183.7,115.67,199.58,498.95,Single-ply,SBD,M
Boys,90,3,Cedrick Salinas,Carrollton Smith,86.86,190.51,115.67,185.97,492.15,Single-ply,SBD,M
Boys,90,4,Oscar Soto,Carrollton Smith,88,151.95,102.06,147.42,401.43,Single-ply,SBD,M
Boys,90,5,Louis Sandoval,Carrollton Turner,84.59,129.27,74.84,158.76,362.87,Single-ply,SBD,M
Boys,100,1,Mauricio Rojas,Carrollton Turner,99.25,272.16,151.95,226.8,650.91,Single-ply,SBD,M
Boys,100,2,Tristen Myers,Carrollton Creekview,93.39,226.8,129.27,183.7,539.77,Single-ply,SBD,M
Boys,100,3,Jayson Ginn,Carrollton Ranchview,91.44,154.22,97.52,181.44,433.18,Single-ply,SBD,M
Boys,100,4,Matthew Garcia,Carrollton Ranchview,90.81,163.29,97.52,167.83,428.64,Single-ply,SBD,M
Boys,100,5,Alexis Avbaiza,Carrollton Turner,96.21,156.49,88.45,183.7,428.64,Single-ply,SBD,M
Boys,100,6,Dylan Thompson,Carrollton Ranchview,99.06,133.81,90.72,154.22,378.75,Single-ply,SBD,M
Boys,100,7,Michael Henderson,Carrollton Ranchview,95.03,,102.06,199.58,301.64,Single-ply,BD,M
Boys,100,DQ,Issa Diop,Carrollton Creekview,90.99,136.08,81.65,149.69,,Single-ply,SBD,M
Boys,110,1,Obed Guerrero,Carrollton Turner,102.6,272.16,140.61,192.78,605.55,Single-ply,SBD,M
Boys,110,2,Jose Hernandez,Carrollton Turner,109.09,199.58,117.93,181.44,498.95,Single-ply,SBD,M
Boys,110,3,Dominique Spencer,Carrollton Turner,105.05,165.56,95.25,165.56,426.38,Single-ply,SBD,M
Boys,125,1,Mason Parker,Carrollton Creekview,119.39,215.46,124.74,226.8,566.99,Single-ply,SBD,M
Boys,125,2,Cameron Officer,Carrollton Creekview,119.29,181.44,102.06,217.72,501.22,Single-ply,SBD,M
Boys,125,3,Jamie Salazar,Carrollton Ranchview,122.33,147.42,88.45,165.56,401.43,Single-ply,SBD,M
Boys,125+,1,Nicholas Carbajhal,Carrollton Turner,137.76,276.69,183.7,244.94,705.34,Single-ply,SBD,M
Boys,125+,2,Zalen Long,Lake Dallas,149.05,242.67,140.61,226.8,610.08,Single-ply,SBD,M
Boys,125+,3,Max Hahn,Carrollton Ranchview,133.27,204.12,136.08,244.94,585.13,Single-ply,SBD,M
Boys,125+,4,Kobe Jobe,Carrollton Smith,126.55,217.72,122.47,210.92,551.11,Single-ply,SBD,M
Boys,125+,5,Brian Gallegos,Carrollton Turner,127.41,217.72,117.93,201.85,537.51,Single-ply,SBD,M
