Place,Name,State,Division,WeightClassKg,BodyweightKg,Age,Best3SquatKg,Best3BenchKg,Best3DeadliftKg,TotalKg,Sex,Event,Equipment
2,Miola Aganovic,TX,Elite Open,56,55.3,23,65,45,85,195,F,SBD,Wraps
3,Lexi Solis,TX,Elite Open,56,54.9,31,65,35,75,175,F,SBD,Wraps
1,Mary Grace,TX,Elite Open,56,53.9,32,82.5,47.5,107.5,237.5,F,SBD,Wraps
1,Miranda Hocutt,TX,Elite Open,60,58.5,31,110,67.5,132.5,310,F,SBD,Wraps
1,Kasey Rivas,TX,Elite Open,67.5,61.6,29,125,67.5,155,347.5,F,SBD,Wraps
1,Meghan Self,TX,Elite Open,75,74.7,30,112.5,52.5,140,305,F,SBD,Wraps
1,Miola Aganovic,TX,Elite Juniors,56,55.3,23,65,45,85,195,F,SBD,Wraps
1,Glenda Kelly,TX,Elite Masters 55-59,60,59.6,59,75,47.5,115,237.5,F,SBD,Wraps
DQ,Raul Prado,TX,Elite Open,82.5,81,27,,127.5,200,,M,SBD,Wraps
1,Christopher Carr,TX,Elite Open,90,85.8,31,227.5,160,272.5,660,M,SBD,Wraps
1,Steven Willis,TX,Elite Open,100,96.5,30,215,142.5,272.5,630,M,SBD,Wraps
3,Swade West,TX,Elite Open,110,107.3,20,145,115,182.5,442.5,M,SBD,Wraps
2,Kyle Carroll,TX,Elite Open,110,105.7,27,200,142.5,215,557.5,M,SBD,Wraps
1,Bolton Huerta,TX,Elite Open,110,106.8,20,227.5,167.5,227.5,622.5,M,SBD,Wraps
1,Arnold Medina,TX,Elite Open,125,123.3,35,217.5,170,277.5,665,M,SBD,Wraps
1,Bolton Huerta,TX,Elite Juniors,110,106.8,20,227.5,167.5,227.5,622.5,M,SBD,Wraps
2,Swade West,TX,Elite Juniors,110,107.3,20,145,115,182.5,442.5,M,SBD,Wraps
1,Calvin Clark,TX,Elite Submasters,100,96.8,33,225,160,257.5,642.5,M,SBD,Wraps
1,Arnold Medina,TX,Elite Submasters,125,123.3,35,217.5,170,277.5,665,M,SBD,Wraps
1,Dennis Kinman,TX,Elite Masters 50-54,100,99.5,50,145,110,162.5,417.5,M,SBD,Wraps
1,Nicole Rindlisbacher,TX,Open,67.5,61.2,21,115,55,117.5,287.5,F,SBD,Wraps
1,Nicole Rindlisbacher,TX,Juniors,67.5,61.2,21,115,55,117.5,287.5,F,SBD,Wraps
1,Chase Wingo,TX,Open,100,99.8,23,290,187.5,300,777.5,M,SBD,Wraps
2,Bryan Anderson,TX,Open,100,98.4,21,215,120,227.5,562.5,M,SBD,Wraps
1,Chase Wingo,TX,Juniors,100,99.8,23,290,187.5,300,777.5,M,SBD,Wraps
2,Bryan Anderson,TX,Juniors,100,98.4,21,215,120,227.5,562.5,M,SBD,Wraps
1,Joe Valdez,TX,Open,125,114.2,26,272.5,182.5,272.5,727.5,M,SBD,Multi-ply
1,Kyle Carroll,TX,Open,110,105.7,27,,142.5,,142.5,M,B,Raw
1,Raul Prado,TX,Open,82.5,81,27,,127.5,200,327.5,M,BD,Raw
1,Steven Willis,TX,Open,100,96.5,30,,142.5,272.5,415,M,BD,Raw
