Sex,WeightClassKg,Name,Division,Team,BodyweightKg,Best3SquatKg,Best3BenchKg,Best3DeadliftKg,TotalKg,Place,Event,Equipment
M,75,João Arsénio,M-E-Open,SM,74.7,235,122.5,255,612.5,1,SBD,Single-ply
M,82.5,Robert Palmer #2,M-E-Open,GL,81.8,320,237.5,300,857.5,1,SBD,Single-ply
M,82.5,Paul Fishlock,M-E-M1,SM,81.3,210,135,220,565,1,SBD,Single-ply
M,82.5,Andy Howard,M-E-M1,EM,82.1,,180,,180,1,B,Single-ply
M,90,Adi Milak,M-E-Open,GL,90,265,165,260,690,1,SBD,Single-ply
M,90,Nick Shotton-Gale,M-E-Open,SW,87.2,60,165,230,455,2,SBD,Single-ply
M,100,Martin Green,M-E-Open,SM,99.2,,190,,190,1,B,Single-ply
M,110,Pinda Singh,M-E-Open,EM,109.5,,,,,DQ,SBD,Single-ply
M,125+,Robert Wiejas,M-E-Open,EM,132.7,,282.5,,282.5,1,B,Single-ply
