Name,WeightClassKg,Squat1Kg,Squat2Kg,Squat3Kg,Best3SquatKg,Bench1Kg,Bench2Kg,Bench3Kg,Best3BenchKg,Deadlift1Kg,Deadlift2Kg,Deadlift3Kg,Best3DeadliftKg,TotalKg,Event,Equipment,Sex,Division,Place
Doan Nguyen,52,172.5,182.5,-187.5,182.5,95,102.5,105,105,187.5,-197.5,197.5,197.5,485,SBD,Single-ply,M,Open,1
Richard Brightwell,52,-142.5,142.5,-172.5,142.5,85,90,95,95,182.5,197.5,-205,197.5,435,SBD,Single-ply,M,Open,2
Steve Soukup,52,125,-140,140,140,95,-100,-100,95,145,152.5,-160,152.5,387.5,SBD,Single-ply,M,Open,3
Dave Wilson,52,132.5,-137.5,-137.5,132.5,85,-90,-90,85,137.5,-152.5,-152.5,137.5,355,SBD,Single-ply,M,Open,4
Michael Tiberia,52,-125,-130,130,130,62.5,67.5,70,70,137.5,152.5,-160,152.5,352.5,SBD,Single-ply,M,Open,5
David Pattaway,56,192.5,200,232.5,232.5,97.5,-105,-105,97.5,-227.5,227.5,-237.5,227.5,557.5,SBD,Single-ply,M,Open,1
Chuck Dunbar,56,200,227.5,235,235,132.5,137.5,140,140,-175,-175,175,175,550,SBD,Single-ply,M,Open,2
Terry Winters,56,182.5,197.5,205,205,110,120,125,125,192.5,207.5,-222.5,207.5,537.5,SBD,Single-ply,M,Open,3
John Padova,56,177.5,-185,185,185,110,115,-120,115,175,185,-190,185,485,SBD,Single-ply,M,Open,4
Bobby Adams,56,170,-182.5,-182.5,170,100,110,-117.5,110,182.5,200,-207.5,200,480,SBD,Single-ply,M,Open,5
David Moore,56,-157.5,157.5,-182.5,157.5,102.5,-110,110,110,170,190,-200,190,457.5,SBD,Single-ply,M,Open,6
Joe Schmidt,56,162.5,-167.5,-167.5,162.5,92.5,97.5,-105,97.5,182.5,192.5,,192.5,452.5,SBD,Single-ply,M,Open,7
David Ramsey,56,-212.5,-212.5,-212.5,,,,,,,,,,,SBD,Single-ply,M,Open,DQ
Lamar Gant,60,227.5,242.5,247.5,247.5,132.5,142.5,145,145,255,277.5,-302.5,277.5,670,SBD,Single-ply,M,Open,1
Tim Taylor,60,187.5,-197.5,197.5,197.5,125,132.5,137.5,137.5,215,-235,235,235,570,SBD,Single-ply,M,Open,2
Richard Pell,60,-237.5,237.5,-245,237.5,-105,105,-110,105,212.5,-217.5,217.5,217.5,560,SBD,Single-ply,M,Open,3
Keith Sisney,60,190,197.5,202.5,202.5,117.5,127.5,132.5,132.5,195,-217.5,-217.5,195,530,SBD,Single-ply,M,Open,4
Michael Lester,60,-187.5,-187.5,187.5,187.5,100,-105,,100,175,187.5,200,200,487.5,SBD,Single-ply,M,Open,5
Jerry Hall,60,-205,-227.5,-237.5,,,,,,,,,,,SBD,Single-ply,M,Open,DQ
Daniel Austin,67.5,257.5,270,-277.5,270,155,160,162.5,162.5,285,302.5,-315,302.5,735,SBD,Single-ply,M,Open,1
Larry Luckett,67.5,252.5,-272.5,272.5,272.5,160,170,-172.5,170,245,260,272.5,272.5,715,SBD,Single-ply,M,Open,2
Jesse Jackson,67.5,-282.5,282.5,300,300,115,125,-135,125,255,267.5,-277.5,267.5,692.5,SBD,Single-ply,M,Open,3
David Contreras,67.5,240,-252.5,-260,240,157.5,165,-167.5,165,237.5,245,-250,245,650,SBD,Single-ply,M,Open,4
Andrew Hamel,67.5,210,217.5,-225,217.5,127.5,132.5,-135,132.5,235,242.5,250,250,600,SBD,Single-ply,M,Open,5
Randall Kea,67.5,242.5,-255,-272.5,242.5,160,-170,,160,,,,,,SBD,Single-ply,M,Open,DQ
Rickey Dale Crain,75,280,292.5,297.5,297.5,160,167.5,-170,167.5,300,310,-315,310,775,SBD,Single-ply,M,Open,1
John Inzer,75,-295,295,-307.5,295,130,137.5,-140,137.5,297.5,332.5,-342.5,332.5,765,SBD,Single-ply,M,Open,2
Ausby Alexander,75,280,-292.5,297.5,297.5,152.5,160,-167.5,160,285,302.5,-317.5,302.5,760,SBD,Single-ply,M,Open,3
Robert Wahl,75,297.5,315,-330,315,135,147.5,-152.5,147.5,272.5,295,-312.5,295,757.5,SBD,Single-ply,M,Open,4
Robert Wagner,75,-300,300,312.5,312.5,140,,,140,260,-270,-270,260,712.5,SBD,Single-ply,M,Open,5
Jeff Rodriguez,75,-255,255,-265,255,142.5,-152.5,-152.5,142.5,247.5,-255,-255,247.5,645,SBD,Single-ply,M,Open,6
L. Hughes,75,227.5,-232.5,-232.5,227.5,140,147.5,-152.5,147.5,237.5,242.5,-250,242.5,617.5,SBD,Single-ply,M,Open,7
Joseph Friedl,75,227.5,237.5,-242.5,237.5,-115,115,-122.5,115,235,242.5,250,250,602.5,SBD,Single-ply,M,Open,8
Justin Wesiberg,75,230,-242.5,-242.5,230,-132.5,132.5,-135,132.5,232.5,-255,-255,232.5,595,SBD,Single-ply,M,Open,9
Bill Cavalier,75,-250,-250,-250,,,,,,,,,,,SBD,Single-ply,M,Open,DQ
Howard Krieger,75,-275,-275,-275,,,,,,,,,,,SBD,Single-ply,M,Open,DQ
Gene Bell,82.5,300,302.5,315,315,187.5,192.5,-197.5,192.5,292.5,305,-315,305,812.5,SBD,Single-ply,M,Open,1
Tom Eiseman,82.5,295,307.5,-315,307.5,140,145,147.5,147.5,322.5,,-357.5,322.5,777.5,SBD,Single-ply,M,Open,2
Reagan Black,82.5,287.5,-305,-305,287.5,175,-182.5,-182.5,175,267.5,-275,-275,267.5,730,SBD,Single-ply,M,Open,3
Jeff Slagle,82.5,250,272.5,-275,272.5,137.5,142.5,147.5,147.5,240,250,-257.5,250,670,SBD,Single-ply,M,Open,4
Terry Grisham,82.5,230,-235,-240,230,145,150,155,155,240,250,262.5,262.5,647.5,SBD,Single-ply,M,Open,5
Sam Pardue,82.5,205,-220,220,220,-150,-150,-150,,,,,,,SBD,Single-ply,M,Open,DQ
Jon Smoker,82.5,-277.5,-282.5,-282.5,,,,,,,,,,,SBD,Single-ply,M,Open,DQ
Rick Gaugler,82.5,-320,-320,-320,,,,,,,,,,,SBD,Single-ply,M,Open,DQ
Sylvester Anderson,90,312.5,327.5,332.5,332.5,175,182.5,-187.5,182.5,312.5,332.5,-337.5,332.5,847.5,SBD,Single-ply,M,Open,1
Rick Woods,90,-280,287.5,-300,287.5,190,200,-205,200,290,302.5,315,315,802.5,SBD,Single-ply,M,Open,2
Ray Long,90,287.5,-310,310,310,167.5,-175,-175,167.5,290,305,-315,305,782.5,SBD,Single-ply,M,Open,3
Scott Rittenburg,90,270,282.5,-287.5,282.5,177.5,187.5,-190,187.5,255,-272.5,272.5,272.5,742.5,SBD,Single-ply,M,Open,4
Roger Pardue,90,272.5,282.5,292.5,292.5,147.5,155,-160,155,232.5,245,-255,245,692.5,SBD,Single-ply,M,Open,5
Mark Almy,90,272.5,-300,-302.5,272.5,-172.5,-172.5,-172.5,,,,,,,SBD,Single-ply,M,Open,DQ
John Reyna,90,-242.5,-242.5,-242.5,,,,,,,,,,,SBD,Single-ply,M,Open,DQ
Raul Torres,90,245,260,-272.5,260,-160,,,,,,,,,SBD,Single-ply,M,Open,DQ
Doug Borden,100,305,337.5,-357.5,337.5,185,190,195,195,297.5,320,330,330,862.5,SBD,Single-ply,M,Open,1
Jimmy Pegues,100,297.5,310,-320,310,-177.5,-177.5,177.5,177.5,345,-367.5,-367.5,345,832.5,SBD,Single-ply,M,Open,2
James Cash,100,295,-320,-320,295,190,195,200,200,322.5,-360,-360,322.5,817.5,SBD,Single-ply,M,Open,3
Darrell Carnes,100,285,297.5,-307.5,297.5,200,-207.5,-207.5,200,295,310,-317.5,310,807.5,SBD,Single-ply,M,Open,4
Zeke Brown,100,-285,285,307.5,307.5,172.5,180,-185,180,300,-312.5,-317.5,300,787.5,SBD,Single-ply,M,Open,5
Steve Murdock,100,310,317.5,-330,317.5,-155,-155,155,155,295,-320,-320,295,767.5,SBD,Single-ply,M,Open,6
Andre Schumieglow,100,-277.5,277.5,-310,277.5,-160,-160,160,160,-277.5,310,-320,310,747.5,SBD,Single-ply,M,Open,7
George Pessell,100,275,285,-287.5,285,185,200,-202.5,200,260,-272.5,-272.5,260,745,SBD,Single-ply,M,Open,8
Robert Keller,100,285,-295,-295,285,162.5,170,177.5,177.5,260,272.5,-277.5,272.5,735,SBD,Single-ply,M,Open,9
A. Hirschenson,100,-250,-250,-250,,,,,,,,,,,SBD,Single-ply,M,Open,DQ
Willie Bell,110,342.5,-360,-362.5,342.5,205,215,-217.5,215,347.5,357.5,-362.5,357.5,915,SBD,Single-ply,M,Open,1
Dave Jacoby,110,350,-360,-370,350,202.5,207.5,212.5,212.5,325,345,-355,345,907.5,SBD,Single-ply,M,Open,2
Robert Patterson,110,295,310,320,320,190,197.5,205,205,282.5,290,295,295,820,SBD,Single-ply,M,Open,3
Mitchell Morris,110,287.5,-295,-295,287.5,177.5,-180,-180,177.5,287.5,292.5,297.5,297.5,762.5,SBD,Single-ply,M,Open,4
Dusty Caldwell,110,-300,300,-320,300,177.5,187.5,195,195,65,,,65,560,SBD,Single-ply,M,Open,5
Kirkk Karwoski,110,-342.5,-350,-350,,,,,,,,,,,SBD,Single-ply,M,Open,DQ
Robert Vivier,110,-277.5,-277.5,-277.5,,,,,,,,,,,SBD,Single-ply,M,Open,DQ
Scott Warman,125,355,367.5,-377.5,367.5,195,205,212.5,212.5,355,362.5,-375,362.5,942.5,SBD,Single-ply,M,Open,1
Eric Arnold,125,367.5,382.5,390,390,205,212.5,,212.5,320,-335,-342.5,320,922.5,SBD,Single-ply,M,Open,2
Lance Ross,125,307.5,327.5,-340,327.5,185,200,-210,200,330,-345,-345,330,857.5,SBD,Single-ply,M,Open,3
Larry Kidney,125,332.5,-355,355,355,-205,-205,,,,,,,,SBD,Single-ply,M,Open,DQ
Mike Hall,125+,380,410,,410,245,255,,255,315,337.5,,337.5,1002.5,SBD,Single-ply,M,Open,1
Vic Kennedy,125+,347.5,372.5,390,390,200,210,217.5,217.5,282.5,305,-320,305,912.5,SBD,Single-ply,M,Open,2
OD Wilson,125+,305,332.5,342.5,342.5,182.5,200,205,205,320,342.5,-365,342.5,890,SBD,Single-ply,M,Open,3
