Division,WeightClassKg,Place,Name,Team,BodyweightKg,Best3SquatKg,Best3BenchKg,Best3DeadliftKg,TotalKg,Equipment,Event,Sex
Boys,52,1,Esteban Urquieta,Corpus Christi Tuloso-Midway,49.9,154.22,70.31,165.56,390.09,Single-ply,SBD,M
Boys,52,2,Jose Hernandez,Corpus Christi West Oso,51.62,129.27,72.57,138.35,340.19,Single-ply,SBD,M
Boys,52,3,Ethan Bass,Ingleside,51.35,124.74,72.57,136.08,333.39,Single-ply,SBD,M
Boys,52,4,Tristan Salinas,Corpus Christi Tuloso-Midway,50.17,108.86,56.7,111.13,276.69,Single-ply,SBD,M
Boys,52,5,Gabriel Collins,Orange Grove,51.26,111.13,61.23,92.99,265.35,Single-ply,SBD,M
Boys,52,DQ,Matthew Vallencia,Gregory-Portland,48.81,92.99,,,,Single-ply,SBD,M
Boys,56,1,Jose Hurd,Orange Grove,54.52,133.81,97.52,163.29,394.63,Single-ply,SBD,M
Boys,56,2,Brendon Batteau,Rockport-Fulton,52.34,136.08,74.84,161.03,371.95,Single-ply,SBD,M
Boys,56,3,Rj Garcia,Agua Dulce,52.25,138.35,83.91,138.35,360.61,Single-ply,SBD,M
Boys,56,4,Ruben Castro,Corpus Christi West Oso,55.79,136.08,70.31,142.88,349.27,Single-ply,SBD,M
Boys,56,5,Eloy Ybarra,Corpus Christi West Oso,55.25,95.25,65.77,127.01,288.03,Single-ply,SBD,M
Boys,56,6,Aiden Chavez,Agua Dulce,55.34,97.52,52.16,124.74,274.42,Single-ply,SBD,M
Boys,56,DQ,Lucas Lara,Mathis,54.52,136.08,,,,Single-ply,SBD,M
Boys,56,DQ,Chase Rios,Rockport-Fulton,55.43,124.74,74.84,,,Single-ply,SBD,M
Boys,56,DQ,Chris Anderson,Ingleside,55.79,145.15,,,,Single-ply,SBD,M
Boys,56,DQ,Nocona Taylor,Orange Grove,54.52,,,,,Single-ply,SBD,M
Boys,60,1,Andres Ramos,Ingleside,58.15,215.46,117.93,204.12,537.51,Single-ply,SBD,M
Boys,60,2,Dylan Breland,Corpus Christi Calallen,59.87,151.95,81.65,185.97,419.57,Single-ply,SBD,M
Boys,60,3,Devin Cowen,Rockport-Fulton,58.79,142.88,65.77,176.9,385.55,Single-ply,SBD,M
Boys,60,4,Jeremiah Pena,Corpus Christi Calallen,58.24,136.08,77.11,156.49,369.68,Single-ply,SBD,M
Boys,60,5,Josue Tortu,Corpus Christi West Oso,58.33,142.88,72.57,151.95,367.41,Single-ply,SBD,M
Boys,60,6,Miguel Ramirez,Agua Dulce,56.34,142.88,70.31,131.54,344.73,Single-ply,SBD,M
Boys,60,7,Zayne Melton,Corpus Christi Tuloso-Midway,57.97,95.25,45.36,106.59,247.21,Single-ply,SBD,M
Boys,67.5,1,Daniel Tortu,Corpus Christi West Oso,63.14,188.24,108.86,185.97,483.08,Single-ply,SBD,M
Boys,67.5,2,Cristian Alvarado,Corpus Christi Calallen,64.05,183.7,97.52,192.78,474,Single-ply,SBD,M
Boys,67.5,3,Gabriel Quinones,Gregory-Portland,64.23,185.97,97.52,181.44,464.93,Single-ply,SBD,M
Boys,67.5,4,Estaban Olvera,Gregory-Portland,60.51,142.88,79.38,179.17,401.43,Single-ply,SBD,M
Boys,67.5,5,Jacob Salinas,Agua Dulce,64.05,142.88,77.11,167.83,387.82,Single-ply,SBD,M
Boys,67.5,6,Garrett Turner,Corpus Christi Tuloso-Midway,67.13,154.22,72.57,140.61,367.41,Single-ply,SBD,M
Boys,67.5,7,Ryan Fransham,Orange Grove,61.23,133.81,70.31,158.76,362.87,Single-ply,SBD,M
Boys,67.5,8,James Ramirez,Mathis,61.69,142.88,72.57,145.15,360.61,Single-ply,SBD,M
Boys,67.5,9,Aaron Champion,Mathis,64.32,127.01,81.65,136.08,344.73,Single-ply,SBD,M
Boys,67.5,10,Jose Pavan,Corpus Christi Calallen,67.13,113.4,79.38,149.69,342.46,Single-ply,SBD,M
Boys,67.5,11,Cole Kruger,Gregory-Portland,66.86,117.93,68.04,136.08,322.05,Single-ply,SBD,M
Boys,67.5,12,Jon Rodriguez,Agua Dulce,66.5,113.4,77.11,117.93,308.44,Single-ply,SBD,M
Boys,67.5,DQ,Brayden Glenn,Rockport-Fulton,65.95,124.74,,,,Single-ply,SBD,M
Boys,67.5,DQ,Joe Sauceda,Gregory-Portland,65.41,158.76,,,,Single-ply,SBD,M
Boys,67.5,DQ,Daniel Puga,Corpus Christi Tuloso-Midway,64.59,163.29,,,,Single-ply,SBD,M
Boys,75,1,John Pizana,Corpus Christi Tuloso-Midway,71.94,190.51,115.67,217.72,523.9,Single-ply,SBD,M
Boys,75,2,Joel Garza,Corpus Christi Calallen,70.67,197.31,111.13,185.97,494.42,Single-ply,SBD,M
Boys,75,3,Chris Ceballos,Rockport-Fulton,69.31,183.7,113.4,183.7,480.81,Single-ply,SBD,M
Boys,75,4,Matthew Garza,Corpus Christi West Oso,71.67,145.15,70.31,158.76,374.21,Single-ply,SBD,M
Boys,75,5,Gustavo Gallardo,Mathis,72.67,158.76,90.72,124.74,374.21,Single-ply,SBD,M
Boys,75,6,Jacob Brake,Rockport-Fulton,73.75,127.01,92.99,154.22,374.21,Single-ply,SBD,M
Boys,75,7,Jacob Casarez,Corpus Christi Tuloso-Midway,68.4,127.01,70.31,117.93,315.25,Single-ply,SBD,M
Boys,75,8,Colton Hankins,Gregory-Portland,69.13,117.93,65.77,127.01,310.71,Single-ply,SBD,M
Boys,75,DQ,Patrick Bray,Gregory-Portland,70.94,142.88,,,,Single-ply,SBD,M
Boys,75,DQ,Patrick Williams #1,Ingleside,73.57,183.7,,,,Single-ply,SBD,M
Boys,75,DQ,Matthew Valdez,Corpus Christi Calallen,74.12,188.24,,,,Single-ply,SBD,M
Boys,75,DQ,Joshua Vernon,Orange Grove,71.85,142.88,,,,Single-ply,SBD,M
Boys,75,DQ,Phillip Sullivan,Corpus Christi Tuloso-Midway,71.67,117.93,,,,Single-ply,SBD,M
Boys,82.5,1,Elijah Valencia,Orange Grove,80.83,235.87,136.08,217.72,589.67,Single-ply,SBD,M
Boys,82.5,2,Kyle Zipperian,Gregory-Portland,79.2,215.46,136.08,213.19,564.72,Single-ply,SBD,M
Boys,82.5,3,Justin Rodriguez,Corpus Christi Tuloso-Midway,81.47,219.99,115.67,224.53,560.19,Single-ply,SBD,M
Boys,82.5,4,Chance Guidry,Rockport-Fulton,79.02,204.12,122.47,195.04,521.63,Single-ply,SBD,M
Boys,82.5,5,Sam Guzman,Gregory-Portland,76.75,199.58,95.25,176.9,471.74,Single-ply,SBD,M
Boys,82.5,6,Sabastian Garcia,Corpus Christi Tuloso-Midway,81.01,181.44,104.33,183.7,469.47,Single-ply,SBD,M
Boys,82.5,7,Luis Trujillo,Rockport-Fulton,79.2,165.56,99.79,170.1,435.45,Single-ply,SBD,M
Boys,82.5,8,Jc Maldonado,Corpus Christi Tuloso-Midway,76.48,163.29,88.45,167.83,419.57,Single-ply,SBD,M
Boys,82.5,9,Enrique Davila,Mathis,75.66,151.95,92.99,158.76,403.7,Single-ply,SBD,M
Boys,82.5,10,Paul Martinez,Corpus Christi Tuloso-Midway,79.65,165.56,79.38,115.67,360.61,Single-ply,SBD,M
Boys,82.5,DQ,Jared Fuhrken,Orange Grove,79.65,,,,,Single-ply,SBD,M
Boys,90,1,Barry Hernandez,Corpus Christi West Oso,88.63,265.35,151.95,238.14,655.44,Single-ply,SBD,M
Boys,90,2,Enrique Barron,Ingleside,83.37,240.4,115.67,244.94,601.01,Single-ply,SBD,M
Boys,90,3,Federico Ruiz Jr,Corpus Christi Calallen,87.18,238.14,122.47,238.14,598.74,Single-ply,SBD,M
Boys,90,4,Zuriel Adusei,Gregory-Portland,88,219.99,117.93,195.04,532.97,Single-ply,SBD,M
Boys,90,5,Tyler Gassaway,Gregory-Portland,82.64,192.78,120.2,197.31,510.29,Single-ply,SBD,M
Boys,90,6,Dante Vasquez,Corpus Christi Tuloso-Midway,86.82,206.38,120.2,176.9,503.49,Single-ply,SBD,M
Boys,90,7,Andrew Flores,Gregory-Portland,83.55,188.24,97.52,199.58,485.34,Single-ply,SBD,M
Boys,90,8,Chris Swartz,Agua Dulce,86.73,174.63,113.4,192.78,480.81,Single-ply,SBD,M
Boys,90,9,John Eguia,Corpus Christi Tuloso-Midway,87.63,174.63,115.67,174.63,464.93,Single-ply,SBD,M
Boys,90,10,Toby Medina,Mathis,88.99,185.97,102.06,161.03,449.06,Single-ply,SBD,M
Boys,90,11,Troy Eubanks,Gregory-Portland,86.82,165.56,104.33,172.37,442.25,Single-ply,SBD,M
Boys,90,12,Brady Raines,Gregory-Portland,85.18,163.29,90.72,167.83,421.84,Single-ply,SBD,M
Boys,90,13,Alex Hernandez,Rockport-Fulton,86.36,161.03,102.06,145.15,408.23,Single-ply,SBD,M
Boys,90,DQ,Riley Richards,Gregory-Portland,89.27,124.74,79.38,145.15,,Single-ply,SBD,M
Boys,90,DQ,Edelmiro Reyna,Gregory-Portland,83.55,170.1,95.25,147.42,,Single-ply,SBD,M
Boys,90,DQ,Garrett Guilianelle,Ingleside,88.99,151.95,90.72,,,Single-ply,SBD,M
Boys,90,DQ,Beaux Ardoin,Orange Grove,84.28,131.54,,,,Single-ply,SBD,M
Boys,100,1,Karl Gibson II,Mathis,90.99,249.48,156.49,240.4,646.37,Single-ply,SBD,M
Boys,100,2,George Villela,Gregory-Portland,95.71,240.4,154.22,244.94,639.57,Single-ply,SBD,M
Boys,100,3,Raul Fernandez,Rockport-Fulton,93.71,206.38,124.74,192.78,523.9,Single-ply,SBD,M
Boys,100,4,Luke Michael,Rockport-Fulton,91.26,201.85,133.81,183.7,519.36,Single-ply,SBD,M
Boys,100,5,Jeremy Trevino,Gregory-Portland,98.25,206.38,102.06,201.85,510.29,Single-ply,SBD,M
Boys,100,6,Ross Delgado,Gregory-Portland,94.98,195.04,108.86,165.56,469.47,Single-ply,SBD,M
Boys,100,7,Luke Snodgrass,Ingleside,96.52,170.1,99.79,172.37,442.25,Single-ply,SBD,M
Boys,100,8,Ryan Rasburry,Mathis,93.71,172.37,99.79,142.88,415.04,Single-ply,SBD,M
Boys,100,9,Seth Colsa,Corpus Christi Calallen,96.16,147.42,102.06,149.69,399.16,Single-ply,SBD,M
Boys,100,10,Matthew Valdez,Ingleside,91.26,151.95,88.45,136.08,376.48,Single-ply,SBD,M
Boys,100,11,Trevor Zimmerman,Ingleside,97.79,156.49,81.65,133.81,371.95,Single-ply,SBD,M
Boys,100,12,Alejandro Ortega,Corpus Christi Calallen,91.35,102.06,92.99,140.61,335.66,Single-ply,SBD,M
Boys,100,DQ,Gage Gomez,Gregory-Portland,90.26,102.06,61.23,136.08,,Single-ply,SBD,M
Boys,100,DQ,Jaden Rowe,Gregory-Portland,92.62,163.29,79.38,136.08,,Single-ply,SBD,M
Boys,100,DQ,Mark Garza,Corpus Christi Tuloso-Midway,98.34,120.2,83.91,,,Single-ply,SBD,M
Boys,110,1,Joey Rodriguez,Corpus Christi West Oso,106.96,265.35,154.22,258.55,678.12,Single-ply,SBD,M
Boys,110,2,Stevie Cardenas,Ingleside,107.77,208.65,117.93,192.78,519.36,Single-ply,SBD,M
Boys,110,3,Austin Kennemer,Agua Dulce,101.33,192.78,124.74,190.51,508.02,Single-ply,SBD,M
Boys,110,4,Victor Mendez,Gregory-Portland,103.06,204.12,113.4,190.51,508.02,Single-ply,SBD,M
Boys,110,5,Marcus Avitia,Ingleside,105.41,197.31,129.27,181.44,508.02,Single-ply,SBD,M
Boys,110,6,Sebastian Opal,Gregory-Portland,103.24,185.97,117.93,181.44,485.34,Single-ply,SBD,M
Boys,110,7,Julian Beltran,Corpus Christi Calallen,109.5,181.44,117.93,183.7,483.08,Single-ply,SBD,M
Boys,110,DQ,Shayne Shusta,Ingleside,102.15,183.7,,,,Single-ply,SBD,M
Boys,125,1,Jacob Rodriguez,Corpus Christi Tuloso-Midway,124.01,340.19,197.31,276.69,814.2,Single-ply,SBD,M
Boys,125,2,Jose Soliz,Orange Grove,113.4,299.37,204.12,233.6,737.09,Single-ply,SBD,M
Boys,125,3,Oscar Mayan,Corpus Christi West Oso,112.22,222.26,120.2,201.85,544.31,Single-ply,SBD,M
Boys,125,4,Nicholas Camp,Ingleside,114.49,170.1,129.27,197.31,496.68,Single-ply,SBD,M
Boys,125+,1,Angel Salinas,Orange Grove,164.38,272.16,158.76,224.53,655.44,Single-ply,SBD,M
Boys,125+,2,Will Atwood,Orange Grove,132.27,192.78,131.54,190.51,514.83,Single-ply,SBD,M
Boys,125+,3,Jonathan Rodriguez,Agua Dulce,127.91,174.63,113.4,158.76,446.79,Single-ply,SBD,M
Boys,125+,4,Jason Galvan,Corpus Christi West Oso,136.26,138.35,65.77,151.95,356.07,Single-ply,SBD,M
