Division,WeightClassKg,Place,Name,Team,BodyweightKg,Best3SquatKg,Best3BenchKg,Best3DeadliftKg,TotalKg,Equipment,Event,Sex
Boys,60,1,Kolbe Kutac,Schulenburg,59.87,147.42,68.04,156.49,371.95,Single-ply,SBD,M
Boys,60,2,Robert Spears,Wallis Brazos,59.42,138.35,86.18,113.4,337.93,Single-ply,SBD,M
Boys,60,3,Aldo Rodriguez,Weimar,57.15,136.08,61.23,138.35,335.66,Single-ply,SBD,M
Boys,60,4,Eric Arviza,Weimar,57.15,124.74,74.84,131.54,331.12,Single-ply,SBD,M
Boys,60,5,Brandon Maldonado,Wallis Brazos,58.97,,61.23,127.01,188.24,Single-ply,BD,M
Boys,67.5,1,Andrew Small,Wallis Brazos,66.22,165.56,83.91,179.17,428.64,Single-ply,SBD,M
Boys,67.5,2,Chris Ward,Wallis Brazos,66.68,156.49,106.59,154.22,417.3,Single-ply,SBD,M
Boys,67.5,3,Garrett Olive,Weimar,67.13,145.15,90.72,149.69,385.55,Single-ply,SBD,M
Boys,67.5,4,Johnathan Castellano,Weimar,64.86,136.08,92.99,142.88,371.95,Single-ply,SBD,M
Boys,75,1,Dylan Ramirez,Weimar,74.39,149.69,99.79,199.58,449.06,Single-ply,SBD,M
Boys,75,2,Kodi Hodges,Wallis Brazos,68.49,158.76,92.99,181.44,433.18,Single-ply,SBD,M
Boys,75,3,Evan Garner,Wallis Brazos,74.39,108.86,68.04,102.06,278.96,Single-ply,SBD,M
Boys,75,4,August Hale,Wallis Brazos,74.39,88.45,56.7,111.13,256.28,Single-ply,SBD,M
Boys,82.5,1,Hunter Schulz,Schulenburg,79.38,172.37,97.52,167.83,437.72,Single-ply,SBD,M
Boys,82.5,2,Gustavo Mendez,Wallis Brazos,81.65,154.22,92.99,185.97,433.18,Single-ply,SBD,M
Boys,82.5,3,Drake Aguilar,Wallis Brazos,80.29,111.13,65.77,106.59,283.5,Single-ply,SBD,M
Boys,90,1,Lyndon Hardin,Wallis Brazos,86.18,181.44,138.35,185.97,505.76,Single-ply,SBD,M
Boys,90,2,Jaeden Ward,Wallis Brazos,85.73,149.69,83.91,185.97,419.57,Single-ply,SBD,M
Boys,90,3,Hunter Vykukal,Wallis Brazos,87.54,142.88,88.45,183.7,415.04,Single-ply,SBD,M
Boys,90,4,Andre Taylor,Weimar,85.28,149.69,95.25,142.88,387.82,Single-ply,SBD,M
Boys,100,1,Brown Cason,Schulenburg,99.79,185.97,111.13,199.58,496.68,Single-ply,SBD,M
Boys,100,2,Kenley Smith,Schulenburg,95.25,145.15,104.33,147.42,396.89,Single-ply,SBD,M
Boys,100,3,Nicholas Koopman,Weimar,92.99,122.47,68.04,131.54,322.05,Single-ply,SBD,M
Boys,100,4,Omar De La Cruz,Wallis Brazos,97.52,108.86,65.77,142.88,317.51,Single-ply,SBD,M
Boys,100,DQ,Jordan Garza,Weimar,98.88,,,,,Single-ply,SBD,M
Boys,110,1,Shawn Allen,Schulenburg,107.95,229.06,136.08,199.58,564.72,Single-ply,SBD,M
Boys,110,2,Kiezland Quinterro,Schulenburg,108.41,183.7,102.06,181.44,467.2,Single-ply,SBD,M
Boys,110,3,Danny Amaro,Weimar,107.05,165.56,111.13,181.44,458.13,Single-ply,SBD,M
Boys,110,4,Colby Guzman,Schulenburg,108.86,154.22,86.18,163.29,403.7,Single-ply,SBD,M
Boys,125,1,Jaxon Fietsam,Schulenburg,120.2,195.04,120.2,208.65,523.9,Single-ply,SBD,M
Boys,125,2,Genero Casas,Weimar,110.68,206.38,115.67,192.78,514.83,Single-ply,SBD,M
Boys,125,3,Yoqsam Orea,Wallis Brazos,122.02,190.51,127.01,183.7,501.22,Single-ply,SBD,M
Boys,125,4,Mathew Harreth,Wallis Brazos,111.13,154.22,88.45,179.17,421.84,Single-ply,SBD,M
Boys,125+,1,Christian Tovar,Schulenburg,134.26,240.4,106.59,199.58,546.58,Single-ply,SBD,M
Boys,125+,DQ,Jadon Thomas,Weimar,137.44,,,,,Single-ply,SBD,M
