Name,Sex,Equipment,BodyweightKg,WeightClassKg,Division,Squat1Kg,Squat2Kg,Squat3Kg,Best3SquatKg,Bench1Kg,Bench2Kg,Bench3Kg,Best3BenchKg,Deadlift1Kg,Deadlift2Kg,Deadlift3Kg,Best3DeadliftKg,TotalKg,Event,AgeClass,Place
John Phillips,M,Raw,65.99,66,M-C-Open,175,183,187.5,187.5,107.5,112.5,-118,112.5,205,215,-220,215,515,SBD,23.5-38.5,1
Joseph Diva,M,Raw,65.63,66,M-C-Open,145,152.5,160,160,92.5,100,102.5,102.5,170,180,190,190,452.5,SBD,23.5-38.5,2
Shaun Bateman,M,Raw,64.69,66,M-C-Open,140,150,-155,150,105,110,112.5,112.5,170,180,187.5,187.5,450,SBD,23.5-38.5,3
Thomas Jeffcott,M,Raw,65.09,66,M-C-Open,140,150,155,155,80,85,87.5,87.5,200,207.5,-215,207.5,450,SBD,23.5-38.5,4
Martin Brooks,M,Raw,65.5,66,M-C-Open,130,-135,-135,130,100,105,-110,105,180,200,-205,200,435,SBD,23.5-38.5,5
William George,M,Raw,64.75,66,M-C-Open,150,157.5,-170,157.5,-100,-105,-105,,185,200,217.5,217.5,,SBD,23.5-38.5,DQ
Daniel Smith,M,Raw,73.93,74,M-C-Open,205,215,-220,215,135,140,145,145,200,210,215,215,575,SBD,23.5-38.5,1
Tim Baker,M,Raw,74,74,M-C-Open,180,190,200,200,130,-137.5,-137.5,130,200,220,240,240,570,SBD,23.5-38.5,2
Samuel Stott,M,Raw,72.91,74,M-C-Open,180,195,207.5,207.5,100,115,-125,115,190,205,220,220,542.5,SBD,23.5-38.5,3
Andrew York,M,Raw,72.68,74,M-C-Open,180,-190,-190,180,-115,120,125.5,125.5,195,-200,200,200,505.5,SBD,23.5-38.5,4
Arthur Mills,M,Raw,69.12,74,M-C-Open,145,155,170,170,90,-100,100,100,150,165,180,180,450,SBD,23.5-38.5,5
Jake Parsons,M,Raw,71.83,74,M-C-Open,140,150,-160,150,105,112.5,-117.5,112.5,180,-190,,180,442.5,SBD,23.5-38.5,6
Alexander Burbridge,M,Raw,73.99,74,M-C-Open,140,147.5,-155,147.5,100,110,-115,110,165,180,-185,180,437.5,SBD,23.5-38.5,7
Richie Aviles,M,Raw,67.36,74,M-C-Open,140,150,-160,150,100,110,-120,110,150,170,-190,170,430,SBD,23.5-38.5,8
Jack Arlett,M,Raw,72.52,74,M-C-Open,120,130,-135,130,85,-90,90,90,160,170,180,180,400,SBD,23.5-38.5,9
Samuel Kuti,M,Raw,73.94,74,M-C-Open,120,125,-132.5,125,75,-82.5,-82.5,75,150,160,162.5,162.5,362.5,SBD,0-17.5,10
Michael Johnson,M,Raw,73.8,74,M-C-Open,-140,140,-150,140,-125,-125,-125,,160,180,-202.5,180,,SBD,23.5-38.5,DQ
Scott Webb,M,Raw,80.69,83,M-C-Open,180,-200,200,200,125,135,-140,135,220,230,235,235,570,SBD,23.5-38.5,1
Samuel Birch,M,Raw,79.95,83,M-C-Open,180,195,-200,195,120,-125,-125,120,230,240,-250,240,555,SBD,23.5-38.5,2
Ben Clarke,M,Raw,81.9,83,M-C-Open,180,190,195,195,102.5,110,-112.5,110,220,230,-240,230,535,SBD,23.5-38.5,4
Paul Coke,M,Raw,83,83,M-C-Open,150,170,180,180,100,105,-107.5,105,230,247.5,-255,247.5,532.5,SBD,23.5-38.5,5
Martin Horman,M,Raw,81.79,83,M-C-Open,197.5,210,-215,210,127.5,-137.5,-137.5,127.5,190,-200,-200,190,527.5,SBD,23.5-38.5,6
Rob Scott,M,Raw,80.45,83,M-C-Open,170,180,-190,180,122.5,127.5,130,130,190,202.5,,202.5,512.5,SBD,0-22.5,7
Jevan Cockbain,M,Raw,80.8,83,M-C-Open,170,190,200,200,87.5,95,-100,95,195,215,-222.5,215,510,SBD,23.5-38.5,8
Evan McCloy,M,Raw,81.17,83,M-C-Open,155,162.5,170,170,125,132.5,137.5,137.5,180,195,-210,195,502.5,SBD,23.5-38.5,9
Liam Kylon,M,Raw,81.39,83,M-C-Open,162.5,-172.5,172.5,172.5,112.5,-120,-120,112.5,217.5,-225,-225,217.5,502.5,SBD,23.5-38.5,10
Connor Evans,M,Raw,81.77,83,M-C-Open,170,-180,-180,170,100,-110,-110,100,210,225,-240,225,495,SBD,0-22.5,11
Neil Williams,M,Single-ply,80.92,83,M-E-Open,-175,175,185,185,85,95,-100,95,190,195,205,205,485,SBD,23.5-38.5,1
Michael McBrien,M,Raw,81.42,83,M-C-Open,130,140,150,150,90,105,-110,105,190,215,227.5,227.5,482.5,SBD,23.5-38.5,12
Dominic Evans,M,Raw,74.51,83,M-C-Open,152.5,157.5,162.5,162.5,105,110,115,115,180,192.5,200,200,477.5,SBD,23.5-38.5,13
Samuel Kenyon,M,Raw,80.77,83,M-C-Open,132.5,142.5,150,150,97.5,107.5,112.5,112.5,175,190,205,205,467.5,SBD,23.5-38.5,14
Daniel Morse,M,Raw,80.98,83,M-C-Open,130,140,155,155,95,105,-110,105,180,200,-210,200,460,SBD,23.5-38.5,15
Cameron Winter,M,Raw,80.07,83,M-C-Open,145,152.5,160,160,100,105,110,110,160,167.5,175,175,445,SBD,23.5-38.5,16
Nick Lowe,M,Raw,80.81,83,M-C-Open,170,182.5,192.5,192.5,115,122.5,130,130,200,212.5,225,225,547.5,SBD,23.5-38.5,3
Jason Coultman,M,Raw,92.04,93,M-C-Open,235,247.5,255,255,135,145,150,150,257.5,277.5,-295,277.5,682.5,SBD,23.5-38.5,1
Henry Tosh,M,Raw,92.53,93,M-C-Open,190,200,210,210,160,170,175,175,260,280,290,290,675,SBD,23.5-38.5,2
Callum Cordwell,M,Raw,90.08,93,M-C-Open,230,240,250,250,140,147.5,155,155,230,242.5,-250,242.5,647.5,SBD,23.5-38.5,3
William James,M,Raw,88.77,93,M-C-Open,220,230,235,235,120,130,135,135,250,265,272.5,272.5,642.5,SBD,0-22.5,4
Matt Watson,M,Single-ply,90.03,93,M-E-Open,225,237.5,251,251,150,160,168,168,185,195,202.5,202.5,621.5,SBD,23.5-38.5,1
Carlin Jones,M,Raw,92.26,93,M-C-Open,200,210,215,215,140,150,155,155,230,250,-270,250,620,SBD,23.5-38.5,5
Alex Tosh,M,Raw,88.19,93,M-C-Open,185,195,205,205,140,150,155,155,225,240,250,250,610,SBD,23.5-38.5,6
Christian Hilton,M,Raw,89.9,93,M-C-Open,170,185,200,200,120,130,140,140,230,250,260,260,600,SBD,23.5-38.5,7
Craig Harris,M,Raw,89.62,93,M-C-Open,185,197.5,207.5,207.5,130,140,-145,140,215,230,240,240,587.5,SBD,0-22.5,8
David Kersh,M,Raw,89.6,93,M-C-Open,180,192.5,-202.5,192.5,120,125,127.5,127.5,240,250,260,260,580,SBD,23.5-38.5,9
Callum Smith,M,Raw,91.4,93,M-C-Open,170,180,185,185,135,140,145,145,220,230,240,240,570,SBD,23.5-38.5,10
Matthew Dorman,M,Raw,91.7,93,M-C-Open,172.5,180,185,185,-122.5,125,130,130,222.5,235,245,245,560,SBD,23.5-38.5,11
Josh Jones,M,Raw,87.5,93,M-C-Open,200,210,215,215,100,105,110,110,210,230,-240,230,555,SBD,23.5-38.5,12
Ed Potter,M,Raw,91.43,93,M-C-Open,190,200,210,210,112.5,120,-122.5,120,205,215,225,225,555,SBD,0-22.5,13
Chris Goulding,M,Raw,92.2,93,M-C-Open,190,-200,200,200,110,120,-127.5,120,215,225,235,235,555,SBD,23.5-38.5,14
Beck Phillips,M,Raw,90.08,93,M-C-Open,200,210,220,220,100,110,120,120,190,,,190,530,SBD,0-17.5,15
Tom Wilkins,M,Raw,89.99,93,M-C-Open,170,180,185,185,125,130,-135,130,200,205,212.5,212.5,527.5,SBD,23.5-38.5,16
Matt Greenhalgh,M,Raw,91.3,93,M-C-Open,180,-190,190,190,100,110,117.5,117.5,190,205,220,220,527.5,SBD,23.5-38.5,17
Keith Blacknell,M,Raw,92.63,93,M-C-Open,165,177.5,185,185,110,117.5,125,125,182.5,200,-205,200,510,SBD,0-22.5,18
George Popplewell,M,Raw,89.58,93,M-C-Open,180,-190,-190,180,105,112.5,-117.5,112.5,195,-207.5,207.5,207.5,500,SBD,0-22.5,19
Dave Moore,M,Raw,90.11,93,M-C-Open,135,145,150,150,112.5,120,125,125,202.5,215,225,225,500,SBD,23.5-38.5,20
Doug Arnold,M,Raw,88.9,93,M-C-Open,145,155,165,165,95,105,115,115,175,190,207.5,207.5,487.5,SBD,23.5-38.5,21
Kyle Nelson,M,Raw,90.4,93,M-C-Open,160,170,-180,170,115,-122.5,122.5,122.5,185,195,-205,195,487.5,SBD,23.5-38.5,22
David Murray,M,Raw,83.37,93,M-C-Open,155,170,180,180,100,107.5,110,110,170,182.5,192.5,192.5,482.5,SBD,23.5-38.5,23
David Ward,M,Raw,88.5,93,M-C-Open,157.5,165,-170,165,90,95,100,100,190,200,210,210,475,SBD,23.5-38.5,24
Lee Yeates,M,Raw,92.81,93,M-C-Open,170,180,-190,180,90,100,-105,100,170,180,185,185,465,SBD,23.5-38.5,25
Max Green,M,Raw,87.75,93,M-C-Open,155,165,-175,165,110,117.5,-125,117.5,167.5,180,-190,180,462.5,SBD,0-22.5,26
George Dimopulos,M,Raw,84.8,93,M-C-Open,135,145,150,150,95,105,110,110,170,190,195,195,455,SBD,0-17.5,27
Craig Lethbridge,M,Raw,87,93,M-C-Open,100,140,-160,140,90,100,-105,100,180,200,-220,200,440,SBD,0-22.5,28
Phil Law,M,Raw,91.63,93,M-C-Open,150,160,-170,160,90,97.5,100,100,165,175,180,180,440,SBD,0-22.5,29
Phil Guise,M,Raw,85.03,93,M-C-Open,150,170,,170,80,,,80,150,170,,170,420,SBD,49.5-58.5,30
Tony Fuller,M,Raw,83.6,93,M-C-Open,-135,135,142.5,142.5,80,87.5,92.5,92.5,155,165,175,175,410,SBD,49.5-58.5,31
Peter Hayden,M,Raw,89.63,93,M-C-Open,110,-120,-120,110,80,90,100,100,170,190,-200,190,400,SBD,49.5-58.5,32
Dan Chin Lee,M,Raw,87.73,93,M-C-Open,,,,,115,122.5,127.5,127.5,,,,,127.5,B,0-22.5,1
Matthew Deacon-Smith,M,Raw,100.55,105,M-C-Open,225,240,250,250,125,135,140,140,270.5,290.5,310,310,700,SBD,0-22.5,1
Mike Roberts,M,Raw,104.05,105,M-C-Open,200,212.5,-222.5,212.5,145,152.5,155,155,245,260,272.5,272.5,640,SBD,23.5-38.5,2
Ben Lanza,M,Raw,102.35,105,M-C-Open,210,-222.5,222.5,222.5,150,157.5,-165,157.5,240,250,255,255,635,SBD,0-22.5,3
Connor Benstead,M,Raw,102.39,105,M-C-Open,180,200,210,210,150,160,162.5,162.5,240,-250,,240,612.5,SBD,0-22.5,4
Joe Wicks,M,Raw,103.9,105,M-C-Open,190,205,-225,205,150,157.5,162.5,162.5,195,207.5,220,220,587.5,SBD,0-22.5,5
Anthony Evans,M,Raw,96.3,105,M-C-Open,170,185,190,190,110,115,-120,115,220,235,242.5,242.5,547.5,SBD,23.5-38.5,6
David Wozniak,M,Raw,103.25,105,M-C-Open,150,160,170,170,145,152.5,160,160,200,210,215,215,545,SBD,23.5-38.5,7
Chris Guttridge,M,Raw,94.9,105,M-C-Open,160,172.5,180,180,100,107.5,112.5,112.5,180,195,207.5,207.5,500,SBD,23.5-38.5,8
Liam Warr,M,Raw,101.72,105,M-C-Open,135,145,157.5,157.5,90,-97.5,97.5,97.5,185,200,210,210,465,SBD,23.5-38.5,9
Dylan Anderson,M,Raw,103.75,105,M-C-Open,110,-120,120,120,60,65,-70,65,150,160,170,170,355,SBD,0-22.5,10
Iain MacConnachie,M,Raw,112.9,120,M-C-Open,285,300,315,315,180,190,-195,190,270,290,,290,795,SBD,23.5-38.5,1
Jack Johnson,M,Single-ply,119.53,120,M-E-Open,250,265,275,275,220,230,-237.5,230,245,265,280,280,785,SBD,0-17.5,1
Frankie Parke,M,Raw,109.8,120,M-C-Open,240,260,265,265,150,155,-160,155,245,270,-272.5,270,690,SBD,0-22.5,2
Tommy Bebb,M,Raw,118.3,120,M-C-Open,225,232.5,240,240,162.5,170,177.5,177.5,235,245,255,255,672.5,SBD,0-22.5,3
Reece Smith,M,Raw,111.04,120,M-C-Open,230,237.5,240,240,150,155,160,160,250,270,-280,270,670,SBD,23.5-38.5,4
Andy Spiers,M,Raw,107.7,120,M-C-Open,220,235,-250,235,145,155,165,165,230,250,265,265,665,SBD,23.5-38.5,5
Ryan Kibble,M,Raw,115,120,M-C-Open,180,190,200,200,155,165,170,170,260,270,-275,270,640,SBD,0-22.5,6
Shane Flowers,M,Raw,118.2,120,M-C-Open,220,-232.5,-232.5,220,155,-162.5,,155,250,,,250,625,SBD,0-22.5,7
David Mossop,M,Raw,109.63,120,M-C-Open,195,205,210,210,125,135,-140,135,240,260,-265,260,605,SBD,23.5-38.5,8
Nick Mellor,M,Raw,118.5,120,M-C-Open,227.5,232.5,-235,232.5,125,132.5,-140,132.5,202.5,220,230,230,595,SBD,0-22.5,9
Stuart Ackerman,M,Raw,109.3,120,M-C-Open,180,197.5,207.5,207.5,125,132.5,140,140,192.5,212.5,225,225,572.5,SBD,23.5-38.5,10
Ben Rant,M,Raw,116.25,120,M-C-Open,170,-195,195,195,125,132.5,137.5,137.5,190,210,225,225,557.5,SBD,0-17.5,11
Rupert Vann-Alexander,M,Raw,116.96,120,M-C-Open,157.5,165,172.5,172.5,90,95,-100,95,220,240,-252.5,240,507.5,SBD,0-22.5,12
Graham Alway,M,Raw,115.66,120,M-C-Open,,,,,110,125,132.5,132.5,,,,,132.5,B,39.5-48.5,1
Mitchal Flowers,M,Raw,148.8,120+,M-C-Open,260,275,-290,275,170,-177.5,,170,290,-300,,290,735,SBD,23.5-38.5,1
João Arsénio,M,Single-ply,76.72,83,M-E-Open,230,240,-250,240,125,130,-135,130,,,,,,SBD,0-22.5,DQ
Sophie Gallaway,F,Raw,51.63,52,F-C-Open,65,70,-72.5,70,42.5,45,-47.5,45,100,110,-115,110,225,SBD,23.5-38.5,1
Lauren Randall,F,Raw,50.8,52,F-C-Open,60,65,70,70,30,35,-40,35,80,90,100,100,205,SBD,0-22.5,2
Kasia Huchrak-Reed,F,Raw,56.55,57,F-C-Open,92.5,95,100,100,60,65,-67.5,65,110,115,122.5,122.5,287.5,SBD,23.5-38.5,1
Tania Franklin,F,Raw,56.35,57,F-C-Open,85,90,-102.5,90,-50,52.5,-57.5,52.5,120,130,137.5,137.5,280,SBD,23.5-38.5,2
Danielle Summers,F,Raw,56.92,57,F-C-Open,62.5,70,-77.5,70,35,40,42.5,42.5,75,87.5,92.5,92.5,205,SBD,23.5-38.5,3
Hannah Chan,F,Raw,59.7,63,F-C-Open,110,117.5,122.5,122.5,60,62.5,65,65,120,132.5,137.5,137.5,325,SBD,0-22.5,1
Fran Rogerson,F,Raw,60.56,63,F-C-Open,100,105,111,111,50,52.5,-57.5,52.5,110,120,-131,120,283.5,SBD,23.5-38.5,2
Janet Dickenson,F,Raw,62.65,63,F-C-Open,75,80,-82.5,80,50,55,57.5,57.5,115,122.5,127.5,127.5,265,SBD,39.5-48.5,3
Sian Kilburn,F,Raw,59.98,63,F-C-Open,80,-85,85,85,35,40,42.5,42.5,110,120,125,125,252.5,SBD,0-22.5,4
Caroline Brocklehurst,F,Raw,61.42,63,F-C-Open,50,57.5,60,60,40,42.5,-45,42.5,90,95,100,100,202.5,SBD,49.5-58.5,5
Amy Spencer,F,Raw,69.11,72,F-C-Open,115,125,132.5,132.5,65,72.5,75,75,120,130,140,140,347.5,SBD,0-22.5,1
Katherine White,F,Raw,71.13,72,F-C-Open,115,122.5,127.5,127.5,55,60,-65,60,145,152.5,-160,152.5,340,SBD,23.5-38.5,2
Lauren Hunt,F,Raw,69.04,72,F-C-Open,95,105,115,115,55,62.5,-67.5,62.5,140,150,-165,150,327.5,SBD,0-22.5,3
Louise Nordén,F,Raw,63.29,72,F-C-Open,-87.5,95,105,105,70,75,-80,75,107.5,115,120,120,300,SBD,23.5-38.5,4
Emily Ness,F,Single-ply,69.74,72,F-E-Open,95,-105,105,105,60,62.5,-65,62.5,110,120,130,130,297.5,SBD,23.5-38.5,1
Hannah Mansfield,F,Raw,67.65,72,F-C-Open,90,100,-110,100,-60,60,-65,60,120,-125,125,125,285,SBD,23.5-38.5,5
Jessica Bagdonas,F,Raw,69.46,72,F-C-Open,85,100,-105,100,45,50,52.5,52.5,120,130,-145,130,282.5,SBD,0-22.5,6
Helen Winter,F,Raw,67.81,72,F-C-Open,-90,90,-95,90,40,45,-50,45,110,115,120,120,255,SBD,49.5-58.5,7
Georgina McDonald,F,Raw,70.93,72,F-C-Open,80,85,90,90,-47.5,47.5,-52.5,47.5,100,107.5,115,115,252.5,SBD,0-22.5,8
Karen Fynn,F,Raw,70.56,72,F-C-Open,82.5,-90,-92.5,82.5,42.5,47.5,-50,47.5,102.5,110,120,120,250,SBD,39.5-48.5,9
Hira Teirney,F,Raw,82.43,84,F-C-Open,115,130,-135,130,57.5,60,-62.5,60,170,180,187.5,187.5,377.5,SBD,23.5-38.5,1
Nicola Wheeler,F,Raw,80.49,84,F-C-Open,125,132.5,140,140,52.5,57.5,62.5,62.5,130,145,160,160,362.5,SBD,23.5-38.5,2
Megan Batchelor,F,Raw,80.08,84,F-C-Open,117.5,-125,125,125,80,-85,-85,80,145,152.5,-157.5,152.5,357.5,SBD,23.5-38.5,3
Danielle Lethbridge,F,Raw,76.47,84,F-C-Open,67.5,77.5,90,90,52.5,57.5,-62.5,57.5,125,130,-135,130,277.5,SBD,0-22.5,4
Anna Reid,F,Raw,81.35,84,F-C-Open,60,67.5,75,75,40,45,50,50,80,90,-100,90,215,SBD,23.5-38.5,5
Charlie Chester,F,Raw,87.38,84+,F-C-Open,145,155,165,165,72.5,77.5,80,80,160,170,182.5,182.5,427.5,SBD,0-22.5,1
Helen Toms,F,Raw,86.31,84+,F-C-Open,90,,,90,60,65,70,70,100,,,100,260,SBD,49.5-58.5,2
