Division,WeightClassKg,Place,Name,Team,BodyweightKg,Best3SquatKg,Best3BenchKg,Best3DeadliftKg,TotalKg,Equipment,Event,Sex
Boys,52,1,Brandon Fernandez,Poteet,47.54,129.27,74.84,122.47,326.59,Single-ply,SBD,M
Boys,52,2,George Garcia,San Antonio Memorial,50.08,115.67,63.5,136.08,315.25,Single-ply,SBD,M
Boys,56,1,Joey Garcia,Marion,55.43,138.35,72.57,163.29,374.21,Single-ply,SBD,M
Boys,56,2,Eli Luna,Somerset,52.07,102.06,68.04,113.4,283.5,Single-ply,SBD,M
Boys,56,3,Lorenzo Barfield,San Antonio Southwest,54.98,102.06,52.16,127.01,281.23,Single-ply,SBD,M
Boys,56,4,Fabian Apaez,Somerset,53.8,61.23,45.36,90.72,197.31,Single-ply,SBD,M
Boys,60,1,Matthew Gauthier,Marion,58.33,142.88,90.72,190.51,424.11,Single-ply,SBD,M
Boys,60,2,Isaiah Riojas,San Antonio Southwest,57.24,124.74,74.84,142.88,342.46,Single-ply,SBD,M
Boys,67.5,1,Aaron Sanchez,Poteet,66.32,151.95,88.45,181.44,421.84,Single-ply,SBD,M
Boys,67.5,2,John Gamez,San Antonio Brooks Academy,63.59,151.95,83.91,161.03,396.89,Single-ply,SBD,M
Boys,67.5,3,Marco Burkman-Flaig,San Antonio Cole,63.87,140.61,86.18,142.88,369.68,Single-ply,SBD,M
Boys,67.5,4,Hunter Young,Marion,60.24,111.13,63.5,136.08,310.71,Single-ply,SBD,M
Boys,67.5,5,Julian Rico,Somerset,60.6,113.4,52.16,142.88,308.44,Single-ply,SBD,M
Boys,67.5,DQ,Justin Guevara,San Antonio Kennedy,64.41,154.22,,,,Single-ply,SBD,M
Boys,67.5,DQ,Nathan Franklin,Somerset,67.13,,,,,Single-ply,SBD,M
Boys,75,1,Gilibaldo Garcia,San Antonio Brooks Academy,73.03,217.72,124.74,235.87,578.33,Single-ply,SBD,M
Boys,75,2,Ricardo Saldana,Pleasanton,70.49,195.04,124.74,190.51,510.29,Single-ply,SBD,M
Boys,75,3,Cesar Gonzalez,Somerset,70.67,188.24,104.33,210.92,503.49,Single-ply,SBD,M
Boys,75,4,Alberto Rodriguez,San Antonio Southwest,71.4,183.7,124.74,183.7,492.15,Single-ply,SBD,M
Boys,75,5,Cristino Garcia,San Antonio Kennedy,70.58,183.7,102.06,201.85,487.61,Single-ply,SBD,M
Boys,75,6,Lief Griffin,San Antonio Southwest,74.21,190.51,99.79,167.83,458.13,Single-ply,SBD,M
Boys,75,7,Edher Nava,Marion,74.03,165.56,108.86,181.44,455.86,Single-ply,SBD,M
Boys,75,8,Johnny Salinas,San Antonio Memorial,71.76,156.49,97.52,190.51,444.52,Single-ply,SBD,M
Boys,75,9,Tyrell Dunlap,San Antonio Cole,74.12,163.29,97.52,181.44,442.25,Single-ply,SBD,M
Boys,75,10,Chris Garcia,Pleasanton,67.49,158.76,102.06,163.29,424.11,Single-ply,SBD,M
Boys,75,11,Rueben Renteria,San Antonio Southwest,72.03,145.15,97.52,165.56,408.23,Single-ply,SBD,M
Boys,75,12,Sergio Rodriguez #3,Pleasanton,74.3,156.49,77.11,172.37,405.97,Single-ply,SBD,M
Boys,75,13,Edgar Fujarte,San Antonio Southwest,74.3,158.76,61.23,167.83,387.82,Single-ply,SBD,M
Boys,75,14,Hunter Hernandez,Somerset,67.49,127.01,83.91,149.69,360.61,Single-ply,SBD,M
Boys,75,15,Matthew Benedetti,Marion,68.76,127.01,68.04,147.42,342.46,Single-ply,SBD,M
Boys,75,16,Rowdy Wood,Somerset,67.4,68.04,52.16,102.06,222.26,Single-ply,SBD,M
Boys,82.5,1,Anthony Estrada,Somerset,81.65,229.06,147.42,272.16,648.64,Single-ply,SBD,M
Boys,82.5,2,Edward Keirstead,San Antonio Southwest,81.37,206.38,124.74,213.19,544.31,Single-ply,SBD,M
Boys,82.5,3,Dylan Delgado,Somerset,81.37,217.72,113.4,206.38,537.51,Single-ply,SBD,M
Boys,82.5,4,Michael Gomez,Poteet,82.1,188.24,104.33,181.44,474,Single-ply,SBD,M
Boys,82.5,5,Nick Propst,San Antonio Southwest,81.37,172.37,106.59,183.7,462.66,Single-ply,SBD,M
Boys,82.5,6,John Duenas,Somerset,80.2,156.49,113.4,158.76,428.64,Single-ply,SBD,M
Boys,82.5,7,Matt Moore,San Antonio Cole,79.47,147.42,97.52,158.76,403.7,Single-ply,SBD,M
Boys,82.5,8,Tim Carrasco,Poteet,79.92,142.88,79.38,172.37,394.63,Single-ply,SBD,M
Boys,82.5,9,Tim Haller,San Antonio Southwest,75.57,142.88,104.33,142.88,390.09,Single-ply,SBD,M
Boys,82.5,10,Diego Lomeli,San Antonio Southwest,77.2,138.35,90.72,154.22,383.29,Single-ply,SBD,M
Boys,82.5,11,Jose Herrera,Somerset,75.3,124.74,83.91,154.22,362.87,Single-ply,SBD,M
Boys,82.5,12,Cristian Benavente,San Antonio Southwest,80.47,122.47,86.18,147.42,356.07,Single-ply,SBD,M
Boys,82.5,13,Noah Escamilla,Somerset,80.74,102.06,70.31,104.33,276.69,Single-ply,SBD,M
Boys,90,1,Nathon Cantu,San Antonio Brooks Academy,88.72,272.16,176.9,229.06,678.12,Single-ply,SBD,M
Boys,90,2,Tucker Walters,Marion,86.18,161.03,102.06,185.97,449.06,Single-ply,SBD,M
Boys,90,3,Patrick Rhodes,San Antonio Cole,89.09,165.56,111.13,172.37,449.06,Single-ply,SBD,M
Boys,90,DQ,Merbin Carratini,San Antonio Cole,89.81,,,,,Single-ply,SBD,M
Boys,100,1,Joseph Bueno,Somerset,94.53,235.87,138.35,244.94,619.15,Single-ply,SBD,M
Boys,100,2,Mateo Garcia,San Antonio Memorial,99.16,249.48,127.01,224.53,601.01,Single-ply,SBD,M
Boys,100,3,Tyler Crisp,Poteet,95.44,244.94,113.4,235.87,594.21,Single-ply,SBD,M
Boys,100,4,Phillip Herrera,San Antonio Southwest,95.98,222.26,124.74,215.46,562.45,Single-ply,SBD,M
Boys,100,5,Cole Doerr,Marion,93.71,195.04,117.93,201.85,514.83,Single-ply,SBD,M
Boys,100,6,Ethan Solomon,Pleasanton,90.63,195.04,106.59,192.78,494.42,Single-ply,SBD,M
Boys,100,7,Anderas Cortez,San Antonio Brooks Academy,97.98,174.63,102.06,192.78,469.47,Single-ply,SBD,M
Boys,100,8,Ryan Bechtel,Marion,99.43,174.63,97.52,188.24,460.4,Single-ply,SBD,M
Boys,100,9,Adriel Tovar,Poteet,93.98,170.1,90.72,185.97,446.79,Single-ply,SBD,M
Boys,100,10,Ivan Valencia,San Antonio Southwest,91.26,127.01,79.38,140.61,347,Single-ply,SBD,M
Boys,100,DQ,Manuel Garcia,Somerset,97.61,238.14,104.33,,,Single-ply,SBD,M
Boys,110,1,Eddie Moreno,Somerset,109.5,283.5,167.83,265.35,716.68,Single-ply,SBD,M
Boys,110,2,Adrian Melendez-Leon,San Antonio Southwest,102.15,183.7,129.27,226.8,539.77,Single-ply,SBD,M
Boys,110,3,Manuel Valverde,San Antonio Memorial,100.43,188.24,138.35,190.51,517.1,Single-ply,SBD,M
Boys,110,4,Fransisco Uhl,San Antonio Southwest,105.87,154.22,138.35,197.31,489.88,Single-ply,SBD,M
Boys,110,5,Francisco Duran,Marion,100.88,158.76,115.67,188.24,462.66,Single-ply,SBD,M
Boys,110,6,Sam Ritchey,Poteet,103.6,165.56,102.06,167.83,435.45,Single-ply,SBD,M
Boys,110,7,Geronimo Flores,Somerset,102.97,142.88,79.38,158.76,381.02,Single-ply,SBD,M
Boys,110,DQ,Manuel Cruz,San Antonio Kennedy,105.51,,,,,Single-ply,SBD,M
Boys,125,1,James Woods,Somerset,122.38,328.85,174.63,265.35,768.84,Single-ply,SBD,M
Boys,125,2,Jorge Flores,San Antonio Memorial,116.85,235.87,127.01,222.26,585.13,Single-ply,SBD,M
Boys,125,3,Elijah Amaro,San Antonio Southwest,122.02,210.92,165.56,195.04,571.53,Single-ply,SBD,M
Boys,125,4,Fermin Cruz,San Antonio Memorial,111.86,199.58,124.74,195.04,519.36,Single-ply,SBD,M
Boys,125,5,Marcus Luna,San Antonio Southwest,114.21,183.7,133.81,192.78,510.29,Single-ply,SBD,M
Boys,125,6,Steve Segura,San Antonio Southwest,120.2,188.24,129.27,183.7,501.22,Single-ply,SBD,M
Boys,125,7,Christian Adame,San Antonio Southwest,119.93,183.7,106.59,204.12,494.42,Single-ply,SBD,M
Boys,125,8,Jose Murillo,San Antonio Southwest,117.12,183.7,104.33,188.24,476.27,Single-ply,SBD,M
Boys,125,9,Jesus Mendoza-Estrada,San Antonio Southwest,120.2,158.76,124.74,174.63,458.13,Single-ply,SBD,M
Boys,125,10,Symon Alvarez,San Antonio Southwest,112.49,145.15,124.74,170.1,439.98,Single-ply,SBD,M
Boys,125,11,Benny Gallardo,San Antonio Memorial,118.84,176.9,102.06,156.49,435.45,Single-ply,SBD,M
Boys,125,12,Matthew Gold,San Antonio Brooks Academy,114.31,117.93,74.84,149.69,342.46,Single-ply,SBD,M
Boys,125+,1,Oscar Castillo,Pleasanton,126.28,283.5,176.9,238.14,698.53,Single-ply,SBD,M
Boys,125+,2,Jacob Pace,Pleasanton,128.91,263.08,129.27,217.72,610.08,Single-ply,SBD,M
Boys,125+,3,Kevin De Toro,San Antonio Kennedy,129.09,208.65,95.25,204.12,508.02,Single-ply,SBD,M
Boys,125+,4,Isaiah Reyna,Somerset,140.61,185.97,70.31,206.38,462.66,Single-ply,SBD,M
Boys,125+,5,Ben Pagan,Poteet,161.48,165.56,104.33,176.9,446.79,Single-ply,SBD,M
Boys,125+,6,Robert Gonyer,Marion,125.83,142.88,104.33,158.76,405.97,Single-ply,SBD,M
