Division,WeightClassKg,Place,Name,Team,BodyweightKg,Best3SquatKg,Best3BenchKg,Best3DeadliftKg,TotalKg,Equipment,Event,Sex
Boys,52,1,Andrew Luna,Perryton,51.71,133.81,70.31,120.2,324.32,Single-ply,SBD,M
Boys,52,2,Axel Hernandez,Dumas,51.26,108.86,58.97,122.47,290.3,Single-ply,SBD,M
Boys,52,3,Preston Mann,Amarillo Highland Park,51.62,102.06,61.23,120.2,283.5,Single-ply,SBD,M
Boys,52,4,Peter Nguyen #2,Amarillo Highland Park,50.35,92.99,56.7,115.67,265.35,Single-ply,SBD,M
Boys,52,5,Jordan Hays,Panhandle,50.26,74.84,40.82,99.79,215.46,Single-ply,SBD,M
Boys,52,6,Kaegan Lewis,Amarillo Highland Park,48.26,52.16,43.09,83.91,179.17,Single-ply,SBD,M
Boys,56,1,Kevin Nguyen #8,Amarillo Highland Park,55.79,149.69,81.65,167.83,399.16,Single-ply,SBD,M
Boys,56,2,Bryan Nguyen,Amarillo Highland Park,55.61,113.4,70.31,151.95,335.66,Single-ply,SBD,M
Boys,56,3,Brian Arriaga,Dimmitt,55.7,102.06,63.5,106.59,272.16,Single-ply,SBD,M
Boys,60,1,Dawson Hackett,Panhandle,59.74,136.08,83.91,151.95,371.95,Single-ply,SBD,M
Boys,60,2,Ryan McClesky,Clarendon,59.6,127.01,79.38,149.69,356.07,Single-ply,SBD,M
Boys,60,3,Dalton Benson,Clarendon,58.6,122.47,72.57,147.42,342.46,Single-ply,SBD,M
Boys,60,4,Juan Oltivero,Dimmitt,58.6,104.33,61.23,142.88,308.44,Single-ply,SBD,M
Boys,60,5,Thane Adams,Panhandle,59.69,117.93,79.38,108.86,306.17,Single-ply,SBD,M
Boys,60,6,Kade Tinsley,Bushland,59.87,106.59,61.23,122.47,290.3,Single-ply,SBD,M
Boys,60,DQ,Landon Johnson,Amarillo Highland Park,59.87,,,,,Single-ply,SBD,M
Boys,67.5,1,Josue Becerril,Perryton,66.32,167.83,92.99,188.24,449.06,Single-ply,SBD,M
Boys,67.5,2,Luis Ramos #1,Dumas,65.32,142.88,83.91,181.44,408.23,Single-ply,SBD,M
Boys,67.5,3,Carter Neil,Panhandle,64.77,131.54,70.31,138.35,340.19,Single-ply,SBD,M
Boys,67.5,4,Maynor Velazquez,Dumas,62.6,111.13,65.77,142.88,319.78,Single-ply,SBD,M
Boys,67.5,5,Maverick Hale,Panhandle,65.77,102.06,61.23,113.4,276.69,Single-ply,SBD,M
Boys,67.5,6,Jayson Jones,Panhandle,63.5,86.18,52.16,124.74,263.08,Single-ply,SBD,M
Boys,75,1,Garron Weber,Borger,73.57,195.04,142.88,249.48,587.4,Single-ply,SBD,M
Boys,75,2,Tony Futhirath,Dumas,73.66,156.49,92.99,181.44,430.91,Single-ply,SBD,M
Boys,75,3,Jaden Shaver,Panhandle,71.4,165.56,95.25,158.76,419.57,Single-ply,SBD,M
Boys,75,4,Ethan Shadid,Panhandle,68.58,145.15,79.38,165.56,390.09,Single-ply,SBD,M
Boys,75,5,Logan Terrell,Bushland,73.71,122.47,95.25,170.1,387.82,Single-ply,SBD,M
Boys,75,6,Zane Hackett,Panhandle,74.48,133.81,97.52,147.42,378.75,Single-ply,SBD,M
Boys,75,7,Canton Grahn,Clarendon,68.76,138.35,77.11,158.76,374.21,Single-ply,SBD,M
Boys,75,8,Matt Anders,Amarillo Highland Park,71.21,106.59,77.11,142.88,326.59,Single-ply,SBD,M
Boys,75,9,Jeremiah Andrade,Dumas,69.85,108.86,79.38,133.81,322.05,Single-ply,SBD,M
Boys,75,10,Noah Like,Amarillo Highland Park,72.21,92.99,74.84,136.08,303.91,Single-ply,SBD,M
Boys,75,11,Abraham Navarro,Dimmitt,71.67,113.4,83.91,104.33,301.64,Single-ply,SBD,M
Boys,75,DQ,Houston Heck,Panhandle,72.94,181.44,,,,Single-ply,SBD,M
Boys,82.5,1,Chris Lara,Bushland,76.2,188.24,111.13,199.58,498.95,Single-ply,SBD,M
Boys,82.5,2,Estevan Gonzales,Dimmitt,81.37,167.83,104.33,219.99,492.15,Single-ply,SBD,M
Boys,82.5,3,Sean Meadows,Bushland,81.01,174.63,113.4,199.58,487.61,Single-ply,SBD,M
Boys,82.5,4,Davian Gate,Dumas,81.47,174.63,111.13,170.1,455.86,Single-ply,SBD,M
Boys,82.5,5,Carson Smith,Dalhart,79.56,170.1,92.99,161.03,424.11,Single-ply,SBD,M
Boys,82.5,6,Aiden Hayes,Dimmitt,81.28,147.42,77.11,149.69,374.21,Single-ply,SBD,M
Boys,82.5,7,Carson Ward,Borger,79.29,129.27,61.23,142.88,333.39,Single-ply,SBD,M
Boys,90,1,DJ Petties,Dalhart,84.19,199.58,92.99,231.33,523.9,Single-ply,SBD,M
Boys,90,2,Maros Saucendo,Dumas,82.92,183.7,120.2,163.29,467.2,Single-ply,SBD,M
Boys,90,3,Noah Quintanilla,Dumas,85.82,142.88,83.91,170.1,396.89,Single-ply,SBD,M
Boys,90,4,Wade Alexander,Panhandle,86.27,102.06,65.77,142.88,310.71,Single-ply,SBD,M
Boys,90,DQ,Colin Barthlow,Panhandle,89.36,120.2,,,,Single-ply,SBD,M
Boys,100,1,Blaine McGregor,Amarillo Highland Park,91.17,229.06,138.35,226.8,594.21,Single-ply,SBD,M
Boys,100,2,Brendon Eminger,Canyon,98.7,235.87,113.4,204.12,553.38,Single-ply,SBD,M
Boys,100,3,Garrett McIlroy,Panhandle,95.16,181.44,102.06,183.7,467.2,Single-ply,SBD,M
Boys,100,4,Ubaldo Tarango,Perryton,98.16,176.9,106.59,176.9,460.4,Single-ply,SBD,M
Boys,100,5,Augustine Moreno,Amarillo Highland Park,93.98,174.63,106.59,176.9,458.13,Single-ply,SBD,M
Boys,100,6,Rolando Andrede,Dumas,92.35,170.1,111.13,170.1,451.32,Single-ply,SBD,M
Boys,100,7,Derian Solis,Dimmitt,98.52,140.61,108.86,147.42,396.89,Single-ply,SBD,M
Boys,100,8,Matt Fuller,Dimmitt,90.17,145.15,92.99,154.22,392.36,Single-ply,SBD,M
Boys,100,9,Braden Forbes,Panhandle,92.9,154.22,83.91,145.15,383.29,Single-ply,SBD,M
Boys,110,1,Zach Zaccardo,Bushland,104.69,215.46,131.54,215.46,562.45,Single-ply,SBD,M
Boys,110,2,Patrick Cheney,Amarillo Highland Park,103.96,170.1,113.4,201.85,485.34,Single-ply,SBD,M
Boys,110,3,Adam Acevedo,Dumas,103.6,170.1,108.86,204.12,483.08,Single-ply,SBD,M
Boys,110,4,Blaine Smith,Bushland,108.05,158.76,111.13,183.7,453.59,Single-ply,SBD,M
Boys,110,5,Cole Bacon,Panhandle,103.87,165.56,81.65,176.9,424.11,Single-ply,SBD,M
Boys,110,6,Isaiah Andrade,Dumas,100.06,124.74,79.38,136.08,340.19,Single-ply,SBD,M
Boys,110,DQ,Brady Cooke,Panhandle,109.41,,,,,Single-ply,SBD,M
Boys,110,DQ,Jackson Blake,Bushland,106.05,127.01,81.65,102.06,,Single-ply,SBD,M
Boys,125,1,Seth Greer,Clarendon,122.11,226.8,174.63,249.48,650.91,Single-ply,SBD,M
Boys,125,2,Manuel Alvidrez,Dumas,120.47,249.48,145.15,240.4,635.03,Single-ply,SBD,M
Boys,125,3,Eric Balderas,Dumas,115.03,204.12,145.15,226.8,576.06,Single-ply,SBD,M
Boys,125,4,Alonso Cardenas,Dumas,116.48,213.19,124.74,219.99,557.92,Single-ply,SBD,M
Boys,125,5,Brendan Herring,Dalhart,116.66,190.51,92.99,176.9,460.4,Single-ply,SBD,M
Boys,125,6,Omar Hernandez,Dumas,114.58,170.1,97.52,167.83,435.45,Single-ply,SBD,M
Boys,125,DQ,Lorenzo Valdez,Borger,113.58,,,,,Single-ply,SBD,M
Boys,125+,1,Tytus Williams,Borger,131.81,254.01,133.81,204.12,591.94,Single-ply,SBD,M
Boys,125+,2,Ethan Smith,Dimmitt,174.36,204.12,99.79,226.8,530.7,Single-ply,SBD,M
Boys,125+,3,Jordan Applegate,Amarillo Highland Park,141.97,197.31,127.01,183.7,508.02,Single-ply,SBD,M
Boys,125+,4,Jaden Massey,Dalhart,137.26,201.85,124.74,172.37,498.95,Single-ply,SBD,M
