Name,Division,Sex,BodyweightKg,WeightClassKg,Place,BirthYear,Deadlift1Kg,Deadlift2Kg,Deadlift3Kg,Best3DeadliftKg,TotalKg,Event,Equipment
Lisa Schlagbauer,Juniors,F,62.05,63,1,1996,120,127.5,135,135,135,D,Single-ply
Sofia Walter,Juniors,F,71.45,72,1,1996,140,150,-160,150,150,D,Single-ply
Sonja Graumann,Juniors,F,65.4,72,2,1996,125,142.5,-150,142.5,142.5,D,Single-ply
Janine Oser,Juniors,F,68.45,72,3,1995,142.5,-152.5,-152.5,142.5,142.5,D,Single-ply
Natalie Weber #1,Juniors,F,82.95,84,1,1996,100,117.5,-125,117.5,117.5,D,Single-ply
Caroline Garhammer,Masters 1,F,60.95,63,1,1978,170,185,200,200,200,D,Single-ply
Nicole Börsch,Masters 1,F,69.4,72,1,1976,170,180,-190,180,180,D,Single-ply
Iris Kunkel,Masters 2,F,71,72,1,1964,135,142.5,150,150,150,D,Single-ply
Susanne Steidle,Masters 2,F,81.5,84,1,1964,145,155,165,165,165,D,Single-ply
Pia Kring,Masters 3,F,56.7,57,1,1957,130,137.5,-145,137.5,137.5,D,Single-ply
Susann Cichon,Open,F,56.75,57,1,1987,145,-152.5,152.5,152.5,152.5,D,Single-ply
Simone Baumann,Open,F,54.75,57,2,1983,105,115,125,125,125,D,Single-ply
Sabrina Bogner,Open,F,55.1,57,3,1980,95,102.5,-105,102.5,102.5,D,Single-ply
Carina Schönhuber,Open,F,60.8,63,1,1992,90,105,-115,105,105,D,Single-ply
Manuela Hauß,Open,F,70.9,72,1,1980,140,147.5,152.5,152.5,152.5,D,Single-ply
Isabelle Bausch,Open,F,70.3,72,2,1989,140,147.5,-152.5,147.5,147.5,D,Single-ply
Verena Rehagel,Open,F,69.5,72,3,1980,95,105,110,110,110,D,Single-ply
Valérie von Gleichen,Open,F,81.55,84,1,1992,160,170,180,180,180,D,Single-ply
Eva Grosser,Open,F,83.05,84,2,1988,135,145,150,150,150,D,Single-ply
Heike Reichenauer,Open,F,73.95,84,3,1992,120,-130,-130,120,120,D,Single-ply
Benedict Vetter,Juniors,M,59.45,66,1,1995,155,170,175,175,175,D,Single-ply
Mirko Münch,Juniors,M,73.75,74,1,1997,190,200,210,210,210,D,Single-ply
Jonas Diefenbach,Juniors,M,77.9,83,1,1998,207.5,225,-232.5,225,225,D,Single-ply
Tim-Florian Radicke,Juniors,M,82.4,83,2,1995,170,190,200,200,200,D,Single-ply
Tilman Märtl,Juniors,M,82.6,83,3,1996,150,165,-177.5,165,165,D,Single-ply
Jeremias Büchs,Juniors,M,91.1,93,1,1995,232.5,247.5,250,250,250,D,Single-ply
Luis Bauer,Juniors,M,91.7,93,2,1996,225,237.5,-250,237.5,237.5,D,Single-ply
Ruben Amon,Juniors,M,86.3,93,3,1999,190,200,-210,200,200,D,Single-ply
Jonas Bausewein,Juniors,M,97.2,105,1,1997,232.5,245,-260,245,245,D,Single-ply
Simon Bausewein,Juniors,M,104,105,2,1997,217.5,230,-237.5,230,230,D,Single-ply
Fabian Haberer,Juniors,M,99.1,105,3,1999,190,210,-230,210,210,D,Single-ply
Nicolas Göb,Juniors,M,95.5,105,4,1995,180,192.5,197.5,197.5,197.5,D,Single-ply
Lukas Köster,Juniors,M,117.4,120,1,1996,220,230,240,240,240,D,Single-ply
Marco Dömling,Masters 1,M,81.25,83,1,1976,200,210,220,220,220,D,Single-ply
Tobias Stadler,Masters 1,M,102.4,105,1,1977,255,265,275,275,275,D,Single-ply
Dirk Motzkus,Masters 1,M,103.9,105,2,1977,200,215,-225,215,215,D,Single-ply
Alexander Geitner,Masters 1,M,105.7,120,1,1978,270,290,300,300,300,D,Single-ply
Torsten Thenhart,Masters 1,M,111.6,120,2,1975,230,245,255,255,255,D,Single-ply
Tobias Zinserling,Masters 1,M,149.6,120+,1,1978,350,360,-372.5,360,360,D,Single-ply
Willi Rappl,Masters 2,M,71.25,74,1,1967,120,130,140,140,140,D,Single-ply
János Geerhardt,Masters 2,M,82.9,83,1,1967,222.5,237.5,245,245,245,D,Single-ply
Mario Schnurr,Masters 2,M,95.2,105,1,1966,255,275,290,290,290,D,Single-ply
Udo Thielking,Masters 2,M,132.2,120+,1,1961,230,-250,250,250,250,D,Single-ply
Robert Robeis,Masters 3,M,74.6,83,1,1958,180,200,220,220,220,D,Single-ply
Siegmund Schiebe,Masters 3,M,107.8,120,1,1953,210,230,,230,230,D,Single-ply
Ludwig Werner,Masters 4,M,63.05,66,1,1938,130,140,150,150,150,D,Single-ply
Andreas Stelter,Masters 4,M,93.95,105,1,1947,145,155,,155,155,D,Single-ply
Hieu Le #2,Open,M,64.6,66,1,1993,-155,165,175,175,175,D,Single-ply
Marc Polster,Open,M,69.05,74,1,1986,215,235,-245,235,235,D,Single-ply
Felix Dinkel,Open,M,81.45,83,1,1986,240,252.5,-260,252.5,252.5,D,Single-ply
Martin Wimmer,Open,M,77.65,83,2,1985,210,220,225,225,225,D,Single-ply
Simon Eichler,Open,M,77.85,83,3,1993,210,-220,222.5,222.5,222.5,D,Single-ply
Sebastian Mauser,Open,M,79.9,83,4,1991,-170,175,185,185,185,D,Single-ply
Julian Schnurr,Open,M,85.95,93,1,1994,260,267.5,-277.5,267.5,267.5,D,Single-ply
Thomas Lehmeier,Open,M,88.65,93,2,1991,245,-257.5,-260,245,245,D,Single-ply
Sebastian Heger,Open,M,92.1,93,3,1992,230,-242.5,-250,230,230,D,Single-ply
Andreas Hofmann,Open,M,89.6,93,4,1988,195,205,210,210,210,D,Single-ply
Sascha Stendebach,Open,M,93.95,105,1,1991,340,355,,355,355,D,Single-ply
Thomas Starklauf,Open,M,97.9,105,2,1989,275,292.5,305,305,305,D,Single-ply
Milan Bogner,Open,M,102.8,105,3,1988,267.5,277.5,282.5,282.5,282.5,D,Single-ply
Patrick Klostermayr,Open,M,94.55,105,4,1991,220,240,250,250,250,D,Single-ply
Daniel Hirmer,Open,M,103.5,105,5,1990,200,220,230,230,230,D,Single-ply
Vasileios Tsanakas,Open,M,103.2,105,6,1981,182.5,195,205,205,205,D,Single-ply
Malte Fleissner,Open,M,115.9,120,1,1989,320,-340,-350,320,320,D,Single-ply
Bastian Grüner,Open,M,124.3,120+,1,1986,240,-257.5,265,265,265,D,Single-ply
Michael Scholz,Youth,M,82.75,83,1,2000,220,240,250,250,250,D,Single-ply
Thomas März,Youth,M,93.25,105,1,2000,200,220,232.5,232.5,232.5,D,Single-ply
Jakub Raczek,Youth,M,105.6,120,1,2001,230,240,-250,240,240,D,Single-ply
