Division,WeightClassKg,Place,Name,Team,BodyweightKg,Best3SquatKg,Best3BenchKg,Best3DeadliftKg,TotalKg,Equipment,Event,Sex
Boys,52,1,Kade Pace,Lago Vista,51.39,113.4,61.23,136.08,310.71,Single-ply,SBD,M
Boys,52,2,Andres Guerra,Manor,50.89,83.91,56.7,115.67,256.28,Single-ply,SBD,M
Boys,56,DQ,Noah Pachicano,Taylor,52.84,176.9,,,,Single-ply,SBD,M
Boys,60,1,Hunter Mullins,Jarrell,58.29,176.9,102.06,192.78,471.74,Single-ply,SBD,M
Boys,60,2,Jalil Mahummad,Groesbeck,59.78,163.29,97.52,167.83,428.64,Single-ply,SBD,M
Boys,60,3,Shawnpail Fields,Taylor,59.87,156.49,74.84,165.56,396.89,Single-ply,SBD,M
Boys,60,4,Tristen Aleksines,Hutto,57.06,111.13,70.31,131.54,312.98,Single-ply,SBD,M
Boys,60,5,Xavier Elizondo,Pflugerville Connally,59.56,92.99,52.16,136.08,281.23,Single-ply,SBD,M
Boys,67.5,1,Anthony Perez,Killeen Shoemaker,66.68,208.65,136.08,229.06,573.79,Single-ply,SBD,M
Boys,67.5,2,Happy Jones,Manor,65.95,183.7,95.25,183.7,462.66,Single-ply,SBD,M
Boys,67.5,3,Josh Howard,Hutto,65.82,156.49,108.86,161.03,426.38,Single-ply,SBD,M
Boys,67.5,4,Caleb Linsey,Hutto,63.14,127.01,90.72,165.56,383.29,Single-ply,SBD,M
Boys,67.5,5,Jacob Neidig,Elgin,64.73,145.15,77.11,161.03,383.29,Single-ply,SBD,M
Boys,67.5,6,Darius McGrew,Pflugerville Connally,64.41,111.13,70.31,136.08,317.51,Single-ply,SBD,M
Boys,67.5,7,Jacob Strickland,Killeen Shoemaker,66.68,106.59,77.11,129.27,312.98,Single-ply,SBD,M
Boys,67.5,DQ,Xavier Foster,Taylor,67.13,,,,,Single-ply,SBD,M
Boys,75,1,Isaac Johnson,Elgin,71.67,226.8,113.4,219.99,560.19,Single-ply,SBD,M
Boys,75,2,Matthew Kocian,Taylor,74.21,217.72,106.59,210.92,535.24,Single-ply,SBD,M
Boys,75,3,Josh Tiha,Manor,68.22,197.31,102.06,226.8,526.17,Single-ply,SBD,M
Boys,75,4,Hugh Shelton,Taylor,72.39,172.37,99.79,210.92,483.08,Single-ply,SBD,M
Boys,75,5,Trejo Tucker,Hutto,74.07,183.7,106.59,192.78,483.08,Single-ply,SBD,M
Boys,75,6,Kevin Cervantes,Elgin,74.3,174.63,124.74,183.7,483.08,Single-ply,SBD,M
Boys,75,7,Cameron Forrest,Hutto,71.89,158.76,92.99,183.7,435.45,Single-ply,SBD,M
Boys,75,8,Zac Johle,Thrall,72.03,158.76,117.93,158.76,435.45,Single-ply,SBD,M
Boys,75,9,Anthony Yanez,Elgin,69.13,158.76,92.99,149.69,401.43,Single-ply,SBD,M
Boys,75,10,Steven Crenshaw,Pflugerville Connally,70.72,136.08,92.99,170.1,399.16,Single-ply,SBD,M
Boys,75,11,Caleb Forrest,Hutto,71.89,127.01,92.99,170.1,390.09,Single-ply,SBD,M
Boys,75,12,Jaden Moreno,Pflugerville Connally,71.49,136.08,83.91,154.22,374.21,Single-ply,SBD,M
Boys,75,13,Tyson Nguyen,Pflugerville Connally,70.72,90.72,92.99,149.69,333.39,Single-ply,SBD,M
Boys,75,DQ,Colton Agnew,Groesbeck,70.31,,65.77,120.2,,Single-ply,SBD,M
Boys,82.5,1,Myles McGruder,Groesbeck,82.1,208.65,124.74,222.26,555.65,Single-ply,SBD,M
Boys,82.5,2,Dylan Hines,Lago Vista,77.2,204.12,113.4,229.06,546.58,Single-ply,SBD,M
Boys,82.5,3,Austin Olson,Hutto,81.24,183.7,111.13,217.72,512.56,Single-ply,SBD,M
Boys,82.5,4,Moe Bryson,Lago Vista,76.66,183.7,95.25,201.85,480.81,Single-ply,SBD,M
Boys,82.5,5,Dusty Roberts,Groesbeck,81.19,181.44,90.72,181.44,453.59,Single-ply,SBD,M
Boys,82.5,6,Ruben Jimenez,Groesbeck,77.25,163.29,111.13,158.76,433.18,Single-ply,SBD,M
Boys,82.5,7,Chase Waid,Thrall,75.66,142.88,122.47,158.76,424.11,Single-ply,SBD,M
Boys,82.5,8,Colton Jung,Killeen Ellison,80.6,145.15,99.79,174.63,419.57,Single-ply,SBD,M
Boys,82.5,9,Brendan Roark,Groesbeck,78.97,140.61,86.18,154.22,381.02,Single-ply,SBD,M
Boys,82.5,10,Darren Pierson,Pflugerville Connally,75.89,111.13,63.5,102.06,276.69,Single-ply,SBD,M
Boys,82.5,DQ,Ryan Hill,Lago Vista,82.1,,,,,Single-ply,SBD,M
Boys,90,1,Shane Buckingham,Taylor,87.18,215.46,122.47,201.85,539.77,Single-ply,SBD,M
Boys,90,2,Trey Bishop,Pflugerville Connally,88.54,165.56,120.2,188.24,474,Single-ply,SBD,M
Boys,90,3,Tajha Brooks,Manor,87.91,181.44,88.45,192.78,462.66,Single-ply,SBD,M
Boys,90,4,Emeka Esquanie,Manor,85.91,165.56,88.45,204.12,458.13,Single-ply,SBD,M
Boys,90,5,Peyton Blake,Elgin,84.55,158.76,102.06,192.78,453.59,Single-ply,SBD,M
Boys,90,6,Terrion Brown,Manor,87.86,156.49,95.25,183.7,435.45,Single-ply,SBD,M
Boys,90,7,Damon Harp,Groesbeck,88.04,147.42,90.72,151.95,390.09,Single-ply,SBD,M
Boys,90,8,Cory Alcala,Pflugerville Connally,84.55,140.61,102.06,142.88,385.55,Single-ply,SBD,M
Boys,90,9,Bradye Duncan,Groesbeck,82.78,140.61,79.38,142.88,362.87,Single-ply,SBD,M
Boys,90,10,Dalton Konarsky,Thrall,89.58,117.93,86.18,156.49,360.61,Single-ply,SBD,M
Boys,90,11,Anthony Ferere,Killeen Ellison,84.1,88.45,61.23,120.2,269.89,Single-ply,SBD,M
Boys,100,1,Paul Sanchez,Hutto,99.79,272.16,151.95,249.48,673.58,Single-ply,SBD,M
Boys,100,2,Olisa Uzuegbunam,Manor,94.98,226.8,136.08,226.8,589.67,Single-ply,SBD,M
Boys,100,3,Zach Menkin,Lago Vista,92.53,224.53,136.08,219.99,580.6,Single-ply,SBD,M
Boys,100,4,Luciano Garza,Jarrell,92.76,204.12,124.74,226.8,555.65,Single-ply,SBD,M
Boys,100,5,Ochaun Mathis,Manor,96.21,188.24,117.93,244.94,551.11,Single-ply,SBD,M
Boys,100,6,Jason Allen,Taylor,99.79,190.51,117.93,208.65,517.1,Single-ply,SBD,M
Boys,100,7,Matthew Jarosek,Thrall,92.22,170.1,127.01,208.65,505.76,Single-ply,SBD,M
Boys,100,8,Harley Franklin,Elgin,95.39,161.03,90.72,199.58,451.32,Single-ply,SBD,M
Boys,100,9,Juan Castillo,Elgin,90.85,158.76,83.91,176.9,419.57,Single-ply,SBD,M
Boys,100,10,Reid Wallinder,Killeen Ellison,96.3,149.69,97.52,165.56,412.77,Single-ply,SBD,M
Boys,100,11,John McGee,Pflugerville Connally,94.21,127.01,74.84,151.95,353.8,Single-ply,SBD,M
Boys,100,12,Jarron Lewis,Pflugerville Connally,90.76,120.2,72.57,136.08,328.85,Single-ply,SBD,M
Boys,100,13,Chris Rivera,Pflugerville Connally,91.53,127.01,65.77,136.08,328.85,Single-ply,SBD,M
Boys,100,DQ,Jaylon Lanns,Killeen Ellison,99.79,,,,,Single-ply,SBD,M
Boys,100,DQ,Ron Murrell,Killeen Ellison,99.79,,,,,Single-ply,SBD,M
Boys,110,1,Que'Sean Gildon,Lago Vista,102.15,285.76,136.08,204.12,625.96,Single-ply,SBD,M
Boys,110,2,Adrian Bravo,Jarrell,109.36,208.65,165.56,179.17,553.38,Single-ply,SBD,M
Boys,110,3,Dylan Syms,Jarrell,101.83,204.12,149.69,185.97,539.77,Single-ply,SBD,M
Boys,110,4,Clayton Herridge,Groesbeck,109.77,181.44,136.08,170.1,487.61,Single-ply,SBD,M
Boys,110,5,Lordswill Uwa-Ndukwe,Hutto,101.06,165.56,108.86,183.7,458.13,Single-ply,SBD,M
Boys,110,6,Josh Navejas,Elgin,106.37,149.69,97.52,183.7,430.91,Single-ply,SBD,M
Boys,110,7,Thomas Clawson,Jarrell,104.51,151.95,106.59,154.22,412.77,Single-ply,SBD,M
Boys,110,8,Jacoby Pitre,Killeen Shoemaker,101.38,129.27,90.72,165.56,385.55,Single-ply,SBD,M
Boys,110,9,Tim Apodaca,Killeen Ellison,101.6,102.06,72.57,170.1,344.73,Single-ply,SBD,M
Boys,110,10,Javier Molina,Killeen Ellison,109.45,111.13,102.06,129.27,342.46,Single-ply,SBD,M
Boys,110,DQ,Trace Lopez,Taylor,105.23,149.69,88.45,,,Single-ply,SBD,M
Boys,110,DQ,Daniel Villalobos,Taylor,107.91,183.7,,,,Single-ply,SBD,M
Boys,125,1,Brandon Webb,Lago Vista,123.24,272.16,133.81,210.92,616.89,Single-ply,SBD,M
Boys,125,2,Eliel Salazar,Elgin,116.53,226.8,138.35,226.8,591.94,Single-ply,SBD,M
Boys,125,3,Terry Cook,Elgin,113.31,226.8,129.27,229.06,585.13,Single-ply,SBD,M
Boys,125,4,Lazaro Mendez,Pflugerville Connally,112.35,215.46,127.01,206.38,548.85,Single-ply,SBD,M
Boys,125,5,Robert Moore,Killeen Ellison,116.85,181.44,106.59,204.12,492.15,Single-ply,SBD,M
Boys,125,6,Nehemiah Brown,Killeen Shoemaker,110.54,197.31,113.4,179.17,489.88,Single-ply,SBD,M
Boys,125,7,Mark Grimm,Hutto,123.06,145.15,108.86,192.78,446.79,Single-ply,SBD,M
Boys,125,8,Chris Garcia,Hutto,120.2,165.56,92.99,172.37,430.91,Single-ply,SBD,M
Boys,125,9,Jonathan Vargas,Pflugerville Connally,117.39,136.08,113.4,170.1,419.57,Single-ply,SBD,M
Boys,125,10,Tavion Warren,Killeen Ellison,124.74,138.35,,,138.35,Single-ply,S,M
Boys,125,DQ,Chris Barco,Groesbeck,124.74,224.53,106.59,204.12,,Single-ply,SBD,M
Boys,125+,1,Marquise Gardner,Manor,152.41,283.5,170.1,226.8,680.39,Single-ply,SBD,M
Boys,125+,2,Marty Rodriguez,Hutto,134.85,267.62,133.81,215.46,616.89,Single-ply,SBD,M
Boys,125+,3,Anthony Hill,Manor,181.8,226.8,120.2,249.48,596.47,Single-ply,SBD,M
Boys,125+,4,Josh Mayo,Elgin,131.54,170.1,129.27,197.31,496.68,Single-ply,SBD,M
Boys,125+,5,Alex Rodriguez,Manor,142.29,183.7,74.84,183.7,442.25,Single-ply,SBD,M
