Name,Sex,Division,Place,WeightClassKg,Event,Equipment,Best3SquatKg,Best3BenchKg,Best3DeadliftKg,TotalKg
Susan O'Neill,F,M5,1,90+,B,Single-ply,,40,,40
Travis Bloomer,M,T1,1,67.5,B,Single-ply,,125,,125
Adam Contreras,M,T3,1,100,B,Single-ply,,130,,130
Jason Arnold,M,Open,1,67.5,B,Single-ply,,125,,125
Shawn Dias,M,Open,1,75,B,Single-ply,,185,,185
Matthew Short,M,Open,1,82.5,B,Single-ply,,132.5,,132.5
Steve Peña,M,Open,1,100,B,Single-ply,,232.5,,232.5
Shawn Buckley,M,Open,2,100,B,Single-ply,,172.5,,172.5
James Hunter,M,Open,1,110,B,Single-ply,,285,,285
Mel Goodwin,M,Open,1,125,B,Single-ply,,210,,210
Leo Contreras,M,Open,1,125+,B,Single-ply,,185,,185
Jim Chaaban,M,Submasters,1,110,B,Single-ply,,165,,165
Scott Bloomer,M,M1,1,67.5,B,Single-ply,,122.5,,122.5
Hoddy Fritz,M,M1,1,82.5,B,Single-ply,,117.5,,117.5
Keith Schiessl,M,M2,1,82.5,B,Single-ply,,150,,150
David Cummerow,M,M4,1,82.5,B,Single-ply,,152.5,,152.5
Mike DeGennaro,M,M1,1,100,B,Single-ply,,187.5,,187.5
Mike Murray,M,M2,1,100,B,Single-ply,,202.5,,202.5
David Marba,M,M4,1,110,B,Single-ply,,197.5,,197.5
Mel Goodwin,M,M2,1,125,B,Single-ply,,210,,210
Mike Bonifield,M,M6,1,125,B,Single-ply,,155,,155
Leo Contreras,M,M3,2,125+,B,Single-ply,,185,,185
Frank Beeler,M,M3,1,125+,B,Single-ply,,260,,260
Alexandra Vallejo,F,Open,1,48,SBD,Single-ply,75,62.5,122.5,260
Alexandra Vallejo,F,M1,1,48,SBD,Single-ply,75,62.5,122.5,260
Mark Nelson,M,T2,1,56,SBD,Single-ply,92.5,47.5,112.5,252.5
Homayoun Shiviae,M,M4,1,56,SBD,Single-ply,135,80,150,365
Shawna Staines,F,Open,2,60,SBD,Single-ply,85,65,120,270
Alison Barnhill,F,Open,1,60,SBD,Single-ply,97.5,65,145,307.5
Alison Barnhill,F,M1,1,60,SBD,Single-ply,97.5,65,145,307.5
Kyle Breaw,M,Juniors,1,67.5,SBD,Single-ply,150,112.5,167.5,430
Jason Arnold,M,Open,1,67.5,SBD,Single-ply,97.5,125,157.5,380
Dylan Sanders,M,T3,1,75,SBD,Single-ply,180,130,215,525
Frank Harrah,M,Open,1,75,SBD,Single-ply,152.5,102.5,167.5,422.5
Robert Mattison,M,M6,1,75,SBD,Single-ply,140,107.5,190,437.5
Barbara Behm,F,M1,1,82.5,SBD,Single-ply,102.5,82.5,112.5,297.5
Keith Schiessl,M,Open,1,82.5,SBD,Single-ply,232.5,150,222.5,605
Lance Slaughter,M,M1,1,82.5,SBD,Single-ply,175,155,195,525
Keith Schiessl,M,M2,1,82.5,SBD,Single-ply,232.5,150,222.5,605
Mitchell Koufos,M,T3,1,90,SBD,Single-ply,167.5,100,137.5,405
Brian Pacheco,M,Submasters,1,90,SBD,Single-ply,182.5,162.5,205,550
Shane O'Neill,M,M5,1,90,SBD,Single-ply,185,115,192.5,492.5
Steve Peña,M,Open,1,100,SBD,Single-ply,230,232.5,100,562.5
Joel Paredes,M,T2,1,110,SBD,Single-ply,200,182.5,265,647.5
Parish Harmon,M,Open,2,110,SBD,Single-ply,192.5,157.5,217.5,567.5
Scott Waits,M,Open,1,110,SBD,Single-ply,295,165,272.5,732.5
Robert Exum,M,M1,DQ,110,SBD,Single-ply,,,255,
Jim Evans,M,M5,1,110,SBD,Single-ply,65,142.5,180,387.5
Mel Goodwin,M,M2,1,125,SBD,Single-ply,235,210,255,700
Mel Goodwin,M,Open,2,125,SBD,Single-ply,235,210,255,700
Robert Meulenberg,M,Open,1,125,SBD,Single-ply,370,215,332.5,917.5
Armando Gonzalez,M,Open,1,125+,SBD,Single-ply,237.5,237.5,240,715
