Division,WeightClassKg,Place,Name,Team,BodyweightKg,Best3SquatKg,Best3BenchKg,Best3DeadliftKg,TotalKg,Equipment,Event,Sex
Boys,52,1,Bryce Leatherwood,Dublin,47.08,88.45,49.9,95.25,233.6,Single-ply,SBD,M
Boys,52,2,Bryce Denson,Early,37.83,47.63,24.95,83.91,156.49,Single-ply,SBD,M
Boys,56,1,Daniel Pina,Comanche,54.88,142.88,74.84,136.08,353.8,Single-ply,SBD,M
Boys,56,2,Zach Kelley,Early,55.43,106.59,88.45,124.74,319.78,Single-ply,SBD,M
Boys,56,3,Glenn Gent,Glen Rose,54.52,108.86,49.9,142.88,301.64,Single-ply,SBD,M
Boys,56,4,Carlos Moreno,Lingleville,52.71,104.33,47.63,106.59,258.55,Single-ply,SBD,M
Boys,56,5,Julian Talavera,Glen Rose,53.61,77.11,54.43,120.2,251.74,Single-ply,SBD,M
Boys,60,1,Dillon Graves,Glen Rose,58.42,138.35,92.99,163.29,394.63,Single-ply,SBD,M
Boys,60,2,Lionel Munoz,Comanche,56.79,124.74,74.84,136.08,335.66,Single-ply,SBD,M
Boys,60,3,Quincy Larson,Hamilton,57.33,117.93,68.04,142.88,328.85,Single-ply,SBD,M
Boys,60,4,Stephen Fritz,Lingleville,58.15,122.47,70.31,127.01,319.78,Single-ply,SBD,M
Boys,60,5,Christian Perez,Dublin,56.61,97.52,56.7,136.08,290.3,Single-ply,SBD,M
Boys,67.5,1,Keith Ray,Stephenville,62.69,156.49,102.06,154.22,412.77,Single-ply,SBD,M
Boys,67.5,2,Max Lauderdale,Glen Rose,65.95,142.88,92.99,176.9,412.77,Single-ply,SBD,M
Boys,67.5,3,Daniel Rosales,San Saba,65.05,149.69,95.25,163.29,408.23,Single-ply,SBD,M
Boys,67.5,4,Manuel DeLeon,Dublin,65.59,158.76,83.91,158.76,401.43,Single-ply,SBD,M
Boys,67.5,5,Trevor Higginbotham,Comanche,66.95,158.76,74.84,165.56,399.16,Single-ply,SBD,M
Boys,67.5,6,Jacob Merrill,Glen Rose,66.77,127.01,81.65,154.22,362.87,Single-ply,SBD,M
Boys,67.5,7,Max Jimenez,Comanche,66.95,129.27,83.91,147.42,360.61,Single-ply,SBD,M
Boys,67.5,8,Esteban Rodriquez,Dublin,64.68,140.61,74.84,136.08,351.53,Single-ply,SBD,M
Boys,67.5,9,Logan Evans,Lometa,63.96,122.47,72.57,154.22,349.27,Single-ply,SBD,M
Boys,75,1,Nacho Rios,Comanche,74.07,226.8,122.47,204.12,553.38,Single-ply,SBD,M
Boys,75,2,Joe Gilligan,Comanche,73.75,181.44,108.86,204.12,494.42,Single-ply,SBD,M
Boys,75,3,Bailey Jones #1,Early,74.12,151.95,115.67,170.1,437.72,Single-ply,SBD,M
Boys,75,4,Blake Pettit,Hamilton,68.31,158.76,88.45,170.1,417.3,Single-ply,SBD,M
Boys,75,5,Austin Rosales,Coleman,73.75,136.08,97.52,174.63,408.23,Single-ply,SBD,M
Boys,75,6,Stuart Cortez,Hamilton,72.57,151.95,88.45,156.49,396.89,Single-ply,SBD,M
Boys,75,7,James Young,Hamilton,74.66,138.35,88.45,151.95,378.75,Single-ply,SBD,M
Boys,75,8,Eddie Jaimes,Lometa,74.57,129.27,81.65,151.95,362.87,Single-ply,SBD,M
Boys,75,9,Angel Escobar,Dublin,73.3,131.54,83.91,142.88,358.34,Single-ply,SBD,M
Boys,75,10,Ryan Beineman,Hamilton,69.76,129.27,79.38,147.42,356.07,Single-ply,SBD,M
Boys,75,11,Erik Argote,San Saba,67.59,127.01,83.91,142.88,353.8,Single-ply,SBD,M
Boys,75,12,Dillon Schumann,Stephenville,68.49,95.25,72.57,108.86,276.69,Single-ply,SBD,M
Boys,75,13,Chance Kohr,Lingleville,73.39,79.38,43.09,90.72,213.19,Single-ply,SBD,M
Boys,75,DQ,Chase Keilers,Early,72.85,151.95,,188.24,,Single-ply,SBD,M
Boys,82.5,1,Jacob Riley,Dublin,77.11,190.51,113.4,244.94,548.85,Single-ply,SBD,M
Boys,82.5,2,Martin Najera,Hamilton,75.66,181.44,102.06,217.72,501.22,Single-ply,SBD,M
Boys,82.5,3,Jim Fowler,Early,78.56,195.04,117.93,185.97,498.95,Single-ply,SBD,M
Boys,82.5,4,Kade Mercer,Comanche,78.47,181.44,111.13,192.78,485.34,Single-ply,SBD,M
Boys,82.5,5,Jacob Winter,Lingleville,79.29,185.97,99.79,195.04,480.81,Single-ply,SBD,M
Boys,82.5,6,Issac De La Cruz,Stephenville,77.2,174.63,102.06,181.44,458.13,Single-ply,SBD,M
Boys,82.5,7,Johnny Jurado,Dublin,80.47,151.95,83.91,172.37,408.23,Single-ply,SBD,M
Boys,82.5,8,Christian Vasquez,Dublin,79.92,161.03,97.52,147.42,405.97,Single-ply,SBD,M
Boys,82.5,9,Brendan Gilbreath,Coleman,78.56,147.42,81.65,151.95,381.02,Single-ply,SBD,M
Boys,82.5,10,Colby Henry,Lometa,81.83,136.08,90.72,151.95,378.75,Single-ply,SBD,M
Boys,82.5,11,Cutter Daniels,San Saba,76.84,122.47,70.31,142.88,335.66,Single-ply,SBD,M
Boys,82.5,12,Ricky Douglas,Glen Rose,75.3,129.27,83.91,117.93,331.12,Single-ply,SBD,M
Boys,82.5,DQ,Brian Morales,Cross Plains,75.3,145.15,86.18,,,Single-ply,SBD,M
Boys,82.5,DQ,Victor De Los Santos,Glen Rose,80.29,181.44,,165.56,,Single-ply,SBD,M
Boys,90,1,Emiliano Jimenez,Comanche,87.36,226.8,136.08,226.8,589.67,Single-ply,SBD,M
Boys,90,2,Tate Tabor,Moran,84.28,190.51,122.47,199.58,512.56,Single-ply,SBD,M
Boys,90,3,Ylee Muro,Dublin,83.37,158.76,95.25,158.76,412.77,Single-ply,SBD,M
Boys,90,4,Jose Pesina,Early,84.1,149.69,97.52,158.76,405.97,Single-ply,SBD,M
Boys,90,5,Javier Felan,Lometa,83.64,133.81,79.38,158.76,371.95,Single-ply,SBD,M
Boys,90,6,Kaai Armour,Stephenville,89.81,136.08,83.91,142.88,362.87,Single-ply,SBD,M
Boys,90,7,Adrian Cervantes,Stephenville,88.63,117.93,72.57,142.88,333.39,Single-ply,SBD,M
Boys,90,DQ,Jadyn Lehde,Early,83.55,131.54,88.45,129.27,,Single-ply,SBD,M
Boys,100,1,Ragan Wood,Stephenville,93.8,281.23,158.76,231.33,671.32,Single-ply,SBD,M
Boys,100,2,Miguel Elizondo,Early,92.99,247.21,161.03,204.12,612.35,Single-ply,SBD,M
Boys,100,3,Kendal Beck,Comanche,97.16,192.78,127.01,204.12,523.9,Single-ply,SBD,M
Boys,100,4,Monty Lancaster,Moran,91.99,181.44,99.79,185.97,467.2,Single-ply,SBD,M
Boys,100,5,Tanner Stroud,Glen Rose,92.8,172.37,122.47,172.37,467.2,Single-ply,SBD,M
Boys,100,6,Jeron Conine,Comanche,97.07,181.44,99.79,158.76,439.98,Single-ply,SBD,M
Boys,100,7,Daniel de la Garza,Glen Rose,91.08,156.49,102.06,154.22,412.77,Single-ply,SBD,M
Boys,100,8,Zac Powell,Glen Rose,98.79,158.76,95.25,156.49,410.5,Single-ply,SBD,M
Boys,100,9,Jaiden Cochran,Early,91.26,142.88,106.59,151.95,401.43,Single-ply,SBD,M
Boys,100,10,Sammy Guerrero,Cross Plains,90.45,142.88,83.91,145.15,371.95,Single-ply,SBD,M
Boys,100,11,Jacob Pena,Glen Rose,93.53,113.4,74.84,142.88,331.12,Single-ply,SBD,M
Boys,100,12,Dawson Hargrove,Stephenville,90.99,117.93,68.04,117.93,303.91,Single-ply,SBD,M
Boys,100,DQ,Gabe Romero,Stephenville,93.53,,,149.69,,Single-ply,SBD,M
Boys,100,DQ,Jacob Collier,Cross Plains,99.79,195.04,122.47,,,Single-ply,SBD,M
Boys,100,DQ,Julian Ortunio,Lingleville,96.89,158.76,,145.15,,Single-ply,SBD,M
Boys,110,1,Nick Lara,Glen Rose,106.41,195.04,131.54,208.65,535.24,Single-ply,SBD,M
Boys,110,2,Ty'Von Robinson,Stephenville,103.33,183.7,145.15,197.31,526.17,Single-ply,SBD,M
Boys,110,3,Moses Garcia,Comanche,108.32,190.51,122.47,208.65,521.63,Single-ply,SBD,M
Boys,110,4,Will Bridgewater,Hamilton,109.41,204.12,102.06,206.38,512.56,Single-ply,SBD,M
Boys,110,5,Isaiah Cisneroz,Dublin,106.59,199.58,102.06,170.1,471.74,Single-ply,SBD,M
Boys,110,6,Clayton Pierce,San Saba,101.6,174.63,113.4,174.63,462.66,Single-ply,SBD,M
Boys,125,1,Pedro Bernal,Comanche,113.67,283.5,149.69,276.69,709.87,Single-ply,SBD,M
Boys,125,2,Ethan Price,Dublin,112.4,260.82,199.58,235.87,696.26,Single-ply,SBD,M
Boys,125,3,Matt Willis,Glen Rose,110.22,226.8,136.08,238.14,601.01,Single-ply,SBD,M
Boys,125,4,Hayden Shaw,Glen Rose,114.67,188.24,104.33,181.44,474,Single-ply,SBD,M
Boys,125,5,Brayn Healey,Dublin,121.74,192.78,61.23,181.44,435.45,Single-ply,SBD,M
Boys,125,6,Stran Burrow,Dublin,119.84,158.76,92.99,156.49,408.23,Single-ply,SBD,M
Boys,125+,1,Connor Murphey,Early,142.43,233.6,136.08,204.12,573.79,Single-ply,SBD,M
Boys,125+,2,Diesel Ceresini,Hamilton,136.8,226.8,115.67,183.7,526.17,Single-ply,SBD,M
Boys,125+,3,Mason Hines,Lometa,144.15,151.95,102.06,165.56,419.57,Single-ply,SBD,M
Boys,125+,4,Cole Evert,Glen Rose,127.55,165.56,83.91,154.22,403.7,Single-ply,SBD,M
