Place,WeightClassKg,Name,Equipment,Team,BodyweightKg,Squat1Kg,Squat2Kg,Squat3Kg,Best3SquatKg,Bench1Kg,Bench2Kg,Bench3Kg,Best3BenchKg,Deadlift1Kg,Deadlift2Kg,Deadlift3Kg,Best3DeadliftKg,TotalKg,Division,Sex,Event
1,60,Heidi Berg,Single-ply,SPUVI,58.60,80,90,100,100.0,57.5,62.5,-65,62.5,90,100,110,110.0,272.5,Juniors 19-23,F,SBD
1,56,Geir Erichsrud,Single-ply,SPUVI,52.60,67.5,72.5,77.5,77.5,47.5,52.5,-55,52.5,,,,,130,Teen 14-18,M,SB
1,82.5,Kristian Gjerding,Single-ply,SPUVI,76.30,87.5,90,-95,90.0,67.5,70,-75,70.0,,,,,160,Teen 14-18,M,SB
1,67.5,Hans H. Frølich,Single-ply,SPUVI,67.10,80,100,110,110.0,65,-70,-70,65.0,120,135,145,145.0,320,Juniors 19-23,M,SBD
1,75,Kai Henning Olsen,Single-ply,SPUVI,69.20,-155,-155,160,160.0,80,85,90,90.0,160,170,180,180.0,430,Juniors 19-23,M,SBD
2,75,Ruben Hoffmann,Single-ply,SPUVI,69.20,130,140,145,145.0,90,-95,95,95.0,140,155,165,165.0,405,Juniors 19-23,M,SBD
1,82.5,Svein Tore Moe,Single-ply,SPUVI,76.20,180,-200,200,200.0,95,-102.5,-102.5,95.0,200,-220,-220,200.0,495,Juniors 19-23,M,SBD
1,90,Fröde Gundersen,Single-ply,SPUVI,87.00,240,260,275,275.0,140,150,155,155.0,240,-270,,240.0,670,Open,M,SBD
1,110,Nils-Petter Knudsen,Single-ply,SPUVI,105.50,175,200,,200.0,100,,,100.0,175,-200,,175.0,475,Masters 40-49,M,SBD
