WeightClassKg,Place,Name,Team,BodyweightKg,Bench1Kg,Bench2Kg,Bench3Kg,Best3BenchKg,TotalKg,Division,Sex,Equipment,BirthYear,Event
48,1,Raija Koskinen-Jurkko,SalVo,47.4,85,90,-96,90,90,Open,F,Single-ply,1963,B
48,2,Sanna Apuli,Py-Pa,47.55,72.5,-77.5,77.5,77.5,77.5,Open,F,Single-ply,1981,B
52,1,Marcela Sandvik,ÅKK,51.85,110,117.5,-123,117.5,117.5,Open,F,Single-ply,1974,B
52,2,Karita Heininen,RAYVO,51.45,90,92.5,-95,92.5,92.5,Open,F,Single-ply,1971,B
52,3,Irmeli Vaulakorpi,HPV,50.65,65,67.5,70,70,70,Open,F,Single-ply,1954,B
52,4,Eira Pajuharju,HPV,51.65,62.5,65,-67.5,65,65,Open,F,Single-ply,1964,B
52,5,Mirka Koskinen,RAYVO,51.9,60,-67.5,-67.5,60,60,Open,F,Single-ply,1981,B
56,1,Mervi Sirkiä,TNT,52.6,90,92.5,97.5,97.5,97.5,Open,F,Single-ply,1972,B
56,2,Satu Raappana,NoVo,54.85,-82.5,82.5,87.5,87.5,87.5,Open,F,Single-ply,1981,B
56,3,Heini Böök,RAYVO,55.25,62.5,-70,-70,62.5,62.5,Open,F,Single-ply,1978,B
60,1,Tarja Uppala,SalVo,58.9,85,87.5,92.5,92.5,92.5,Open,F,Single-ply,1965,B
60,2,Tiina Salo,PV,59.7,87.5,-92.5,-92.5,87.5,87.5,Open,F,Single-ply,1988,B
60,3,Heidi Harju,KaVo,59.85,-87.5,87.5,-95,87.5,87.5,Open,F,Single-ply,1981,B
60,DQ,Beeda Arvaja,LVK-Team,59.75,-80,-80,-80,,,Open,F,Single-ply,1992,B
67.5,1,Susanna Virkkunen,S-V,66.9,-125,125,127.5,127.5,127.5,Open,F,Single-ply,1973,B
67.5,2,Johanna Kankus,I-HV,66.15,117.5,125,-127.5,125,125,Open,F,Single-ply,1984,B
67.5,3,Anni Vuohijoki,TNT,66.8,97.5,102.5,-107.5,102.5,102.5,Open,F,Single-ply,1988,B
67.5,4,Annastiina Rajaniemi,MY-Power,64.1,90,95,-102.5,95,95,Open,F,Single-ply,1985,B
67.5,5,Mia Alanko,TNT,65.6,90,92.5,-95,92.5,92.5,Open,F,Single-ply,1974,B
67.5,DQ,Heidi Sailola,LVK-Team,66.65,-82.5,-82.5,-82.5,,,Open,F,Single-ply,1973,B
75,1,Satu Luoto,LVK-Team,71.6,105,-112.5,-112.5,105,105,Open,F,Single-ply,1969,B
75,2,Heli Valtonen,RAYVO,71.2,-85,85,-97.5,85,85,Open,F,Single-ply,1961,B
75,3,Minna Vierikko,YlöR,71.05,60,72.5,-77.5,72.5,72.5,Open,F,Single-ply,1972,B
82.5,1,Riikka Ylitalo,SaJy,81.3,-150,150,-160,150,150,Open,F,Single-ply,1982,B
82.5,2,Marjaana Nylund,KaVo,82.25,125,135,-155.5,135,135,Open,F,Single-ply,1976,B
82.5,2,Teija Krokberg,LVK-Team,76.25,85,-90,90,90,90,Open,F,Single-ply,1980,B
90,1,Joanna Linna,JP 2000,83.2,115,-122.5,-125,115,115,Open,F,Single-ply,1974,B
90+,1,Katariina Nokua,TVN,97.5,140,-147.5,-153,140,140,Open,F,Single-ply,1973,B
56,1,Juha-Matti Englund,RAYVO,54.5,112.5,117.5,-120,117.5,117.5,Open,M,Single-ply,1981,B
56,2,Ari-Pekka Töllikkö,TNT,54.15,110,-120,-120,110,110,Open,M,Single-ply,1970,B
56,3,Pentti Rimpi,MY-Power,55.6,100,105,-112.5,105,105,Open,M,Single-ply,1967,B
60,1,Raimo Kaattari,So-Vi,59.95,152.5,-162.5,162.5,162.5,162.5,Open,M,Single-ply,1970,B
60,2,Dmitrij Jakovlev,NoVo,59.05,130,137.5,-140,137.5,137.5,Open,M,Single-ply,1982,B
60,3,Raimo Savaloja,Ols-Ta,59.65,-127.5,127.5,-140,127.5,127.5,Open,M,Single-ply,1977,B
60,DQ,Jarmo Kuukasjärvi,RaPe,57.7,-112.5,-112.5,-112.5,,,Open,M,Single-ply,1985,B
67.5,1,Antti Savolainen,TNT,67.2,195,203,-205,203,203,Open,M,Single-ply,1978,B
67.5,2,Antti Ahonen,VarpVi,67.4,175,177.5,-180,177.5,177.5,Open,M,Single-ply,1988,B
67.5,3,Timo Manninen,KajKu,66.3,160,170,-180,170,170,Open,M,Single-ply,1984,B
67.5,4,Ari Kurjenkallio,Tap.Erä,66.6,-170,170,-180,170,170,Open,M,Single-ply,1981,B
67.5,DQ,Jani Heino,RAYVO,66.75,-150,-150,-150,,,Open,M,Single-ply,1982,B
75,1,Janne Pöykiö,TNT,74.2,210,-217.5,-230.5,210,210,Open,M,Single-ply,1978,B
75,2,Erkki Rajala,PV,74.85,195,202.5,-212.5,202.5,202.5,Open,M,Single-ply,1962,B
75,3,Jani Haapamäki,OPT,74.2,185,-192.5,192.5,192.5,192.5,Open,M,Single-ply,1979,B
75,4,Leo Tenhumäki,KK-45,74.4,170,172.5,187.5,187.5,187.5,Open,M,Single-ply,1980,B
75,5,Vesa Hartikainen,EV,74.65,-185,187.5,-195,187.5,187.5,Open,M,Single-ply,1969,B
75,6,Toni Kuusi,TamRy,73.9,185,-192.5,-195,185,185,Open,M,Single-ply,1983,B
75,7,Antti Avanne,TVN,74.95,145,152.5,-157.5,152.5,152.5,Open,M,Single-ply,1982,B
75,DQ,Valto Mononen,RiKi,74.65,-170,-170,-170,,,Open,M,Single-ply,1961,B
75,DQ,Iiro Virtanen,RAYVO,73.15,-190,-190,-190,,,Open,M,Single-ply,1986,B
75,DQ,Janne Humalajoki,PTVAK,72.2,-160,-160,-160,,,Open,M,Single-ply,1983,B
82.5,1,Juha Tuononen,Tap.Erä,82.4,225,-227.5,-236,225,225,Open,M,Single-ply,1968,B
82.5,2,Lauri Kemppainen,So-Vi,81.15,212.5,220,-225,220,220,Open,M,Single-ply,1987,B
82.5,3,Antti Liimatainen,PaPu,81.7,212.5,-220,-225,212.5,212.5,Open,M,Single-ply,1976,B
82.5,4,Matias Rahtu,AavKi,81.8,-210,210,-215,210,210,Open,M,Single-ply,1987,B
82.5,5,Ismo Moisanen,KoJy,81.85,-210,210,-217.5,210,210,Open,M,Single-ply,1979,B
82.5,6,Ville Rytkölä,K-UV,81.05,200,-205,-205,200,200,Open,M,Single-ply,1975,B
82.5,7,Mikko Lehtimäki,TamRy,81.15,-175,175,180,180,180,Open,M,Single-ply,1978,B
82.5,8,Jussi Harmaala,LeVo,82,175,-185,-185,175,175,Open,M,Single-ply,1980,B
82.5,9,Mikko Hinkula,RKV-86,81.95,170,-185,-185,170,170,Open,M,Single-ply,1985,B
82.5,DQ,Pekka Kovalainen,KoJy,78.1,-190,-190,-190,,,Open,M,Single-ply,1961,B
82.5,DQ,Kim Päivöke,KK-V,81.95,-220,-220,-225,,,Open,M,Single-ply,1972,B
82.5,DQ,Jani Reijonen,SaJy,82.4,-185,-185,-185,,,Open,M,Single-ply,1975,B
82.5,DQ,Tomi Vikla,JoPuPo,81.8,-220,-220,-225,,,Open,M,Single-ply,1970,B
82.5,DQ,Simon Kankkonen,KoJy,82.25,-215,-215,-222.5,,,Open,M,Single-ply,1982,B
90,1,Olli Suominen,RAYVO,88.05,215,220,-232.5,220,220,Open,M,Single-ply,1982,B
90,2,Pekka Landvik,RAYVO,89.65,217.5,-225,-225,217.5,217.5,Open,M,Single-ply,1966,B
90,3,Jani Ratilainen,I-HV,88.95,210,-215,-217.5,210,210,Open,M,Single-ply,1975,B
90,4,Roope Aaltonen,YlöR,89.2,210,-215,-217.5,210,210,Open,M,Single-ply,1984,B
90,5,Timo Inkinen,Tap.Erä,89.6,-200,200,-212.5,200,200,Open,M,Single-ply,1982,B
90,6,Klaus Renfors,PaiVo,88.85,190,195,-200,195,195,Open,M,Single-ply,1973,B
90,7,Veli-Matti Pentinsaari,KK-45,89.2,180,-190,-200,180,180,Open,M,Single-ply,1983,B
90,DQ,Tomi Raatikainen,PorHT,84.85,-185,-200,-200,,,Open,M,Single-ply,1976,B
90,DQ,Petteri Mäntyvaara,TamRy,89.85,-220,-220,-220,,,Open,M,Single-ply,1985,B
90,DQ,Eero Halunen,Py-Pa,89.7,-225,-225,-227.5,,,Open,M,Single-ply,1986,B
90,DQ,Harri Nieminen,JoPuPo,89.65,-215,-215,-215,,,Open,M,Single-ply,1972,B
90,DQ,Ilkka Launonen,KK-45,88.4,-192.5,-192.5,-197.5,,,Open,M,Single-ply,1954,B
90,DQ,Heikki Pekkola,EV,87.75,-200,-200,-200,,,Open,M,Single-ply,1986,B
100,1,Petri Kuosma,RAYVO,98.7,-250,250,-257.5,250,250,Open,M,Single-ply,1979,B
100,2,Heikki Laakso,EV,94.1,-230,-230,230,230,230,Open,M,Single-ply,1973,B
100,3,Juha Lehto,Tap.Erä,99,230,-242.5,-242.5,230,230,Open,M,Single-ply,1964,B
100,4,Veli-Matti Heikkinen,JoPuPo,99.8,-220,220,-227.5,220,220,Open,M,Single-ply,1981,B
100,5,Sami Miettinen,KoJy,96.35,-210,215,-220,215,215,Open,M,Single-ply,1978,B
100,6,Björn Berg,ÅKK,97.45,202.5,212.5,-217.5,212.5,212.5,Open,M,Single-ply,1982,B
100,7,Samuli Leminen,TNT,95.7,200,-210,-220,200,200,Open,M,Single-ply,1982,B
100,8,Timo Kovanen,JuPu,97.4,195,-200,200,200,200,Open,M,Single-ply,1974,B
100,9,Seppo Norpila,K-UV,96.25,190,-200,-200,190,190,Open,M,Single-ply,1963,B
100,10,Mika Kauranen,TamRy,96.5,190,-200,-202.5,190,190,Open,M,Single-ply,1966,B
100,11,Jani Petäjämäki,TNT,98.95,190,-200,-202.5,190,190,Open,M,Single-ply,1972,B
100,DQ,Ossi Varonen,Tap.Erä,97.8,-220,-220,-220,,,Open,M,Single-ply,1978,B
100,DQ,Petri Kajanne,HPV,99.75,-220,-220,-230,,,Open,M,Single-ply,1978,B
100,DQ,Kirmo Varvikko,K-SV,98.95,-245,-247.5,-252.5,,,Open,M,Single-ply,1984,B
100,DQ,Mikko Tiensuu,TamRy,98.85,-240,-240,-242.5,,,Open,M,Single-ply,1978,B
100,DQ,Markus Ravander,RKV-86,95.1,-210,-210,-210,,,Open,M,Single-ply,1985,B
100,DQ,Toni Koskinen,HyKe,98.05,-255,-255,-257.5,,,Open,M,Single-ply,1981,B
110,1,Sami Pullinen,Tap.Erä,109.15,275,-280,289,289,289,Open,M,Single-ply,1983,B
110,2,Jukka Lahikainen,HVV,109.6,250,255,265,265,265,Open,M,Single-ply,1968,B
110,3,Timo Hokkanen,HuiVo,108.6,250,257.5,262.5,262.5,262.5,Open,M,Single-ply,1979,B
110,4,Jukka Seppänen,Tap.Erä,107.95,250,-255,-257.5,250,250,Open,M,Single-ply,1977,B
110,5,Juha Pohjonen,KoJy,107.6,225,235,-250,235,235,Open,M,Single-ply,1966,B
110,6,Juha Suomalainen,TNT,106.2,210,220,-230,220,220,Open,M,Single-ply,1972,B
110,DQ,Matti Hukkanen,SaJy,105.8,-210,-210,-210,,,Open,M,Single-ply,1980,B
110,DQ,Ove Lehto,ÅKK,109.7,-252.5,-252.5,-257.5,,,Open,M,Single-ply,1972,B
125,1,Janne Heittokangas,JoPuPo,124.3,-280,280,287.5,287.5,287.5,Open,M,Single-ply,1972,B
125,2,Pekka Heikkala,KEV,123.8,-277.5,277.5,-287.5,277.5,277.5,Open,M,Single-ply,1970,B
125,3,Juho Jaatinen,TNT,124.2,255,-267.5,-272.5,255,255,Open,M,Single-ply,1966,B
125,4,Kimmo Leppänen,Tap.Erä,119.6,-230,230,-235,230,230,Open,M,Single-ply,1968,B
125,5,Matias Holopainen,LeVo,120.6,-220,220,-232.5,220,220,Open,M,Single-ply,1984,B
125,6,Janne Hakala,TamRy,124.15,220,-230,-237.5,220,220,Open,M,Single-ply,1979,B
125,DQ,Lasse Leinonen,JoPuPo,114.35,-275,-275,-280,,,Open,M,Single-ply,1973,B
125,DQ,Pasi Mehtälä,TVT-94,120.1,-210,-210,-210,,,Open,M,Single-ply,1973,B
125,DQ,Juha Märsylä,KoJy,120.15,-275,-280,-282.5,,,Open,M,Single-ply,1978,B
125,DQ,Jarno Rajala,HyKe,121.45,-260,-270,-270,,,Open,M,Single-ply,1973,B
125+,1,Tuomas Korkia-Aho,KelVi,162.5,310,317.5,325,325,325,Open,M,Single-ply,1987,B
125+,2,Kenneth Sandvik,ÅKK,133.45,290,310,317.5,317.5,317.5,Open,M,Single-ply,1975,B
125+,3,Esa Multanen,KoJy,145.9,242.5,247.5,-252.5,247.5,247.5,Open,M,Single-ply,1974,B
125+,4,Mika Aaltonen,TNT,130.35,200,-215,,200,200,Open,M,Single-ply,1966,B
125+,DQ,Heikki Mäkinen,ViialVi,143.35,-237.5,-237.5,-237.5,,,Open,M,Single-ply,1982,B
