Division,WeightClassKg,Place,Name,Team,BodyweightKg,Best3SquatKg,Best3BenchKg,Best3DeadliftKg,TotalKg,Equipment,Event,Sex
Boys,52,1,Otis Jackson,Aledo,48.35,74.84,52.16,83.91,210.92,Single-ply,SBD,M
Boys,56,1,Noah Duvall,Springtown,53.52,113.4,65.77,124.74,303.91,Single-ply,SBD,M
Boys,56,2,Andres Hernandez,Springtown,53.39,97.52,68.04,122.47,288.03,Single-ply,SBD,M
Boys,56,3,Steven Burns,Aledo,54.61,86.18,56.7,106.59,249.48,Single-ply,SBD,M
Boys,60,1,Holden Fry,Springtown,59.83,136.08,72.57,158.76,367.41,Single-ply,SBD,M
Boys,60,2,Joel Rayos,Springtown,56.88,104.33,61.23,122.47,288.03,Single-ply,SBD,M
Boys,60,3,Phillip Brooke,Aledo,57.33,90.72,61.23,95.25,247.21,Single-ply,SBD,M
Boys,67.5,1,Cooper Wallis,Aledo,67,199.58,117.93,217.72,535.24,Single-ply,SBD,M
Boys,67.5,2,Jesse Graham,Aledo,66.95,199.58,136.08,197.31,532.97,Single-ply,SBD,M
Boys,67.5,3,Kylen Hart,Weatherford,64.41,156.49,92.99,151.95,401.43,Single-ply,SBD,M
Boys,67.5,4,Saul Sanchez,Weatherford,61.96,136.08,72.57,142.88,351.53,Single-ply,SBD,M
Boys,67.5,5,Michael Anderson,Weatherford,65.5,127.01,79.38,142.88,349.27,Single-ply,SBD,M
Boys,75,1,Grayson Porche,Aledo,72.67,172.37,117.93,188.24,478.54,Single-ply,SBD,M
Boys,75,2,Weston Reese,Aledo,74.75,154.22,108.86,158.76,421.84,Single-ply,SBD,M
Boys,75,3,Adam Aguirre,Springtown,69.17,170.1,83.91,165.56,419.57,Single-ply,SBD,M
Boys,75,4,Logan Terrell,Springtown,72.98,161.03,83.91,163.29,408.23,Single-ply,SBD,M
Boys,75,5,Bradey Rhodes,Springtown,74.21,149.69,88.45,163.29,401.43,Single-ply,SBD,M
Boys,75,6,Carlos Amaro,Weatherford,69.58,140.61,88.45,158.76,387.82,Single-ply,SBD,M
Boys,75,7,Gavin Williams,Aledo,72.39,129.27,88.45,142.88,360.61,Single-ply,SBD,M
Boys,75,8,Gabe Flores,Weatherford,73.57,158.76,,158.76,317.51,Single-ply,SD,M
Boys,75,9,Michael Anderson,Aledo,71.89,,79.38,120.2,199.58,Single-ply,BD,M
Boys,82.5,1,River Hall,Weatherford,79.74,170.1,120.2,181.44,471.74,Single-ply,SBD,M
Boys,82.5,2,Cameron Rickett,Springtown,78.56,165.56,86.18,170.1,421.84,Single-ply,SBD,M
Boys,82.5,3,Cooper Thompson,Aledo,81.51,156.49,111.13,149.69,417.3,Single-ply,SBD,M
Boys,82.5,4,Jaquan Cummings,Springtown,78.65,124.74,79.38,170.1,374.21,Single-ply,SBD,M
Boys,82.5,5,Braden Robertson,Weatherford,81.92,231.33,140.61,,371.95,Single-ply,SB,M
Boys,82.5,6,Julian Diaz #2,Weatherford,81.74,140.61,79.38,142.88,362.87,Single-ply,SBD,M
Boys,82.5,7,Brent Rose,Springtown,81.74,129.27,72.57,147.42,349.27,Single-ply,SBD,M
Boys,90,1,Guillermo Pando,Springtown,87.54,206.38,124.74,208.65,539.77,Single-ply,SBD,M
Boys,90,2,Peyton Hetrick,Weatherford,83.14,204.12,108.86,206.38,519.36,Single-ply,SBD,M
Boys,90,3,Tim Parker #2,Weatherford,83.37,174.63,106.59,188.24,469.47,Single-ply,SBD,M
Boys,90,4,Tanner Knox,Weatherford,82.15,158.76,92.99,192.78,444.52,Single-ply,SBD,M
Boys,90,5,Jason Byrne,Aledo,82.28,108.86,83.91,117.93,310.71,Single-ply,SBD,M
Boys,100,1,Jake Beaird,Weatherford,93.44,258.55,136.08,226.8,621.42,Single-ply,SBD,M
Boys,100,2,Elijah Dean,Weatherford,94.62,204.12,133.81,192.78,530.7,Single-ply,SBD,M
Boys,100,3,Jet Barton,Aledo,98.52,170.1,113.4,170.1,453.59,Single-ply,SBD,M
Boys,100,4,Rene Olvera,Weatherford,93.62,174.63,92.99,172.37,439.98,Single-ply,SBD,M
Boys,100,5,Grayson Jarvis,Aledo,99.61,156.49,104.33,165.56,426.38,Single-ply,SBD,M
Boys,100,6,Jesus Campos,Weatherford,90.31,147.42,77.11,154.22,378.75,Single-ply,SBD,M
Boys,100,7,Dylan Byford,Springtown,97.75,131.54,70.31,142.88,344.73,Single-ply,SBD,M
Boys,110,1,Reynaldo Valenzuela,Weatherford,101.97,210.92,104.33,226.8,542.04,Single-ply,SBD,M
Boys,110,2,Chandler Jackson,Weatherford,105.32,185.97,127.01,201.85,514.83,Single-ply,SBD,M
Boys,110,3,Colby Thomas,Aledo,109.63,161.03,124.74,174.63,460.4,Single-ply,SBD,M
Boys,110,4,Cade Taylor,Weatherford,103.42,170.1,81.65,158.76,410.5,Single-ply,SBD,M
Boys,110,5,Logan Michael,Aledo,100.02,138.35,92.99,142.88,374.21,Single-ply,SBD,M
Boys,110,6,Blake Price,Aledo,100.79,145.15,90.72,133.81,369.68,Single-ply,SBD,M
Boys,125,1,Gavin Gardner-Knight,Aledo,118.48,183.7,138.35,181.44,503.49,Single-ply,SBD,M
Boys,125,2,Logan Escamilla,Aledo,116.39,183.7,127.01,185.97,496.68,Single-ply,SBD,M
Boys,125,3,Brian McWhorter,Springtown,117.66,167.83,111.13,206.38,485.34,Single-ply,SBD,M
Boys,125,4,Alex Frithiof,Springtown,111.22,167.83,111.13,181.44,460.4,Single-ply,SBD,M
Boys,125,5,Jacob Stewart,Aledo,113.04,165.56,117.93,147.42,430.91,Single-ply,SBD,M
Boys,125+,1,Ethan Meese,Weatherford,145.06,251.74,127.01,199.58,578.33,Single-ply,SBD,M
Boys,125+,2,Jonathen Renteria,Weatherford,135.9,219.99,127.01,210.92,557.92,Single-ply,SBD,M
Boys,125+,3,Chandler Knandel,Aledo,137.62,170.1,117.93,188.24,476.27,Single-ply,SBD,M
