Division,WeightClassKg,Place,Name,Team,BodyweightKg,Best3SquatKg,Best3BenchKg,Best3DeadliftKg,TotalKg,Equipment,Event,Sex
Boys,52,1,Alex Rodriguez,Sulphur Springs,51.71,124.74,68.04,145.15,337.93,Single-ply,SBD,M
Boys,52,2,Oscar Yanez,Sulphur Springs,51.71,117.93,74.84,122.47,315.25,Single-ply,SBD,M
Boys,60,1,Cason Goodson,Sulphur Springs,58.97,163.29,88.45,145.15,396.89,Single-ply,SBD,M
Boys,60,2,Bobby Jackson,Jacksonville,59.87,147.42,83.91,154.22,385.55,Single-ply,SBD,M
Boys,60,3,David Alexander #2,Jacksonville,58.51,154.22,95.25,124.74,374.21,Single-ply,SBD,M
Boys,60,4,River Chaney,Quitman,57.61,133.81,72.57,154.22,360.61,Single-ply,SBD,M
Boys,60,5,Michael Rosales,Rusk,59.87,138.35,77.11,136.08,351.53,Single-ply,SBD,M
Boys,60,6,Daniel Wilde,Jacksonville,59.87,140.61,65.77,131.54,337.93,Single-ply,SBD,M
Boys,60,7,Jose Lopez,Grand Saline,59.87,113.4,70.31,120.2,303.91,Single-ply,SBD,M
Boys,67.5,1,Christian Garcia,Emory Rains,67.13,176.9,95.25,192.78,464.93,Single-ply,SBD,M
Boys,67.5,2,Austin Neely,Jacksonville,63.96,170.1,111.13,165.56,446.79,Single-ply,SBD,M
Boys,67.5,3,Caleb McNair,Rusk,65.77,174.63,104.33,163.29,442.25,Single-ply,SBD,M
Boys,67.5,4,Chris Galvan,Jacksonville,67.13,154.22,90.72,174.63,419.57,Single-ply,SBD,M
Boys,67.5,5,George Greenway,Sulphur Springs,67.13,158.76,86.18,167.83,412.77,Single-ply,SBD,M
Boys,67.5,6,Johnnie Giron,Emory Rains,63.5,124.74,65.77,120.2,310.71,Single-ply,SBD,M
Boys,67.5,7,Johnny Knighton,Emory Rains,67.13,111.13,70.31,117.93,299.37,Single-ply,SBD,M
Boys,75,1,Dakota Boone,Quitman,72.57,190.51,113.4,190.51,494.42,Single-ply,SBD,M
Boys,75,2,Byron Johnson #1,Rusk,74.84,192.78,106.59,188.24,487.61,Single-ply,SBD,M
Boys,75,3,Carson Bridges,Sulphur Springs,72.57,181.44,99.79,199.58,480.81,Single-ply,SBD,M
Boys,75,4,Trey Harris,Jacksonville,69.85,161.03,104.33,163.29,428.64,Single-ply,SBD,M
Boys,75,5,Carl Thurmand,Emory Rains,71.67,151.95,86.18,165.56,403.7,Single-ply,SBD,M
Boys,75,6,Landry Tyson,Sulphur Springs,73.48,138.35,92.99,165.56,396.89,Single-ply,SBD,M
Boys,75,7,Brayden Miller,Quitman,70.31,117.93,68.04,127.01,312.98,Single-ply,SBD,M
Boys,82.5,1,Cor'tavius Pruitt,Sulphur Springs,77.56,238.14,120.2,206.38,564.72,Single-ply,SBD,M
Boys,82.5,2,Isaiah Neal,Sulphur Springs,82.1,222.26,120.2,213.19,555.65,Single-ply,SBD,M
Boys,82.5,3,Vincent Morales,Sulphur Springs,82.1,195.04,124.74,217.72,537.51,Single-ply,SBD,M
Boys,82.5,4,Naim Diego,Emory Rains,82.1,199.58,99.79,219.99,519.36,Single-ply,SBD,M
Boys,82.5,5,Micah Beale,Jacksonville,82.1,192.78,106.59,192.78,492.15,Single-ply,SBD,M
Boys,82.5,6,Sam Thomas,Rusk,81.65,183.7,113.4,188.24,485.34,Single-ply,SBD,M
Boys,82.5,7,Adrian Martinez,Grand Saline,76.2,176.9,122.47,181.44,480.81,Single-ply,SBD,M
Boys,82.5,8,Anthony Watson,Rusk,78.47,149.69,92.99,176.9,419.57,Single-ply,SBD,M
Boys,82.5,9,Kaleb Mills,Sulphur Springs,78.93,147.42,95.25,154.22,396.89,Single-ply,SBD,M
Boys,90,1,Oscar Arellano,Jacksonville,86.18,195.04,117.93,208.65,521.63,Single-ply,SBD,M
Boys,90,2,Searn Rodgers,Sulphur Springs,89.81,181.44,115.67,170.1,467.2,Single-ply,SBD,M
Boys,90,3,Derek Mayhugh,Grand Saline,89.81,181.44,102.06,183.7,467.2,Single-ply,SBD,M
Boys,90,4,Nick Acker,Rusk,86.18,154.22,86.18,165.56,405.97,Single-ply,SBD,M
Boys,90,5,Kaden Mattingly,Malakoff Cross Roads,89.81,136.08,92.99,161.03,390.09,Single-ply,SBD,M
Boys,90,6,Evan Rushing,Sulphur Springs,83.46,163.29,72.57,149.69,385.55,Single-ply,SBD,M
Boys,90,7,Anthony Bomar,Emory Rains,89.81,145.15,88.45,151.95,385.55,Single-ply,SBD,M
Boys,90,8,Houston Ivey,Emory Rains,85.73,117.93,68.04,113.4,299.37,Single-ply,SBD,M
Boys,90,9,Bryce Manning,Emory Rains,83.91,113.4,65.77,113.4,292.57,Single-ply,SBD,M
Boys,100,1,D'Idrec Dugan,Sulphur Springs,99.79,235.87,131.54,260.82,628.23,Single-ply,SBD,M
Boys,100,2,Cash Nations,Grand Saline,99.79,165.56,115.67,185.97,467.2,Single-ply,SBD,M
Boys,100,3,Jaden Turner,Rusk,99.79,195.04,90.72,181.44,467.2,Single-ply,SBD,M
Boys,100,4,Drace Mizell,Quinlan Boles,96.16,179.17,102.06,179.17,460.4,Single-ply,SBD,M
Boys,100,5,Jose Rodriguez,Sulphur Springs,99.79,181.44,117.93,154.22,453.59,Single-ply,SBD,M
Boys,100,6,Hunter Huggins,Quitman,94.8,167.83,72.57,167.83,408.23,Single-ply,SBD,M
Boys,100,7,Max Aumada,Emory Rains,99.79,124.74,58.97,106.59,290.3,Single-ply,SBD,M
Boys,110,1,Jermaine Lewis,Rusk,109.77,249.48,115.67,240.4,605.55,Single-ply,SBD,M
Boys,110,2,Flavio Hernandez,Jacksonville,100.24,204.12,140.61,210.92,555.65,Single-ply,SBD,M
Boys,110,3,Ignacio Guerrero,Sulphur Springs,101.15,215.46,122.47,190.51,528.44,Single-ply,SBD,M
Boys,110,4,Seth Hoffman,Rusk,109.77,201.85,102.06,183.7,487.61,Single-ply,SBD,M
Boys,110,5,Cody Godwin,Emory Rains,109.77,190.51,102.06,181.44,474,Single-ply,SBD,M
Boys,110,6,Dustin Wallace,Emory Rains,109.77,185.97,97.52,183.7,467.2,Single-ply,SBD,M
Boys,110,7,Kaleb Zimmer,Quinlan Boles,109.77,179.17,104.33,179.17,462.66,Single-ply,SBD,M
Boys,110,8,Zaden Devereaux,Rusk,104.33,170.1,102.06,176.9,449.06,Single-ply,SBD,M
Boys,110,9,Aaron McKiddy,Grand Saline,109.77,142.88,97.52,147.42,387.82,Single-ply,SBD,M
Boys,110,10,Kody McBride,Quinlan Boles,102.06,52.16,58.97,99.79,210.92,Single-ply,SBD,M
Boys,125,1,Ian Blanch,Sulphur Springs,115.21,272.16,147.42,244.94,664.51,Single-ply,SBD,M
Boys,125,2,Sergio Cabrera,Jacksonville,124.74,267.62,161.03,233.6,662.24,Single-ply,SBD,M
Boys,125,3,Sammy Palma,Grand Saline,124.74,224.53,136.08,231.33,591.94,Single-ply,SBD,M
Boys,125,4,Tay Baker,Jacksonville,115.67,219.99,120.2,224.53,564.72,Single-ply,SBD,M
Boys,125,5,Jesus Olivio,Sulphur Springs,120.66,238.14,117.93,192.78,548.85,Single-ply,SBD,M
Boys,125+,1,Grant Farley,Quinlan Boles,127.01,272.16,147.42,238.14,657.71,Single-ply,SBD,M
Boys,125+,2,Norris English,Sulphur Springs,136.08,226.8,124.74,192.78,544.31,Single-ply,SBD,M
Boys,125+,3,Isaac Sims,Quitman,138.35,190.51,115.67,226.8,532.97,Single-ply,SBD,M
Boys,125+,4,Noah Lewelling,Quitman,130.63,185.97,127.01,181.44,494.42,Single-ply,SBD,M
Boys,125+,5,Matthew Fenn,Quinlan Boles,145.15,154.22,77.11,183.7,415.04,Single-ply,SBD,M
