Place,Sex,Name,Event,Division,WeightClassKg,Equipment,Team,State,BodyweightKg,Squat1Kg,Squat2Kg,Squat3Kg,Best3SquatKg,Bench1Kg,Bench2Kg,Bench3Kg,Best3BenchKg,Deadlift1Kg,Deadlift2Kg,Deadlift3Kg,Best3DeadliftKg,TotalKg,BirthYear
3,M,Holden Manhart,SBD,MR-T,56,Raw,NEC,WI,55.2,97.5,102.5,105,105,52.5,57.5,-62.5,57.5,102.5,110,115,115,277.5,2001
1,M,Cole Kaiser,SBD,MR-T,60,Raw,RF,WI,57.2,110,120,-137.5,120,60,65,-70,65,142.5,152.5,-165,152.5,337.5,1998
2,M,Jerric Blair,SBD,MR-T,60,Raw,RF,WI,58.6,85,90,-97.5,90,57.5,62.5,65,65,125,132.5,-137.5,132.5,287.5,2000
2,M,Brian Miller,SBD,MR-T,67.5,Raw,RF,WI,66.8,135,142.5,147.5,147.5,72.5,80,85,85,175,185,192.5,192.5,425,1998
1,M,Bryce Johnson #2,SBD,MR-T,67.5,Raw,HOR,WI,65,115,122.5,132.5,132.5,75,82.5,-92.5,82.5,147.5,152.5,160,160,375,1998
3,M,Trey Zwiefelhofer,SBD,MR-T,67.5,Raw,BL,WI,66.3,85,-92.5,-102.5,85,70,-75,-75,70,125,135,145,145,300,2000
4,M,Tyler Luke,SBD,MR-T,67.5,Raw,BL,WI,67,62.5,80,-92.5,80,-57.5,-57.5,57.5,57.5,112.5,125,132.5,132.5,270,2001
1,M,Patrick Arbanas,SBD,MR-T,75,Raw,NEC,WI,72.3,145,147.5,150,150,-95,95,102.5,102.5,162.5,170,182.5,182.5,435,1999
1,M,Noah Johnson,SBD,MR-T,82.5,Raw,HOR,WI,79,160,165,170,170,102.5,110,-115,110,205,215,227.5,227.5,507.5,2000
2,M,Zach Perry,SBD,MR-T,82.5,Raw,HOR,WI,80.8,130,140,-150,140,72.5,77.5,80,80,165,172.5,-182.5,172.5,392.5,2000
3,M,Eric Ohde,SBD,MR-T,82.5,Raw,McD,WI,76,115,-127.5,-132.5,115,-102.5,-102.5,102.5,102.5,-152.5,152.5,-155,152.5,370,
4,M,Ryan Pierson,SBD,MR-T,82.5,Raw,RF,WI,76.2,102.5,-107.5,107.5,107.5,70,75,-80,75,142.5,147.5,155,155,337.5,2000
DQ,M,Travis Messer,SBD,MR-T,82.5,Raw,NR,WI,82.4,-127.5,135,-140,135,-102.5,-105,-105,,165,172.5,182.5,182.5,,2000
1,M,Reece Heyerdahl,SBD,MR-T,90,Raw,IND-NEE,WI,89.6,160,172.5,185,185,100,105,-112.5,105,192.5,210,-232.5,210,500,2001
2,M,Dalton Staller,SBD,MR-T,90,Raw,NEC,WI,89.3,167.5,177.5,180,180,105,107.5,110,110,175,185,192.5,192.5,482.5,1998
3,M,Travis Johnson,SBD,MR-T,90,Raw,MAU,WI,87.3,110,120,127.5,127.5,65,70,-72.5,70,170,187.5,-192.5,187.5,385,2000
4,M,Elijah Prill,SBD,MR-T,90,Raw,BL,WI,84.2,125,137.5,-145,137.5,77.5,80,-82.5,80,125,142.5,160,160,377.5,2000
5,M,Benjamin Zahn,SBD,MR-T,90,Raw,HOR,WI,86.6,115,-120,-120,115,65,70,-72.5,70,140,150,162.5,162.5,347.5,2000
6,M,Seth Pecha,SBD,MR-T,90,Raw,BL,WI,84.8,102.5,110,-115,110,62.5,67.5,70,70,-125,130,142.5,142.5,322.5,2000
1,M,Erik Eaton,SBD,MR-T,100,Raw,RF,WI,97.5,195,210,220,220,132.5,140,145,145,212.5,227.5,235,235,600,1998
3,M,Hunter Burlingame,SBD,MR-T,100,Raw,ELK,WI,93.4,-175,185,192.5,192.5,95,102.5,115,115,225,240,-245,240,547.5,2000
2,M,Andre Dusek,SBD,MR-T,110,Raw,RF,WI,102,202.5,217.5,227.5,227.5,105,112.5,117.5,117.5,202.5,-212.5,212.5,212.5,557.5,1998
2,M,Eric Bromeisl,SBD,MR-T,110,Raw,McD,WI,109.4,185,-195,195,195,85,-95,-95,85,185,197.5,210,210,490,1999
3,M,Carter Welch,SBD,MR-T,110,Raw,BL,WI,108.1,165,180,-185,180,97.5,110,-122.5,110,167.5,187.5,197.5,197.5,487.5,2000
4,M,Elijah Froemming,SBD,MR-T,110,Raw,RF,WI,102,145,155,167.5,167.5,100,105,-107.5,105,192.5,-205,-215,192.5,465,2000
5,M,Joshua Mauel,SBD,MR-T,110,Raw,KAU,WI,101.5,125,142.5,150,150,92.5,102.5,-107.5,102.5,167.5,-185,-185,167.5,420,1999
1,M,Jaden Burgess-Eisch,SBD,MR-T,125,Raw,IND-AN,WI,112.8,237.5,247.5,255,255,142.5,155,-160,155,252.5,260,-270,260,670,1999
2,M,Tyler David,SBD,MR-T,125,Raw,NEC,WI,123.7,170,180,190,190,107.5,115,120,120,170,182.5,-192.5,182.5,492.5,1999
4,M,Jay Williams,SBD,MR-T,125,Raw,RF,WI,113.7,152.5,170,182.5,182.5,95,100,107.5,107.5,160,170,182.5,182.5,472.5,1997
4,M,Aaron Prill,SBD,MR-T,125,Raw,BL,WI,125,135,162.5,-190,162.5,90,95,-102.5,95,90,190,-217.5,190,447.5,1998
1,M,Adam Firari,SBD,MR-T,125+,Raw,BD,WI,160.9,-182.5,-182.5,182.5,182.5,130,137.5,-145,137.5,182.5,192.5,197.5,197.5,517.5,
3,M,Oscar Arroyo,SBD,MR-T,125+,Raw,CU,WI,140.7,200,-210,210,210,105,110,-115,110,172.5,-192.5,-197.5,172.5,492.5,1999
5,M,Benjamin Rewolinski,SBD,MR-T,125+,Raw,SM,WI,143.4,135,142.5,-160,142.5,102.5,107.5,115,115,170,-177.5,-177.5,170,427.5,2000
1,F,Stephanie Rattunde,SBD,FR-T,48,Raw,NEC,WI,44.5,82.5,87.5,90,90,67.5,72.5,75,75,110,117.5,125,125,290,1997
2,F,Emily Krause,SBD,FR-T,48,Raw,McD,WI,46.8,57.5,-67.5,-67.5,57.5,35,40,-45,40,62.5,67.5,-72.5,67.5,165,1999
1,F,Stephanie Lavoy,SBD,FR-T,52,Raw,NEC,WI,50.8,90,97.5,105,105,55,60,-65,60,-110,110,122.5,122.5,287.5,1999
2,F,Angella Cabigting,SBD,FR-T,52,Raw,ON,WI,49.7,52.5,70,-75,70,45,50,-57.5,50,62.5,72.5,100,100,220,1998
1,F,Annika Angelo,SBD,FR-T,56,Raw,PH,WI,53.2,87.5,92.5,-95,92.5,47.5,52.5,-55,52.5,105,110,117.5,117.5,262.5,2000
2,F,Kenzie Svoboda,SBD,FR-T,56,Raw,PH,WI,55.4,75,80,-85,80,47.5,-52.5,-52.5,47.5,105,110,115,115,242.5,2000
3,F,Shannon Saunders,SBD,FR-T,56,Raw,LAC,WI,54.3,47.5,52.5,55,55,30,-32.5,32.5,32.5,62.5,67.5,70,70,157.5,2000
2,F,Emma Ramsey,SBD,FR-T,67.5,Raw,HOR,WI,65.9,97.5,105,112.5,112.5,57.5,62.5,65,65,140,150,152.5,152.5,330,1998
3,F,Esther Theisen,SBD,FR-T,67.5,Raw,REG,WI,66.5,125,132.5,-142.5,132.5,55,57.5,60,60,122.5,130,137.5,137.5,330,1998
4,F,Valeria Martinez,SBD,FR-T,67.5,Raw,BD,WI,66.3,122.5,-132.5,-132.5,122.5,60,62.5,65,65,125,135,-142.5,135,322.5,1998
1,F,Remington Trewyn,SBD,FR-T,67.5,Raw,NEC,WI,61.9,105,-107.5,-107.5,105,57.5,60,62.5,62.5,117.5,125,132.5,132.5,300,2000
2,F,Brittany Danda,SBD,FR-T,67.5,Raw,POY,WI,61.4,97.5,105,-112.5,105,55,57.5,60,60,120,130,-142.5,130,295,1998
1,F,Amber Kierstyn,SBD,FR-T,75,Raw,AF,WI,71.2,112.5,120,130,130,62.5,70,72.5,72.5,130,135,140,140,342.5,1998
1,F,Camryn Ochs,SBD,FR-T,75,Raw,WU,WI,73.4,112.5,120,127.5,127.5,60,65,-70,65,102.5,110,-115,110,302.5,1999
2,F,Miranda Koehnke,SBD,FR-T,75,Raw,MAU,WI,74.7,105,115,122.5,122.5,45,50,52.5,52.5,112.5,115,125,125,300,2001
5,F,Abigail Saunders,SBD,FR-T,75,Raw,NEC,WI,69.2,102.5,107.5,-112.5,107.5,42.5,45,-47.5,45,120,125,132.5,132.5,285,2000
3,F,Alexea Engel,SBD,FR-T,82.5,Raw,AF,WI,80.7,102.5,112.5,117.5,117.5,45,50,-52.5,50,107.5,112.5,-125,112.5,280,1999
4,F,Virginia McMillan,SBD,FR-T,82.5,Raw,PH,WI,80.9,75,80,87.5,87.5,40,45,-50,45,85,92.5,100,100,232.5,2001
5,F,Kassidy Kolodzik,SBD,FR-T,82.5,Raw,OM,WI,75.8,55,57.5,-60,57.5,35,-40,40,40,62.5,65,70,70,167.5,1999
3,F,Shaye Winker,SBD,FR-T,90,Raw,MAU,WI,85.9,65,75,82.5,82.5,35,42.5,-47.5,42.5,75,90,100,100,225,2000
1,F,Miriam Hurula,SBD,FR-T,90+,Raw,XAV,WI,114.3,-130,132.5,-135,132.5,62.5,67.5,70,70,125,132.5,140,140,342.5,1997
2,F,Hailee Markey,SBD,FR-T,90+,Raw,RF,WI,98.5,82.5,87.5,95,95,55,57.5,-62.5,57.5,110,120,137.5,137.5,290,2000
1,F,Anna Delao,SBD,X,52,Single-ply,NA,WI,52,67.5,72.5,82.5,82.5,35,37.5,-40,37.5,100,105,-110,105,225,2000
1,F,Mariah Hamm,SBD,X,90,Single-ply,NA,WI,83.8,170,180,-185,180,90,97.5,102.5,102.5,175,185,-192.5,185,467.5,1992
